\relax 
\citation{bagofwords}
\citation{vectors}
\citation{german}
\@writefile{toc}{\contentsline {section}{\numberline {1}Introduction}{1}}
\citation{LABR}
\citation{dossantos}
\citation{leandmikolov}
\@writefile{lot}{\contentsline {table}{\numberline {1}{\ignorespaces The same sentence expressed in three languages of differing morphological complexity. The languages are presented in order of increasing morphological complexity with the simplest (Mandarin) on the left, the most complex (Arabic) on the right, and one of intermediate complexity (English) in the middle.\relax }}{2}}
\@writefile{toc}{\contentsline {section}{\numberline {2}Methods}{2}}
\@writefile{toc}{\contentsline {subsection}{\numberline {2.1}Materials}{2}}
\newlabel{materials}{{2.1}{2}}
\@writefile{toc}{\contentsline {subsection}{\numberline {2.2}Procedure}{3}}
\@writefile{toc}{\contentsline {subsection}{\numberline {2.3}Evaluation}{3}}
\bibcite{bagofwords}{1}
\bibcite{vectors}{2}
\bibcite{german}{3}
\bibcite{LABR}{4}
\bibcite{Soup}{5}
\bibcite{dossantos}{6}
\bibcite{leandmikolov}{7}
\@writefile{toc}{\contentsline {section}{\numberline {3}Results}{4}}
\@writefile{toc}{\contentsline {section}{\numberline {4}Discussion}{4}}
\@writefile{toc}{\contentsline {section}{\numberline {A}Division of Labor}{4}}
\@writefile{toc}{\contentsline {section}{\numberline {B}Wordcount (Excluding References)}{4}}
