402418		“多看”仍旧比豆瓣做的好很多 建议在豆瓣阅读器升级前，去“多看”阅读器那边买来看。同样的价格，豆瓣阅读器功能有残缺。我买了此书的纸质版，刚刚又仔细比较了一下三者，在忠于原书，字体，色彩，排版等方面，“多看”仍旧比豆瓣做的好很多。	10	2	4
402418		豆瓣的电子阅读器太烂了 都不知道在哪里可以做笔记，也不能全屏查阅，真是郁闷，还不如买一本纸质书。不过书的内容还是不错，值得学习	10	2	6
402418		书是好书，豆瓣阅读排版太烂。 书是好书，但是作为一本排版设计入门的书，它本身的排版如此糟糕是完全不可接受的。本书一开始就介绍了亲密性原则，可是本书的排版中正文部分文字和图片的文字的字体和排版却区分不开（如p39面）；而对齐原则，既然采取了段间留下一行行距，为什么不考虑取消段首的两字缩进了，很多段落都...	10	2	6
402418		借鉴起来便利的日常商务设计参考 1.本书很适合买电子版。 2.本书罗列了所用字体，参考起来很方便 3.虽然方块字和英文字母不同，但是全书读下来，还是有很多可以借鉴之处	10	2	8
402418		前半部分介绍设计4原则对初学来说比较有用，后面的例子介绍基本都是国外的平面设计例子，只能仅供参考了解。	10	2	6
402418		非常实操，虽然干货就四个词，信息量不大，但是对于业余人士足够建立基本的平面设计审美了	10	2	8
402418		非专业人员必须	10	2	10
402418		非常基础的设计教程，值得一读。	10	2	8
402418		早一点读该多好。其实两个半天就读完了，怎么拖了一两年。不过早点读未必会有这么多领悟。有了这一年多和 UX 的合作经验再来读，收获更大些。	10	2	10
402418		初学，赞	10	2	10
402418		很好，好有帮助！五星推荐	10	2	10
402418		老外写的书还是很直接实用	10	2	10
402418		简单易懂，很有用	10	2	10
402418		第一部分尤其实用	10	2	10
402418		设计小白的入门读物。	10	2	10
402418		6	10	2	10
402418		对于设计初学者来说，简单易懂，看的清清楚楚明明白白。	10	2	10
402418		还行	10	2	6
402418		终于看完了。前后断断续续有两三个月了。 不错不错，好歹现在知道怎么看好坏了。日常用的上。	10	2	8
402418		写的真好 当前看完第一章。很好的串讲了基础知识。。。。。。。。。。。。。。。。。。。。。。。。。。。。。。。。。。。	10	2	10
1637944		比较难	10	2	6
1637944		还行	10	2	8
1637944		勘误太多，尽快跟进吧	10	2	8
1637944		非常好	10	2	10
1637944		好 写的很好	10	2	10
1637944		一直不知道程序是如何编译的，这本书还是比较好的，让我们对程序源码到可执行文件的过程有一个比较清晰的概念	10	2	10
1637944		难得的好书	10	2	10
387525		很多代码没有缩进。。。 发现没？电子书版面是个大问题。。。。。。。。。。。。。。。。。。。。。。。。。。。。。。。。。。。。。。。。。。。。。。。。。。	10	2	10
387525		买了就不能读了,点阅读出来空白页面 这不是坑爹么?豆瓣还我12块!!! 这不是坑爹么?豆瓣还我12块!!! 这不是坑爹么?豆瓣还我12块!!! 这不是坑爹么?豆瓣还我12块!!! 这不是坑爹么?豆瓣还我12块!!! 这不是坑爹么?豆瓣还我12块!!! 这不是坑爹么?豆瓣还我12块!!! 够50字了吧?? 比较零散的主题.对Lisp推崇备至	10	2	6
387525		一边做思维体操，一边增长见识 先不说书的内容，作者他写作时的态度与文字组织就让我很感兴趣了。就态度来说，有很浓的黑客风范——Not afraid to take a stand（参考阿姆的歌曲Not Afraid，本书作者也叫阿姆，真有意思）。这种说话的语气，看着就觉得爽。关于文字组织方式，论点论据总是条理清晰，层层推进。读者可以...	10	2	10
387525		有意思... 哈哈 第一本付费电子书 .......	10	2	10
387525		断断续续看完，前中部分比较精彩，后面安利lisp是什么鬼，让我对python倒是很感兴趣了	10	2	8
387525		1冲着黑客x画家的CP去的，到最后发现其实只有黑客；2中途好几次翻回去看书名，还以为自己错拿了王小波杂文选；3一句话介绍本书：Lisp牛逼，不服来撕！	10	2	10
387525		也许是翻译得很烂，我不喜欢这本书。废话多。仅此一条，废话多。	10	2	4
387525		改变看法 自己都中学的时候还是比较受欢迎的，但是也不喜欢那些不受欢迎的人，这本书对我最大的影响是，改变了自己对很多不受欢迎的人的看法。 推荐阅读	10	2	8
387525		标签 让我想起了英国病人，有一类人或者说太多数人喜欢定义标签，或者给事物打标签，现在的应用都可以给一个图片或者文章定义标签就可见一斑了。人们懒惰，追求简单，恐惧孤独种种原因让我们习惯了标签这个东西。	10	2	6
387525		所以，如果不是黑客怎么办？ 黑客和画家用于创造，想法变成真实的过程。如果不是画家，而是个音乐家，那也该是如此。想学习心理学，似乎这就差别大了，但对于创作和解决问题的追求还是不变 Lisp！ Graham是想说Lisp是未来语言发展的良好基因吧 期待看看他是怎么推广Lisp滴 看了一点点Lisp 感觉数学公式的影子	10	2	6
387525		每个人都应该读一读其中关于社会的部分，要是能和讲程序语言的分开出版就好了	10	2	10
387525		作者站的角度高啊，望尘莫及。	10	2	8
387525		关于书呆子、贫富分化、创造财富等，提供一些很独到的视角。	10	2	8
387525		虽然是04年写的书，可在12年后的今天，书中依然有不少值得借鉴的思想。整本书章与章之间是没有脉络的，可随意跳读。有比较水的章节”防止垃圾邮件的一种方法“，也有很亮的章节”设计者的品味“，”关注贫富差距“。 作者本身也是就是一个牛人，总体来看，此书是很值的。	10	2	8
387525		有些观点并不认同，也许是我没能理解作者吧	10	2	6
387525		方法论很好，价值观一半一半。	10	2	10
387525		读起像是博文的集合，每章独立，关联性不强，主要是围绕这自己的一些经历写的一些感想（小时候是个书呆子，不怎么受欢迎，后来和朋友创业，公司被雅虎收购，貌似也铸就了后来的第一次互联网浪潮）。作者是一个爱思考的天才，但又有点中二气质，也许这就是所谓的黑客的作风。 作者对编程、设计、编程语言、创业都有一些...	10	2	6
387525		如何创造财富一章值回票价。其它章节只能说是作者对相应问题的一些思考（当然也是很用心的）。略为矫情的书名成功地勾起了读者的好奇心，其实只是一本文章合集而已。	10	2	8
387525		一本越读越有味道的书	10	2	10
387525		看到了语言成真	10	2	10
387525		好书	10	2	10
387525		很多实用有洞察力的想法，可能涉及到编程方面会卡住一些人，不得不说，整篇都是干货，各个章节的主题也很有趣，关键是，没有车轱辘话~	10	2	10
387525		之前看了个盗版的电子书，看得我热血沸腾，买一下滋磁滋磁。	10	2	10
387525		感觉适合青少年看的书	10	2	4
387525		清晰简洁又天马行空。十分有趣的一本书，想起impromptu	10	2	10
1281060		专业提供淘宝货源以及技术指导！QQ2860342027	10	2	6
1281060		这本书看一半就行，后面的基本没用。	10	2	6
1281060		了解伟大的互联网企业从零开始的历程,然后会想我在现公司也超十年了,怎么我们就无法能有这样高的成就	10	2	6
1281060		很好的一本书	10	2	10
1281060		大牛都有鲜明的个人魅力，巧合的是他们对待工作都充满了激情。比如本文作者竟然连领结婚证的时间都没有，令人费解的是竟然会在领证的路上把结婚证弄丢了，这是心里多么惦记着工作啊。	10	2	8
1281060		前面的2/3讲的历程不错，后面的1/3跳着看完的。	10	2	8
1281060		花两天时间看完了，作为一个初出茅庐的程序员，看了这本书还是有很大收获和感触的，会不断的把书中的内容跟自己的工作和学习联系起来，我现在遇到这个问题怎么办，淘宝的经历是否会给我某种启迪。从前面淘宝的技术发展上，从小到大，从使用现成的开源软件到技术创新，到去IOE，到服务化，这的确是一个技术驱动型公司技术...	10	2	10
1281060		与书名不符。	10	2	8
1281060		上班路上读完的这本书，推荐～	10	2	10
1281060		这个传说中的未出镜的多隆好厉害……阿里巴巴不简单啊，人才好多！	10	2	10
1281060		很好看的一本书	10	2	10
1281060		很不错的一本书，就是阅读模式，不论是分页还是垂直，总是会缺少一点内容的，有些中断的感觉，不得不在两种模式中切换才行的。	10	2	10
1281060		内容广泛而且深度，语言有趣！	10	2	6
1281060		买了为什么下载不了	10	2	2
1281060		买完下载不了？逗我哪？	10	2	2
1281060		很不错的书，学到了很多	10	2	10
1281060		想再读一遍	10	2	10
1281060		十分精彩 看到了经历中国电子商务大潮里 个人的谦卑和努力 	10	2	10
1281060		#中国式创业#就是怎么糙怎么来，后期慢慢优化。深得那句老话的真谛：过早优化是万恶之源。但是另一方面可以看出技术要追上业务发展的步伐是很困难的，因为技术本身就很复杂… #美国式创业#就感觉是狂炫酷炫屌炸天的东西也不知道怎么的就横空出世了，附带还会带出一系列的side products再一次定义了码工业界先进水平（但...	10	2	6
1281060		本来能给个3星半吧，但看到第8章发现和前面大段的重复，这说明作者写完自己都没有通读一遍。。。	10	2	4
1281060		大而泛，可以粗略了解到一些互联网公司使用的新的老的技术	10	2	6
1281060		当创业史来读一下	10	2	6
1281060		看不懂的技术部分只能等以后有能力再看了	10	2	8
1281060		有点注水的感觉	10	2	6
1281060		一口气看完了	10	2	10
386586		现在准备转行产品，跨度比较大，工作也不是很好找。一个认识的人就推荐了这本书，很有意思，很多还没消化，感觉再看2遍左右，才能消化的差不多	10	2	10
386586		笼统的了解了产品经理的工作范围和关注点。文章最后，思维确实决定一切，要跳出你的思维。	10	2	6
386586		很好，买的豆瓣第一本书，也是产品经理的第一本	10	2	8
386586		中国式的产品经理的模板。	10	2	10
386586		1	10	2	10
386586		有干货，有案例，一点都不枯燥。	10	2	10
386586		花了一周的时间看完了，给我最大的感受就是用户的体验，服务的细节，“别人我等，别人我想，别人我烦”，对于初次了解产品经理很有帮助。	10	2	8
386586		看第二遍了。	10	2	8
386586		理论高度一般般，案例比较贴近实际，内容比较广泛。比较适合产品经理入门或外围了解一下。	10	2	8
386586		务实	10	2	8
386586		很全面，有较强的可操作性，看得出是作者经验的积累。堪称产品界的《代码大全》。	10	2	10
386586		不错	10	2	10
386586		一般，有时候标题跟叙述内容并不是很符合，缺乏说服力。	10	2	6
386586		入门的时候看的是行业里面的理论框架性的书，做了一段时间之后，再读这本书，十分有感触。推荐给想要进入这个行当的人看，自己融入到工作中感受会更强烈。	10	2	8
386586		实实在在，案例很多，看得出王坚很注意案例和知识的积累，不然哪来那么多干货。	10	2	10
386586		关键概念：*响应：如按下电梯按钮时显示红色。*真实世界投射法：让产品尽量自然，用户可以根据现实经验轻松掌握*递进显示*鼠标悬停提示*奥卡姆剃刀定理：如无必要，勿增实体。把一切尽可能的变得简单，而不是简单一点！——爱因斯坦*	10	2	8
386586		能够学习PM的技能和了解项目生命周期中一些事物！	10	2	8
386586		这是一本好书，早该读完它。作者同书一样有名。顺道第一次体验豆瓣读书。	10	2	10
386586		作为一个准备进入互联网行业，瞄准产品经理职业的机械男来说，这本书给了我很大帮助，带我入门，让我重新全面审视了自己，明白了自己的优势和短板，有了明确的目标，更是激发了我深藏内心多年的激情。坚持就是胜利，我愿用我不懈的努力和坚持来书写我的理想，向乔老大一样带着一颗改变世界的心！	10	2	10
386586		是本好书	10	2	10
386586		内容很一般，初级，很多引用，更像读后感汇总	10	2	6
386586		系统的讲解，生动的案例分析和通俗易懂的描述，让我这个野路子出来的产品经理有了一副远光灯，路虽然是我自己在走，但我却拥有了看的更远的工具，谢谢作者！	10	2	10
386586		很好的互联网产品经理入门，读的时候还感觉出了腾讯与阿里的差别...有启发...	10	2	10
386586		作者对于预期有的读者的心理把握的貌似很好，比如“现在，你是准备停在这一页再纠结几天，还是继续我们的产品之旅？”既然早已猜到，那么加上几页带有作者强烈自我价值观的阐述，对于这本书有何增益？并非不能表达自己的价值观，但在这本关注点在阐述产品经理知识体系（刚开始读，不知道有无理解错误）的书中，还是希望...	10	2	8
386586		CD/DVD Test test test Test test test Test test test Test test test Test test test Test test test	10	2	6
1885884		读完这本书才明白软件公司强制员工加班是多么的不合理，那样会严重阻碍技术创新并且降低软件工程师的工作效率。冥想可以帮助锻炼，强化注意力。思维导图可以帮助梳理知识脉络，催生新的知识。对程序员的建议很有帮助，如何避免思路被打断，wiki，时间只能被分配不能被创造等。	10	2	10
1885884		不仅有理论，而且有实践方法，好书	10	2	10
1885884		这本书比较系统的讲了如何达到高效率学习的目的,不仅在学习方法上提出建议和原因,还在学习动力上提供了一些方法. 这本书有一部分知识在之前已经了解过,如左右脑,LR型,思维导图等一些小技巧,但没有书中讲的具体.另外书中的实践环节如果认真做下来应该比读书用的时间更多,STOP图片起到了很大的作用.通读一遍收益良多,准备...	10	2	8
1885884		超级棒！今天早晨上班路上看了，一下看了四十多页，内容很精彩，对于一个初级程序员来讲，培养思维大有益处！	10	2	10
1885884		越到后面越赞。	10	2	8
1885884		不仅适用于程序员.	10	2	10
1885884		- 28页配图错误	10	2	8
1885884		我觉的这种书，应该精炼，废话太多，很容易让人步入作者的思维。里面很多都是空话，除了第一章预览部分看起来新奇，其他的我觉的没必要看。看完之后没有点映像。这个书完全是在隔离人群，将人分成三六九等，然后弱化劳动力。	10	2	6
1885884		大致看了70%的内容. 书中提到的对左右脑的看法非常有意思. 在生活中也有意识的去辨识哪些行为是左脑行为，哪些是右脑行为. 受益匪浅.	10	2	8
1885884		redt	10	2	6
1885884		全是干货，十分推荐。	10	2	10
1885884		非常好的一本书	10	2	10
1885884		还可以	10	2	10
1885884		给了我一些启发，一些值得尝试的事情	10	2	8
1885884		部分内容颇有启发。就是比较散乱，感觉是把一个内容丰富的思维导图罗列成书。	10	2	6
1885884		相当实用的一本书，如同《精益创业》，没有经不起推敲的大堆观点的堆砌。围绕提升思维的主题，提出了几个现有的理论，并且给出大量实际可行的建议，如通过冥想提高注意力，用wiki管理知识，用思维导图帮助回顾。	10	2	10
1499455		我只对豆瓣的电子书模式做评论 花了将近40快钱买的电子书，居然不能下载pdf版？只能在网页上看？我要在手机上装个豆瓣阅读器看？ 这种模式太差！！！太土！！！	10	2	2
1499455		这本书简直是神器啊	10	2	10
1499455		写出这本书的人, 勇气可嘉	10	2	10
1499455		目前还只看完了内建对象的实现原理，内存管理机制章节。受益匪浅	10	2	8
1499455		书里面的代码有好多错的，根本运行不起来	10	2	8
1499455		不错的书，因为精力的限制没有整本看一下来，也没有跟着改代码什么的，但是对python的理解还是加深了一些。	10	2	8
1499455		很棒的书，谢谢作者！	10	2	10
1499455		值得推荐，这本书可以了解 Python 的运行原理，也可以了解一些设计上的技巧，很有帮助。	10	2	10
1499455		我喜欢	10	2	10
1499455		看完了试读部分，真的是很好！不过还是想买纸质书可以绝版了……	10	2	10
1499455		看了部分，有些语句不完整，被锯断了	10	2	2
2286435		夸一下排版 之前这本书在豆瓣上就有电子书。当时书中的代码处理的很不好，难以阅读。当时给了一个差评，很快出版方就回复并且将书下线。这两看看到豆邮发现已经更新，而且看了一下发现代码不仅有专门的样式进行排版，使用了等宽字体，并且有代码高亮，看起来非常舒服。赞一个！	10	2	10
2286435		对于一个连等号两边不打空格都不舒服的码农来说，这本书简直不能更赞。 写代码，可读性和逻辑性一样重要，而前者往往被许多人忽略。这本书几乎是手把手地告诉我们该怎么给变量起名字，怎么分行，怎么注释……没有说教，只有大量浅显易懂的例子，全书的章节安排和细节也做的很到位，一如O'REILLY的一贯品质。 学编程的...	10	2	10
2286435		可以反反复复的参考，但是文字多过事列。需要一定实践基础，总的来说不错，最后推荐的那几本大部头可能更有参考性	10	2	8
2286435		非常好，可能要再读一遍	10	2	10
2286435		给了很多代码命名之类的tips，感觉挺实用的	10	2	8
2286435		确实挺欢乐的。可操作性强。	10	2	10
2286435		最后的例子跟我们做监控的实现思路一致。新手看本书收获会大些，老手就当作温习了吧	10	2	6
2286435		书的内容浅显易懂，遵循本书的建议可以养成良好的编码风格。只是排版有点问题，代码部分在小屏幕上（手机）阅读体验很差。	10	2	8
2286435		非常实用的书	10	2	10
2286435		介绍了很多帮助代码容易理解的小技巧	10	2	8
2286435		书中的例子都很不错，编程过程中也注意变量命名和注释了	10	2	8
2286435		很简练，同时很实用	10	2	10
2286435		又一本实用主义书, 强力推荐提升你的品味	10	2	10
1523295		我能说什么呢， 刚买下来，在手机上打开软件就闪退，打开其它的可以看...	10	2	2
1003628		做为基本0基础的一个爸爸，这本书看了接近一半，我感觉这本书真心太好了。希望看完后能给自己女儿做一个小游戏玩玩，想想还真是有点小激动呢~~	10	2	10
1003628		咬牙买了！ 目测可以和老婆一起看（纳尼，要把老婆培养成码[哔]么）。代码排版看着还行嗯嗯。有些图还可以优化一下。。。。。	10	2	10
1003628		挺好	10	2	8
1003628		因为能看懂咬牙买了	10	2	10
1003628		一边看一边动手操作很爽！	10	2	10
1003628		tedt交换机卡	10	2	8
822552		还行,可以看作编程启蒙．还可以多增加些完整的实例	10	2	8
822552		作为入门还是挺不错的，比较全面，学到了很多	10	2	10
339461		有帮助 实践之后再来看	10	2	8
339461		挺不错的，阅后有收获	10	2	8
339461		这本书很好地把做出超俗垃圾ppt的种子扼杀在摇篮里，建议ppt民工人手一本。	10	2	8
339461		对一个建筑师无用	10	2	2
339461		随便看看	10	2	6
339461		common sense之集大成者 另外翻译非常得体	10	2	8
339461		还不错，除了个别图片放大之后不对应以外其他还好。	10	2	8
339461		学到的新知识不多，百分之八十的内容对我只是复习	10	2	6
339461		包含的内容范围比我想象的要大，值得按照书中所讲反复实践。这不是纸上谈兵能做到的哈。	10	2	10
339461		踏踏实实实得分实得分 哈哈哈哈哈哈哈哈群实得分卡死看得见阿道夫哈哈哈哈哈哈哈哈群实得分卡死看得见阿道夫哈哈哈哈哈哈哈哈群实得分卡死看得见阿道夫哈哈哈哈哈哈哈哈群实得分卡死看得见阿道夫哈哈哈哈哈哈哈哈群实得分卡死看得见阿道夫	10	2	8
5309999		略感失望	10	2	6
381109		颠覆了职业观 作为程序媛，一直以为按照公司要求完成好程序就是一切。看了这本书才学习到，如何真正全面提高自己。非常推荐。 值得一提的是，书中给出的练习很有意思，也很有用。 赞叹作者曾经是音乐人。作为音乐爱好者，也在学习钢琴，我也时常体验到乐器学习和程序练习间十分相通，与作者很有共鸣。作者凭借很多切...	10	2	10
381109		很好，还想看第二遍，细细品味	10	2	10
381109		作者结合自己的经历，把编程和音乐做类比，给出了52条实用的方法、经验和态度。当然不可能每一条都适合所有人，但就我个人而言大部分都能引起共鸣。 目前我已经读了两遍，第一遍是去年年底，学会了工作中充分利用“激情燃烧的八个小时”，既然工作依然成了我的生活，工作快乐了生活也就快乐了。将近一年过去了，再次翻...	10	2	10
381109		毕业十几年，经验与书中观点一一对照，非常赞同。要是我刚毕业时能读到此书就好了	10	2	8
381109		不错的书。程序员都要看一下	10	2	10
381109		书中练习值得整个职业生涯中一直做。	10	2	8
381109		第一本电子书，感觉有启发。	10	2	10
381109		好书!值得再次品味!!	10	2	10
381109		还行，不是让人热血澎湃的书，但是可以让人静下心来思考很多东西的书	10	2	6
381109		特别激励人 很多简单却实用的建议和方法对于一个软件开发人甚至引申到从事其他行业的人都是非常受用的	10	2	10
381109		首先，本书的翻译我觉得水平一般。然后，我说一下该书中还是有不少点能够真正触及到我。俗话说，即使从一本书里边哪怕学到一点，这本书也是有价值的。所以从我个人角度来讲，我觉得这算是一本好书。如果翻译的足够好，这应该是一本非常不错的书。	10	2	6
381109		非常不错	10	2	10
245989		很多正确的废话。启发性的干货太少	10	2	4
245989		很有启发意义，是一本实用的书	10	2	10
245989		classical essay.	10	2	8
245989		值得阅读！	10	2	8
245989		算是看完了。	10	2	8
245989		本质不变，形式变了，从传统的收费变为免费+收费的模式咯	10	2	6
245989		写得很好，很多地方能给人灵感	10	2	10
245989		很好	10	2	8
245989		不怎么重要的话题搞很大篇幅。。。	10	2	6
245989		废话太多，已经看了三分之一了还没看到什么干货。	10	2	4
245989		才看完第一部分。感觉内容并不算深刻。 感觉一般 翻译质量一般般，有些句子挺生硬的。内容有些缺乏深度的感觉。基本上就是以google为重点点评对象。对免费的思考似乎还没成为一套系统理论。	10	2	6
3126191		amazing	10	2	10
3126191		突然发现，社会工程是一个很大很大的学科，。。。。。。	10	2	10
332192		设计模块化 模块化三大元素：模式，组建，框架。如果能一直坚持，势必会有沉淀。而且可以减少重复思考，重新可行性评估带来的额外时间。	10	2	6
332192		对于没做过设计开发的我，有点难，但仍收获巨大。前提是，我正打算设计一个自己的网站。	10	2	10
332192		《网站设计解构》 整体在介绍重用性的重要性，一些观点给人而目一行的感觉。 然后，模式等创建过程也是十分困难的一个环节，在国内这么浮躁的互联网前提下，能够真正做到静下心来创建完备、实用的模式还是比较困难的。 可能因为人的思维总是有差异的，还需要慢慢琢磨。 读书笔记：http://ymmcheer.wh09.www027.net...	10	2	6
333268		可以	10	2	8
333268		对于现状来说，前期项目定义、计划制定的部分最为核心。SMART原则好好领会，明天完成清单，优化材料。	10	2	8
333268		Bm可以	10	2	8
333268		好	10	2	8
333268		工具书，做个思想指导	10	2	6
333268		很贴近实际。不错	10	2	10
333268		好书 由于工作的关系，第一次看关于项目管理的书，没有和别的进行比较，但是仍然获益良多，特点是浅显易懂，很多观点在实践中可以运用的到，推荐给做项目管理的大家。	10	2	8
387935		所有关于“瞬间”的案例都太简单太琐碎了，也不够有机统一，更像案例文章集。	10	2	6
387935		立意一般的用户体验书籍，通常都会随着时间价值越来越小。。。	10	2	6
387935		实用web设计流程查询手册。	10	2	10
387935		优秀的设计来自于灵感，而灵感在于无数次的尝试和总结	10	2	8
387935		很好的用户体验设计书。	10	2	10
387935		作为初入门的小白，可以了解很多基础知识，觉得可能看起来很平常的原则，想要自己融会贯通的运用怕是就很难了。	10	2	8
387935		一般吧，作为通读还是可以的	10	2	8
387935		可看看，不坏不好	10	2	6
387935		表达我的感激其实很容易，感谢作者！10	2	10
387935		还在看, 在现在看来, 观点有点过旧了	10	2	6
387935		翻译扣一星	10	2	8
387935		真心不错，结合作者的几十个例子分析，一步步展现一个优秀的设计师的分析和解决问题的思路。很受启发。	10	2	10
1883498		总体还不错，不过有些内容感觉过时了，移动端的没说	10	2	8
1883498		浅显实用	10	2	8
746115		讲的不错，需要想想怎么应用到工作中。	10	2	8
746115		写的不错。虽然理论讲的很少，但对实际操作有参考意义。	10	2	8
746115		尝试应用了一个sprint，效果显著！	10	2	10
746115		适合 大公司产品跟开发为独立部门的情况。	10	2	8
746115		绝对比中国的教科书写的实用，11.9超值	10	2	10
746115		简单明确的条目，加上实践中得出的经验，值得scrum初学者好好吸收，这11.9没有白花。	10	2	8
746115		很实用的一本书！	10	2	10
746115		比较务实，讲的问题也是我实际遇到的。	10	2	10
335970		社会化 社会化网站，这个词语用的很好。无论科学技术发展多么迅速，唯有以人为本，关注个体，关注群体的科技才能赢得民心，才能长久发展下去。随着科学技术的发展和人类文明的进步，人类生活和交流的方式也会不断发生变化，与之对应的互联网社会化的发展也会不断改进。能够想象和预见，在未来10年，WEB互联网的形式将会...	10	2	10
335970		很基础，也很有用。	10	2	6
335970		不错，我还想载看一遍	10	2	6
335970		价值不大	10	2	2
335970		五星给其触及的话题	10	2	10
335970		5.5 附图 5-12 出错	10	2	6
335970		说得有些细枝末节，还行	10	2	8
335970		作为菜鸟级管理员,我感觉还是很有用的.	10	2	8
335970		不只是设计方面的知识，也包括社会化网站在目标制定、运营方法上的一些讲解，很实用，应该牢记并提醒自己。	10	2	8
335970		有点知识。整体上一般般，反复嚼些概念，没有多少具体做法	10	2	6
1196138		打开了另一中思维的书。	10	2	10
1196138		我仿佛看到证券行业分析师在电视节目上侃侃而谈。作者们能告诉我你们是怎样得出“大数据是一种思维方式”这么高端大气的结论的？	10	2	4
1196138		很一般	10	2	4
1196138		到目前为止，感觉作者主要是引入了大数据的概念 书中的内容基本上很早都已经接触过了，只是在语言组织上面可能读者是花了一定的心思的，目前读到了200页，给我的整体印象如此，毕竟作者是理工科出生，希望后面能给自己惊喜。	10	2	4
914345		看完编码前看的，编码看完了，这书还没看完。和编码一样太多需要消化的地方了。但这是一本认识黑客的好书。	10	2	10
914345		认识了黑客的来历和技术改变世界的专注	10	2	8
914345		烂翻译	10	2	4
914345		这本书我没耐心（和时间）读完，但还是推荐的，（for muggles)。	10	2	8
914345		激情，信仰	10	2	10
914345		希望翻译没有糟蹋啊	10	2	10
914345		如果每个电气电子专业的孩子都能听听硬件黑客们的故事，也许他们中某些就不会翘掉那些电路课，而最终成为一个前端工程师了。这本书遗憾之处是鲜有时间上的提示，结果看的时候很难找出一条大的时间线索，而且由于缺少可以对应上的历史背景而觉得不够尽兴（比如被从头喷到尾，却不知道到底做了什么的ibm）。另外对游戏无感...	10	2	8
914345		上古时期的黑客传说	10	2	10
5956758		看完不想学 go 了	10	2	8
5956758		很好的一本入门级教材，推荐购买支持作者，当然也可以去Github上获取。看到其他评论说不好的，可能萝卜青菜各有所爱吧！最后我比较喜欢豆瓣上看电子书，书签同步较为方便。	10	2	10
5956758		这书在多线长这块就一笔带过，我能退货不？前面花几页来写序，坑	10	2	4
803847		因人而异，请各位不要把话说的太死，别影响他人。	10	2	10
803847		看不到新思想了。。	10	2	6
803847		思想非常地前卫，简直可以叫做信息时代的导游图。	10	2	10
803847		想对于失控，这本书实在读不下去，勉强看了几十页，看不到作者想表达什么，强烈的上当感。	10	2	2
803847		技术发展真的已经脱离人类控制了？！	10	2	10
3208566		不错的计算机工程科普读物，虽说是杂文集，内容稀疏且重复，但作者关于语言设计理论和高并发编程技术的介绍实在是值得一看。松本作为ruby之父，言语之间却十分谦逊，实在是对这种大牛有挡不住的认同感啊哈哈哈	10	2	8
3208566		有些地方有点神神叨叨，但总体还是很不错的，科普向！	10	2	8
1132951		纸质版本更好	10	2	10
1132951		看到这个以为会拿到实体书，付完钱却是在线阅读的，想问下我还没看过，能退款么？	10	2	2
1132951		用R学习一些基本的数理统计。	10	2	10
1091655		科技的发展总是带给人不可思议的力量~但是远景美好，却仍需付出巨大努力才能到达理想的过度	10	2	8
1091655		入门	10	2	8
1091655		是现实也是预言！3D打印已走进生活中。	10	2	8
1091655		前沿科学的科普著作	10	2	6
1091655		必须买一台3D打印机哇	10	2	8
1893637		很不错，了解一些基本知识，简单易懂	10	2	8
1893637		这本书和编码距离个两星。	10	2	6
1893637		作者亲身经历了计算机发展的各个阶段，然后用通俗易懂的笔法给我们展现了数字技术的发展轨迹以及这些技术对日常生活的影响。本书是基于一门课程的讲义而写的，虽然课程是针对非计算机专业的学生，但是本书对于计算机专业的学生及从业者也会有相当大的价值……	10	2	10
1893637		如果当年的计算机导论课由作者上就好了	10	2	10
1893637		易懂	10	2	10
380174		入门神器	10	2	10
380174		小部分有用，并没有找到我想要的内容。	10	2	6
840041		真的觉得了不起，拥有着别人无法理解的思想，正是这些改变这社会	10	2	10
840041		乔布斯是个了不起的人	10	2	10
840041		好看！值得花钱买！	10	2	10
840041		另种风格，可以尝试试	10	2	8
840041		第一页就出现程序代码 作为果粉仰慕乔帮主，试读感觉还行。岂料购书后发现第一页开复的序言就出现程序代码，有失水准，很令人失望！希望能改进此瑕疵！！	10	2	6
5343172		耐心看完，翻译太生硬，有点兴趣和知识背景才不至于看不下去。不过还是长了不少姿势。	10	2	6
379531		我和我们的团队已经在实施其中的一些习惯。	10	2	8
379531		对于小菜来说，五星。	10	2	10
379531		说的对，有些地方不谋而合	10	2	8
379531		如果你已有这些习惯，看起来就比较废话了。不过嘛，知易行难，可以拿来不时提醒自己。	10	2	6
379531		前人的经验之谈，值得一看	10	2	10
379531		实用主义的代表作品, 符合我的品味.	10	2	10
379531		一些很实用的建议	10	2	8
379531		之前就看过一点，当时看了之后有种豁然开朗的感觉，激动了写下了一篇 blog，这次再看，可能是因为很多思想自己已经开始实践，没有当时的新奇感了，不过还是有许多指的学习的地方，这本书以后经常翻一翻，时时提醒自己少走弯路。	10	2	10
379531		很不错，需要慢慢将这些习惯运用到实践中去！	10	2	10
379531		还行吧，发现鄙司很多工具都能帮助实现敏捷，可是鄙司依然养老。。。	10	2	8
379531		每个条款最后都有一个“平衡的艺术”小节是亮点。	10	2	8
379531		动态评估权衡 不要为感觉上的性能提升，优雅设计而设计过于复杂。从性能，优雅，可扩展性综合考虑，没有最完美的方案。当不能决定时候，想想是否满足客户需求。过早优化是万恶之源可Check点：代码是否被读懂，代码是否有明显错误，代码是否影响其他模块，代码是否可重构。 除非有足够理由，否则不要轻易批评别人写的...	10	2	6
387679		使用的工具 对于使用的工具，我很少拿来仔细研究，一直都是只对自己感兴趣的东西各种折腾，写出来的程序也大都拘束于一个很小的领域，这是我自己的bug，我要fix it。 发现这些天才程序员的怪癖都是相通的，然后又有点自信满满的自负，但敢说自己的代码已经最优了，这已经足够酷了，我自己从来都不曾有过:(	10	2	8
387679		补一下评论，印象中前几篇看来犹得醍醐灌顶。	10	2	10
387679		恩。	10	2	8
387679		翻译错误？ 基尔代尔一章中的“代码爆掉”是“代码崩溃”吧？日这个字数限制 日这个字数限制 日这个字数限制 日这个字数限制	10	2	6
336161		垃圾 这是在豆瓣这么久看到最垃圾的译本， 这是在豆瓣这么久看到最垃圾的译本， 这是在豆瓣这么久看到最垃圾的译本！	10	2	6
336161		果然是经典书籍，让人对网站信息架构有一个全面的了解。因为例子都是国外的网站，有些地方不是太理解。	10	2	10
911055		通过实例详细讲述数据可视化从思路到设计原型再到最终效果。除了尸检那章有点莫名和离题以外，还是蛮值得一看的。	10	2	8
911055		受益	10	2	10
911055		有一些启发，不过和测试之美一样，还是博客集的方式，不够融汇贯通	10	2	8
1799748		实用的小团队管理经验谈。 非常喜欢《走出软件作坊》，作者很多地方对于国内初生的小团队确实是切身之感，要是能够和作者共事，可是人生一件乐事。	10	2	10
1799748		诚恳的谈话	10	2	6
1799748		书挺不错，前半部分可借鉴的经验很多。感觉到后半部分内容就有些虚了。总体上是本好书。	10	2	10
384559		非常好的一本学习管理的书 浅显易懂 	10	2	10
384559		书虽然文字不多，但字字珠玑，提到的都是管理中的最基本的原则。虽然是最基本的原则，但也不是每个人都是做到了的。 值得没事的时候翻来读读，温故知新，指导自己的行为。	10	2	10
384559		推荐，尤其是刚走进管理层的新手，很有帮助	10	2	10
384559		是我看的管理方面较好的一本书	10	2	10
384559		最后说到技巧的具体做法时还是太抽象和枯燥了～不过整体来说很不错，很适合作为IT管理入门书籍～	10	2	8
384559		为数不多的技术管理书, 故事方式的讲解, 非常有趣.	10	2	8
384559		反感。	10	2	4
384559		技术管理人员是与人一起工作，而不是技术。	10	2	10
384559		讲了很多管理的细节和注意事项，而且非常实用，读后有种拨云见日的感觉，确实是管理人员不可多得的一本好书不过没有目录索引，Kindle上不能在章节间跳跃，阅读时候稍有不便	10	2	10
384559		不错	10	2	8
384559		非常简单直接的书	10	2	10
384559		Helpful for manager to understand the team management basis.	10	2	8
384559		实用	10	2	10
500486		从工程师到产品经理，突然转天使投资了 一口气读完，那些关于Fackbook里的点点滴滴还是比较有意思。但产品经理部分实在枯燥乏味，不过国内的产品经理应该学习一下，作者是个细心的人，虽然有点死板，但做事非常谨慎认真，尤其是与同事沟通工作做的非常好，如何写沟通邮件，如何用词，需要抄送哪些人。。后面结尾非常有...	10	2	6
500486		标题太大，内容缺乏亮点 没什么亮点，书里面写的那些个沟通交流方法，工作过几年的人其实都知道，不过问题最大的是标题，有炒作嫌疑，另外书中还参杂不高明的广告。	10	2	2
500486		只有好的棋手才会走运 能和Facebook这样的公司一起成长太幸福，对作者真是羡慕嫉妒恨。 Facebook快速并且顺利的成长，作者初期选择他，悬念并不大，不过在第一章谈到对公司的忠诚度倒是个不错的话题，树倒猢狲散、墙倒众人推，这就是现实，更何况赤裸裸的签订的打工合同，每个人都会做对自己最有利的选择，同样的，...	10	2	6
500486		很受用！理念到操作都提供了有益的启示。 非常技术风格的hr解密 对fb的了解一直比较片面，颇神秘。但其创新和组织搭建上的出色与独到，或许也是硅谷多年积累的创新团队模型的缩影。 非常值得创新企业的hr关注！ 只有对人和组织，文化的创新才能实现产品的创新。	10	2	10
500486		过瘾 这是我在豆瓣阅读上读的第一本书。里面有真人真事，读起来还是挺过瘾的。在大牛如云的环境里工作，看来我是没有机会了。很遗憾自从Facebook被墙之后我基本上再没怎么上。	10	2	6
500486		还不错	10	2	10
500486		流水账一样 说实话 写的不见诚意 	10	2	2
500486		间接了解到国外pm的生存状态	10	2	8
500486		有些细节挺有趣的，作者很细心吧。	10	2	8
500486		书名和内容不太符合，内容有点乱。还是facebook效应写的好。 	10	2	6
500486		强烈推荐程序员都看一看！	10	2	10
500486		干货不多	10	2	6
500486		读得很慢，一直在比较，反思。很不错的书，有一定的参考价值。	10	2	8
500486		硅谷企业入门级教程。书中干货不多，更多的是泛泛而谈	10	2	8
500486		不是一本思想性的图书（和黑客与画家没得比），大多都是对Facebook、自身经历的平淡描述，更像博客的小文章。国内业界几位大牛对这书是称赞过度了吧，亏我一上线就买两本还赠人。最后一章就像作者在表态：我将如何当天使投资人。虽然作者的能力、经历的确够牛，但太过于强调自身优势、资源，看起来还是让人不太爽…	10	2	4
500486		三星半，沒有太多讓自己耳目一新的東西。不過就像熊節在重構一書的前言裡面說的那樣，很多東西大家應該像空氣和水一樣習慣，很高興書裡面的很多東西在現在的公司也是空氣和水一樣的存在了。書的內容可以時時翻閱作為日常工作的輔助。後面的部分基本也都是大實話，總體不錯的一本書，中規中矩	10	2	8
500486		读完觉得写的略微枯燥……	10	2	6
500486		全是干货，很有营养。	10	2	8
500486		最后好象没写完	10	2	8
500486		非常喜欢这本书的作者，写出来的东西朴实却很受用，看到最后恍然大悟原来是浙大工科毕业的。作者在Facebook的经历向我们展示了一家伟大的公司在日常工作中是如何运作的，要比前几年一些海归回来的CEO写的牛皮书要实用得多。	10	2	8
500486		很不错的一本书	10	2	10
500486		上下班路上读完的，略微有点标题党的感觉，本来期望更多	10	2	8
500486		利用地铁和睡前的时间读了第一遍，确实很有感触。我给了5分。其实对大多数人来说，书的核心是告诉你如何成功做一个产品（创意、风暴、沟通、推进、控制、迭代、反馈）也有一些是作者个人的经历和选择，可以参考。如果你是一个产品 或者 技术人员，一定要多读几遍。	10	2	10
500486		有意思的一本书~~简单易懂~~~	10	2	6
500486		很值得工程师阅读的一本书。大多数工程师和初入管理岗位的团队领导者的一些困惑书中都有提及，有不错的参考价值。	10	2	8
802462		很受益，不要粘贴，粘贴，粘贴	10	2	10
802462		很有帮助！	10	2	10
802462		太好看啦！	10	2	10
1169260		非常多的拼写错误 麻烦编辑多核对下文中的英文拼写，几乎每个英文拼写都有错误，就不一一列举，试读或者购买的读者肯定可以发现不少。 还有部分标点符号错误。 就一本正版购买的电子图书来说，这些错误是无法原谅的。 希望能尽快推出新的修订版。	10	2	4
777391		吐嘈这书名 还是台湾版的书名靠谱（好像叫《YouTube你的熱情和直覺》），内地版这么功利的名字跟内容很不符啊，毕竟陈士骏是以youtube创始人的身份，而不是以亿万富翁的身份来写这本书，而且书里也写到，他在创立youtube之前已经在paypal成为百万富翁了 不是以时间顺序来叙述，看起来比较乱，不过内容还是挺棒的，可以...	10	2	8
777391		陈士骏实在是太朴实了，不玩花腔，不弄玄虚，这可是不忽悠不舒服斯基的互联网领域啊，您这么实在合适吗？另外，本来还想吐槽下中文版给取的这个成功学味道十足的xx天赚xx亿的标题来的，不过想想，编辑们也不过投这时代的所好罢了，未必自己就不觉得恶心，所以，算了。	10	2	10
777391		睡前读了一半，早上起床一边吃brunch一边把剩下一半读完。作为一本自传，标题吐槽无力，但是内容很有趣，作者性格和一些观点十分合我胃口哈哈。	10	2	8
777391		我不知道是多少年的	10	2	8
777391		内容随意，就是一本流水历史。更多的讲的是Steve自己的感受。想做就去做，不要害怕，不要踌躇。选择错了就重来。不过作者真的是一个很幸运的人，总是在对的时间做对了事情。	10	2	8
777391		名字取错了啊，，，	10	2	8
777391		看过	10	2	10
777391		这个书名真的让人都不会有想看的冲动。但是书内容真心很不错 继续看	10	2	8
777391		很好的自传，分享了自己的创业历程与故事。也让我对硅谷的“疯子”们有了新的认识。只是这书名与内容不沾边啊，而且也相当的俗气。	10	2	10
777391		书名太俗。喜欢他的自由个性，PayPal、YouTube都是工程师为主导的运作方式，改变世界的成就感，加班撸代码的兴奋劲即便是在成为亿万富翁之后。不知道他还经历过脑瘤手术。avos中国团队的招聘我是看过的，可惜美味书签没做好。没关注他的最近在做什么。。	10	2	6
777391		书是挺不错的，就是被这个书名给毁了	10	2	8
777391		一气呵成，让我重新思考人生许多重要的问题。	10	2	10
777391		硅谷风	10	2	8
777391		不错，看完热血澎湃	10	2	10
777391		还算有趣的一本小书，但谈不上有太多营养，算是一本不错的故事书	10	2	6
777391		好吧，确实是被吸引，一口气看完的。标题虽然俗了点，但内容绝对值得一读	10	2	10
2496904		test	10	2	10
913980		太概括，收获不大。	10	2	6
913980		不够深入	10	2	6
913980		讲得挺详细的,细节决定成败“！~	10	2	8
388267		Very useful. I have learned a lot	10	2	10
4078906		草，垃圾，千万不要买，这不叫书，这叫百度搜索结果集合	10	2	2
4078906		能退货么	10	2	4
4078906		代码占了有一百页吧！部分还是用的python2语法。 代码占了有一百页吧！部分还是用的python2语法。	10	2	2
381599		尚可，用这本书开启了对软件项目这个领域的学习。多读几本书，多实践后回头再读，收获应该更大。	10	2	6
381599		一般般，泛泛而讲	10	2	6
381599		操作性强，但是觉得有点乱。	10	2	8
381599		整合了常见的软件开发实践，可操作性很强，也对自己的项目有一些启发。美中不足的是对C语言开发的项目，好像持续集成方面描述不多。	10	2	10
381599		对于最佳实践比较大的集合整理	10	2	10
381599		极具实用指导性的书，无论你目前项目处于什么状况都应该读一下。本书提供了＂工具箱＂式建议，最关键的是任务清单和持续集成环境。	10	2	8
334522		做项目，并不全都是技术 看完了。 我还会再看的。看完这样的一本书花不了多少时间。关键的是，它讲的不是技术，没有难点，没有需要深究的问题。每看过一个模式，我会回过头来想想，但不会超过5 sec 。因为我知道，我能理解多少就是多少。而且，项目管理这种事儿，还是要亲身经历过才能更好地学习。 另外一点...	10	2	8
334522		从内容可以看出，作者的确有丰富的项目经历。其中很多例子相当有特点，仿佛就是在说自己的团队。	10	2	10
334522		很有意思，各种成功失败经验	10	2	10
334522		各类项目管理小故事的大杂烩，有部分文章理解比较深刻，例如：项目中的渗透，时间就这么偷偷的在各项任务中流转。	10	2	8
334522		看过本书的管理者越多，这本书的价值越大。	10	2	10
474698		ai的思维会不会也分为可计算和不可计算，不可计算的部分会不会只是数据的积累和理解，毕竟生命本身就存在选择和不确定，只能从数据中理解，强行计算会死机。	10	2	10
474698		脑补letex公式……最近能让我安静下来的很爽的书！	10	2	10
474698		很经典，对图灵的论文做了比较通俗的解读。但我读得快吐血了啊。。。	10	2	6
915696		本来书的内容就差劲，什么美不美，测试就是测试。然后电子版代码基本上没有格式化，乱作一团。	10	2	2
915696		T	10	2	0
915696		在豆瓣阅读尝试专业书 头一次在豆瓣阅读看专业书 看多了文艺书，确实感觉有些不习惯（感觉在Kindle上读专业书似乎更普遍） 不过有一点很好，看图片比kindle清楚很多，无论是Web还是移动端，图片放大都很方便 至于书籍本身，正如豆瓣读书里的评论，更像是一个博客集 将在测试领域的几位大牛的请来，对自己的思想和...	10	2	6
1061185		俗气的故事组合 =这小说	10	2	4
608910		面试当然很麻烦，得学…	10	2	8
1052447		主要还是讲的统计和制图！举了大量实际例子，主要讲怎么去运用代码制图！在图形的不同情况运用上没费太多口舌！是本不错的书，但感觉不怎么适合我！	10	2	8
1052447		基本概念和例子比较多，适合入门	10	2	6
4460022		无法忘记的论文引述	10	2	8
4460022		对黑客文化和开源的好处和必要性进行了很系统的论述。这个时代，我们要了解一些黑客文化和开源知识。	10	2	8
4460022		有教益、有启发的“陈词滥调”，读起来会有点小激动的文章集合。	10	2	8
4460022		居然是Eric Raymond寫的，一點都不好看，莫非是翻譯的文筆太差⋯	10	2	4
388053		这是一本写给技术人员的“非技术”书籍，讲述如何给其它同学推荐高生产率、更加先进的工具。让他人认可、接受一项技术，并非一件容易的事，要讲究一些方法和策略，这就是这本书的主题。	10	2	8
388053		你只需关注离开现在的位置，而不要关心去向何方。开始忽悠吧～	10	2	8
388053		显然，不是我该看的书。不过里面还是提供了一些必要的思路～	10	2	6
388053		good to know, hard to do	10	2	8
388053		还不错	10	2	8
388053		因为有必要向团队引入新的技术和流程，看完之后感觉还是非常受益的。	10	2	8
388053		挺实用的书 以前我也是个失败的布道者，几乎没有一个成功的，比如说Linux, vim.多次的看到别人用回之前用的工具，我再也不布道了，心都碎了。直到后来我发现了书中所说的“来点刺激”，成功吸引了一批人，当然，刺激来得快，去的也快。再后来，我自己不用透，或者学透的东西，我都不轻易跟别人说了。成功地变成技术...	10	2	6
402131		整本书就是个trello使用说明。	10	2	6
402131		看板管理的详细介绍	10	2	8
402131		大量图表和事例对理解帮助很大		10	2	8
402131		浅显易懂	10	2	10
402131		经典书籍，赞	10	2	8
402131		并日开发的问题都在此书中找到实践方案与启发。适合大中小项目～	10	2	10
402131		实践出真知，比起停留在纸面的项目管理书籍好很多	10	2	8
402131		很好的书 导师推荐的 值得一看	10	2	10
1764878		大鱼雷 大长句看得很绕。 看完后，整体感觉苹果是个被乔布斯领导的鱼雷，破开海水，直射消费者G点。这个鱼雷内部是产品，是“纯粹”的产品本身，不被人所影响，只被设计师所发觉。而google就是个大木耳，泡进海水里，泡开，溶进海水。 海水到底是什么，我也说不清楚。但大概是现存价值观、技术认知障碍、互联网什么的...	10	2	8
1764878		屎——被骗了！ 侃侃而谈，还以为出了什么精辟短篇，总体感觉太没诚意，把读者当傻逼！东西文库的失控，众人也都知道那翻译水平，还能忍一忍，可这本也太腻歪人了，还他妈到处吹牛逼说什么乔布斯传没做到的，这本书做到了，诚然乔布斯传不是那么尽如人意，但好在作者的资料够详细，评价够客观，你这稿子一副杂志或者论...	10	2	2
1764878		杂糅观点，没感觉到文章内部结构的关联。感觉还是翻译腔太重太晦涩	10	2	6
1764878		勾起了我读教主传的兴趣。这篇真的不是软文吗？！	10	2	8
1764878		翻译晦涩难懂	10	2	2
1764878		不明觉厉	10	2	8
1764878		什么破烂玩意儿，全篇就是掉书袋子和堆砌词汇，缺乏必要的论证和逻辑链条，看完之后满脑袋乱哄哄的，一块钱也不值	10	2	2
1764878		没什么内容。。。。别买了吧。。。。	10	2	4
1764878		翻译地太差，全文要点也没说明白 	10	2	4
1764878		读完此文，大概知道苹果哲学的出处：乔布斯和艾维对设计“纯粹”的定义。即禅学的皮，包豪斯主义的骨。另最后两页的翻译简直是虎头蛇尾，令人不忍直视。太拓🐎坑爹了！	10	2	8
1764878		换个角度看苹果，说得对错不重要，这样的思考方式值得看看	10	2	8
1764878		对乔布斯的批评除了企业内省的部分可能伊做不出这么左的事情，别的其实我觉得都挺好的～其次，乔布斯只是一个头势清楚，擅长微妙修正自己的错误并固执强力推进自己目标的企业家，一个乐意于追逐笃信之物的人，从不是什么思想家，别再玷污“思想家”三个字了。	10	2	8
1764878		一言以蔽之:在对乔布斯理念做出一番溯源式解读之后，又指责乔布斯对开放生态的不合作。尽管如此，观点仍然自洽，甚为可读	10	2	10
1115673		名字噱头很大，但是故事并不是很好看	10	2	10
1115673		感觉情节跳动太大，不像一本小说。	10	2	8
930025		过了这么久终于看完了第一遍 针对程序员的部分对于非开发人员来说确实不好懂 其他部分非常赞 写作方式并不枯燥甚至有些有趣 个人着手准备PMI-ACP考试 还会在阅读几次以进一步理解和学习 本书是主要针对XP 对于使用Scrum的敏捷可以参照其他教材 请问有推荐用书吗？😜ૌ	10	2	8
930025		我们项目在用敏捷，很生硬的使用敏捷。看了本书，我大概找到了让我觉得生硬的原因	10	2	8
3955829		50页的篇幅，结构有点杂乱，讲的东西都是个人经验总结。六块钱的价格略高，为何不去写专栏？	10	2	6
3955829		恳切和的口吻是我最喜欢的，也是我有同样体会的。不容易是知道的，却可以通过努力完成。	10	2	10
4035570		以为是讲现代的，结果是讲未来的，那可能性就太多了，所以实用性不是很强，个人感觉	10	2	6
1893512		一本大杂烩的书，可以用来开眼界。	10	2	8
1893512		很全面的一本讲Ruby的书，感觉主要是从编程思维这个层面来说的，同时松本也通过讲述他开发这个语言时的一些考虑对Ruby的特性自己与其他语言的区别进行了深刻阐述。总得来说，这本书并不适合专门来学习Ruby，最好是在学习到一定阶段以后再来通读一遍本书，加深对Ruby编程思维的理解！	10	2	8
726840		产品经理的入门书籍，新手值得一读。	10	2	8
726840		比较水的感觉	10	2	4
726840		偏理论，只有做过的人才能在体会作者的含义	10	2	6
596932		发散地聊了下NDS时期的任天堂历史、老人、主机还有对手们，和一般传记类书的水准没太差，作者不过是刚好选择了任天堂这个公司作为写字的题材。所以，缺少观点，稍许流水成为了本书十分显眼的缺点，我们也无法从字里行间看出游戏二字对作者本人意味着什么，也许仅仅是商品、或者是商业。当然，最让人觉得坏事的要属本书的...	10	2	4
596932		叙述的顺序较乱，像是人物线和时间线的混杂。了解故事还是可以的。	10	2	8
596932		内容不如想象的丰富，叙事时间线混乱是硬伤，精读会很累，轻度了解可以一看～	10	2	6
596932		作者把这么好一个主题活生生写烂了	10	2	6
596932		毫无深度，毫无作者观点，杂乱无章毫无营养. 我自己翻报纸得了~~~	10	2	2
596932		把任天堂从一家做纸牌的公司到目前最伟大的游戏公司发展史叙述地十分清晰！同时还连带了世嘉、索尼、微软甚至苹果在不同时期和任天堂的接触，信息量非常大的一本公司传记！	10	2	8
1273860		将这本书当作替代联机手册的简单参考。	10	2	8
945176		代码排版太out，基本的缩进都没有。	10	2	6
945176		常看常新，最好和Design Pattern交叉对应看	10	2	10
945176		书是好书，但作为电子书代码排版是否可以加上。。。。	10	2	8
945176		设计模式不适合初学者看, 也不适合老手看, 但要想做好 SET, 必须在某个点掌握	10	2	6
336562		如果做电子商务或者公司主页设计的话可以一读，有个系统的概念。但是交互设计真的是日新月异的“技术？”，里面很多观点已经比较落后了。比如表单设计的元素和标签对齐等。	10	2	6
966950		初步看看前面的几个章节，所看到的案例都有一定的启发性和代表性，不错的范本！	10	2	8
2112127		内容还可以，就是太旧了，新的scala有些不一样	10	2	8
2112127		就是内容有点老	10	2	6
17274434		这种书买电子版就可以了，买纸质的是浪费钱！看的话要抱着随便看看的心态，里面内容只能说一般般。	10	2	2
17274434		很喜欢，我们小站长的福利！	10	2	10
17274434		有一些作者的经验，总体感觉贵了	10	2	6
17274434		一种十年前的IT书籍既视感，糟糕。	10	2	4
17274434		内容一般 实操性不强 	10	2	6
17274434		对新站长有点用	10	2	8
17274434		开始的域名，空间，服务器都讲的挺好，可是后边推广营销没讲什么太好的，支付安全讲一堆，好像跑偏了。也许就像开头说的，只是把原来的博客整理了一下，稍微有点关系的都放进来了，所以有点杂。	10	2	6
17274434		先买了再说，一定是极好的，感谢作者，读了这么多年的博客	10	2	10
17274434		好书，立即就买	10	2	10
17274434		还可以，不错😊	10	2	10
10028878		好薄，鸡血，要看需趁早。恒久学习，然后向技艺的巅峰不断攀爬吧	10	2	8
10028878		值得看看	10	2	10
10028878		刚开始读的时候，有些不以为然，慢慢的，情景分析开始打动了我。学不可以已，虚心，激情，实践，方向，从学徒到工匠的道路上，充满的各种困惑，作者使用模式的方式一一讲解，帮助你掌握实践，阅读，记录，分享的能力。受益匪浅。	10	2	10
15249337		这本书太经典了	10	2	10
12409281		学习知识很容易，但是用学习到的知识去改变自己就会很难，甚至是非常痛苦。禅修即苦修，知易而行难，吾亦趋之！	10	2	10
12364331		我是七七八八有点基础的，但是不系统的了解这个强大的软件，所以这本书真的很不错，初学者和不系统者最适用了。	10	2	10
16178944		挺水的，不过还是有些收益	10	2	8
16178944		还不错 挺实用的	10	2	8
16178944		看过最接地气的安卓书了	10	2	10
16178944		很不错的书，实践性很强，对于提高很有好处	10	2	10
16862107		为什么买过了，下载一半就卡住了，看不了啊	10	2	2
15153589		讲的比较详细，比较深入，图解很好，但是有少几个图讲的不是很明确，感觉不方便理解，容易误导。我入门的时候就看这本，第一遍有些点看的不是很懂，怀疑书里讲的和源码的意思有出入；之后又看了其他书，肯了大半源码，再回头看一遍，把之前的怀疑都确认了一遍，是自己之前没理解透。值得推荐！	10	2	8
15153589		有志于深入服务端开发的人都该深入理解一下nginx的的实现原理，新一年需要加强基本功！ 虽然网上也有扫描版，但是电子版便于搜索和划重点，30块也就吃顿午饭，知识无价！	10	2	10
12363744		新手友好，但是错误太多。 一定要边看边尝试，否则会被误导。	10	2	6
12055070		不错的一本书，很多东西都很深入，讲解的深入浅出，赞	10	2	10
7519526		好书	10	2	10
7519526		好书	10	2	10
12188658		粗略看了下还挺有意思 待我慢慢看~	10	2	10
10179010		好书，接地气	10	2	10
10179010		很好	10	2	10
10179010		讲得不够生动	10	2	6
15081913		没有太多深入的东西，当是入门的书简单过一遍认识下C#的语法等东西。	10	2	4
10008525		作者提出以客户需求为核心来开发产品，列举了忽视客户需求盲目开发产品的反面例子，对于创业公司如何定位很有启发。此外，作者强调了现有市场、全新市场、细分市场应该采取不同的市场推广策略，有理有据，令人信服。	10	2	8
7643498		总的来说一般吧。作者选择性的介绍了近来互联网领域的一些事例，给出了一定的解释，但是严格说来确实意义不大。整本书读下来只感觉索然无味，颇有鸡肋之感。	10	2	4
7643498		久仰老康了！终于出书了，两本书都收录了，他的书比较偏向科技互联网，一直在追。	10	2	10
12053861		初学php,希望借此书提升下技能。	10	2	10
14187801		还不错，有干货。	10	2	8
12185843		我不知道 书中的资源怎么下载 求解决 书写的不错	10	2	10
12185843		书的源代码在哪里呢？去书里说的网站上下载不了	10	2	10
10158303		实例比较详细	10	2	8
9938687		不错，就是价格。。	10	2	10
9938687		不错	10	2	8
15452223		不爽	10	2	4
10102250		一般般都是一些基础的，早会了的东西	10	2	6
15235711		很详细，学习HADOOP源码的好书	10	2	10
10183064		好书，豆瓣阅读的体验也不错	10	2	10
8045381		开看	10	2	10
13027934		这本书是Cisco出的，主要是从网路架构方面介绍了云技术，同时结合了ITIL和eTOM介绍了云运维管理。个人认为没有介绍自动化运维的具体技术实现。	10	2	6
12328807		还没看书，看了目录很新奇！用的是16进制的！000 001 010	10	2	10
12054237		一般，讲的不够细	10	2	6
12054237		虽说是基础，可也太基础了点	10	2	4
12054237		挺好的，不错的swift教程	10	2	10
10146007		说实话好多知识点对我来说略深	10	2	8
10146007		虽然都是片段，但知识面很广，很多实用的点，完全可以根据其中的介绍再扩展阅读，提高自己。	10	2	8
6473199		反正我是特么的打不开，怎么也打不开，重新下载打不开，重装app打不开，卧槽了，写邮件给豆瓣来来回回一个月还是打不开，正在考虑退款。	10	2	2
6473199		很值得读的关于web(不限web)安全的知识，该好好列出自己服务中隐藏的安全隐患！！！	10	2	10
6473199		非常好，作为安全入门书不错	10	2	10
6473199		买了之后打不开，千万别买！！！	10	2	2
6473199		书写的很好，但是电子书制作的很粗糙，里面很多图需要好好调整下啊，还有代码好好格式化下	10	2	6
9259582		原以为是科普书，结果人物传记部分是鸡肋，而介绍原理的部分完全看懂。😢	10	2	6
12053349		异步机制讲得不是很明白，不适合js初学者。	10	2	4
12053349		赞到不能更赞！Node开发必读！	10	2	10
12186524		从程序语言的发展来阐述语言的设计理念，讲的都是很基础的语言要点，会让你有些新的领悟。不得不说日本人写的书还是很务实有趣的，篇幅不大，读起来无压力。	10	2	8
12186524		豆瓣这排版就敢拿出来卖啊？看看多看的版本！	10	2	2
15303799		很基础的一本书籍，对freeswitch入门很有帮助	10	2	10
11273061		章节更根本不全！之前的留个评论被删掉了！如果豆瓣这样自欺欺人的做事态度，用不了几年会垮掉。	10	2	2
9466016		这本书买了为什么打不开	10	2	2
15113928		图片分辨率很低，根本无法阅读	10	2	6
15113928		百度下载党，我为自己代言。http://download.csdn.net/detail/u012985578/7106011?web=web	10	2	10
15113928		如其名手册	10	2	10
15113928		马克		10	2	10
15113928		看见犀牛书特价了，果断来一发，接下来就等红宝书什么时候打折啦😊代码的排版有点不友好	10	2	10
15113928		买过影印版，再看看	10	2	10
10043156		没有深入介绍原理	10	2	8
12812960		我觉得挺好！	10	2	10
15467353		很多正确的话，举例子、打比方、作诠释，蛮生动的，却没有扎猛子下去，大部分东西是把当前的形势与管理理论的老话揉在一起。看到后半部分感觉是在写散文，直到后记才又把重点找回来了些。	10	2	6
7611058		说的很不错，作为菜鸟程序员的我感触颇多	10	2	10
7611058		对求职者很受用的一本书，尤其是第一次换工作的人	10	2	10
7611058		细节不错(*๓´╰╯`๓)♡	10	2	8
7611058		很有参考价值 除了那几个并不好笑的性别玩笑	10	2	8
7611058		干货！虽然我不太了解干货的意思！	10	2	10
7611058		开始第一步吧，gogogo	10	2	8
7611058		感觉以前一直毕竟模糊的东西清晰了许多	10	2	8
7611058		不错	10	2	10
7611058		还不错，尤其同意要用人生规划来指导职业规划这个纲领	10	2	8
7611058		前半部分不错，对我这种IT职场新人挺有启发的。后面虽然有点对自家产品的推广，不过思路还是值得借鉴的。字数不多，内容清楚，不到一小时就能读完。	10	2	8
7611058		内容很新的书。文字平淡，但条理清晰。感觉作者技术水平不错。	10	2	8
7611058		很中肯的谈了程序员跳槽的问题也给出了自己的意见和建议。不过，广告的嫌疑多少有一点！总的来说，对于大部分程序员来说，作者触类旁通，通过自己的经历和理解，积极认真的于大家分享，值得推荐！	10	2	8
7611058		讲的蛮系统的，确实有用	10	2	10
7611058		还不错，值得一看	10	2	6
7611058		一口气看完，收获很多~作为一名刚刚踏入码农行列的毕业生，里面的很多细节是自己以前想过要做，但一直没坚持的。。以后要坚持积累了，加油！	10	2	10
7611058		可以	10	2	6
7611058		比那些鸡汤文实用多了，本书虽然篇幅短小，但是其中不乏实用性很强的建议和攻略。	10	2	10
7611058		对于新进职场的应届生很有帮助，很感谢！	10	2	10
7611058		挺不错的	10	2	10
7611058		看完了，捞到了干货。	10	2	10
7611058		花了两个上午的时间看完了这本书。可以看出作者对于如何求职还是有一番心得的~适用于现在已离职或者正在找工作的人~可以从中找到些找工作的思路	10	2	8
7611058		很实用，看完受益匪浅，谢谢	10	2	10
7611058		对刚进入行业的人帮助挺大的	10	2	10
7611058		觉得内容还是有些偏少吧，对于一个应届毕业生来说干货还是很多的。虽然是应届毕业生，但现在真没有跳槽的意愿，只想获得少许经验，以备后用。	10	2	10
7611058		挺有用的一本小书，说的挺有道理的。	10	2	10
12872434		排版很烂，代码中的空格、换行都丢了，建议看鸟哥官网的版本	10	2	2
12872434		竟然是电子书，垃圾。	10	2	2
12052767		nice	10	2	10
12052767		初略的过了一遍，还未体会到书中描述的各个并发模型的真谛，但也是收益非浅。	10	2	10
6401772		如何让小学生学习C语言	10	2	8
6401772		适合入门，语言幽默，好书	10	2	10
6401772		书是好书 就是不能跳章	10	2	10
6401772		把答案贴上就好了	10	2	8
6401772		是一本好书	10	2	10
6401772		简单易懂，没别的了，	10	2	8
15166496		不错!是我喜欢的!	10	2	10
15131794		作为一个工具参考书来说，这本书还算是不错的了	10	2	10
12052989		花了4、5天的时间过了一遍，有java和python的基础，语法和对象部分基本很快就过去了。block的部分花了点时间，不过ruby的block好流弊（虽然感觉面向过程的东西多了点）。内容确实够基础，最后几章基本上跳着看，用到的时候再查都行。有其他语言基础的基本上把module和block看看基本上就能开始玩了。 另外我买的是豆瓣阅...	10	2	10
10231732		在概念上讲了paas开发的优势，传统的开发者必须有云平台开发意识。主要是针对国外的paas平台。	10	2	8
7643867		看了星际穿越之后，一直对未来充满了幻想，最近抽风，一直找这种书在看。。。。嘿嘿。。。这本不错哦，值得分享和推荐。宅女有事儿干了，(*^__^*) 嘻嘻……	10	2	10
12230396		还不错，书中样例有些遗漏和小错误。	10	2	8
12056153		豆瓣阅读这个排版比多看上的好多了，代码看起来也清楚多了，价格比多看上便宜一半，赞一个！	10	2	10
15160682		不错，内容丰富	10	2	10
2103775		额	10	2	2
15353111		为豆瓣阅读的排版减一星，代码居然都是截图。	10	2	2
12057158		mark	10	2	10
12054542		深入浅出	10	2	10
12054542		重点突出，详略得当，不是那种大部头，搞得人晕头转向，推荐作为入门读物。	10	2	8
12054542		翻译质量一般。	10	2	4
12054542		通俗易懂讲到HTTP相关技术，作为入门的书籍不错。能更多介绍HTTP2.0的知识就更好啦。	10	2	10
12054542		挺全面的，图文并茂	10	2	8
12054542		入门级介绍读物	10	2	6
12054542		在日本是不是人人都会画漫画啊	10	2	10
12054542		浅显易懂的书，比较适合入门学者了解几本的原理和概念。但是对于进一步需要了解http及html的同学来说，这本书就比较鸡肋了。	10	2	10
12054542		nice	10	2	10
12054542		看困了 不够深入，不够有趣......	10	2	6
13057176		满是错误和不通顺的翻译毁了这本书	10	2	6
8712705		还不错，涵盖了日常应用时的基本点。	10	2	8
1145651		真心觉得不值这个价钱啊！	10	2	2
1145651		Chhh	10	2	6
1145651		非常具有前瞻性！	10	2	10
1145651		后面几章的内容很醒脑。	10	2	8
19198425		惊呆，竟然在豆瓣阅读看到这个，而且一个评论也没有，先打个情怀五星吧！（然而为什么又不带丐帮玩，虽然知道是老门派啦）	10	2	10
15233695		还不错的	10	2	10
15233695		后面完全有点扛不住了。。。	10	2	8
12055829		中號字 372 頁少了字。	10	2	2
13207711		内容太老，介绍的工具也都是一些过时的，害我浪费毛爷爷😖	10	2	2
12186422		电子版排版太差。	10	2	6
12348554		1.基本代码排版都没有 2.仔细看文章会有许多拼写错误 3.内容来看其实就是文档,英文好的话可以找英文文档看.	10	2	4
12480487		太专业了，要是没兴趣，也不会看完。看完对工作促进作用也不是很明显，主要还是拓展知识面，有些地方很精彩。断断续续看了两遍，赞一个	10	2	8
12052662		这本书的排版质量还能再差一点么？都不如使用 MathJax 或者 KaTeX 的网页。公式都使用图片，分辨率还不匹配。在 web 页面看超级小，需要放大。放大后也只是 word 最低质量。都算不上是良好排版的 word 质量。在手机上图片过大，根本无法看清。真是在豆瓣看过的排版最差的技术书籍。	10	2	2
12052662		内容不错，只不过公式之类的看不清	10	2	6
17826372		好书		10	2	10
8190312		印刷错误太多	10	2	2
12391048		如果看做功能简介，尚可。但作者的幻灯片制作水平真心不敢恭维。	10	2	4
12056323		超棒的一本书，对数据科学家这个新兴职业进行了高屋建瓴和客观的介绍，没有冲昏了头脑一般鼓吹大数据。给四星因为电子书的排版实在很难受= =，公式一坨翔啊	10	2	8
12056323		数学不好的人表示很多看不懂	10	2	6
12051836		拜托你们校对认真点，我一个初学者，书还没看完一半就揪出好几处错误。这是一本语言类的书，不是娱乐小说。一个错误都可能导致代码不可执行或概念无法理解！本着对你们的信任才买了电子版，想不到这草率. 让我又去买了一本实体本！	10	2	4
12051836		这本书可以下载了，这本书很不错，我们老师建议这本书对学习js很有用	10	2	10
12051836		很有深度，第一部分还看得比较懂，第二部分越到后面我就越看不懂	10	2	8
12051836		好书，但是其中有几个错误，后几章翻译一般。	10	2	10
15113757		还行，全是基础上加细节说明	10	2	8
12359052		感觉没有《haskell趣学指南》系统，排版顺序和讲解风格不怎么适合我的学习风格	10	2	6
10223637		此书总是下载不下来啊	10	2	2
10067480		扣了钱不能下载	10	2	2
12354363		三分给书，这什么排版，代码都不换字体，缩进也不对，太坑了	10	2	6
12812681		很适合新手入门，书中有大量的实例手把手教你写c#代码！对于有一定其它语言编程经验的人来说，快速学习本书的方法就是把所有的实例都动手敲一遍，遇到不理解的再看书中的解释！	10	2	10
15194794		排版不是很好，有些图片放得太大导致模糊不清，望后续改进。	10	2	6
7412854		入门必须看	10	2	10
7412854		通俗易懂，示例丰富	10	2	10
7412854		一部分代码还是老了，有方法可以帮忙修改么？？？比如github仓库？或者多用户编辑那种	10	2	10
7412854		看了一天看完了，感觉还是不错的。很适合入门，图文并茂地介绍了一些图形学上的概念，期待有更深的作品	10	2	8
7412854		求的是入门，高大上的是以后的事了..谢	10	2	10
7412854		正在看，( ^_^ )不错嘛，先收下来。O(∩_∩)O谢谢啦	10	2	10
7412854		思路很清晰，很适合入门。但是还未够深入……	10	2	10
7412854		确实是入门指南，太浅····	10	2	8
7412854		真的是很棒的教程，弥补了一部分空白	10	2	10
7412854		牛人作品，拜读一下~	10	2	10
7412854		不错，正好熟悉一下	10	2	6
15171550		这书不错，不过，电子版应该不是合适载体 适合学过数据结构，但是觉得自己C语言并不大会用的读者 和中文教材中的数据结构代码片段是不同的。这本书给出的是完整的数据结构库，具有一定的通用性。其代码可以不经修改的用在自己的程序中。 	10	2	10
11771712		p	10	2	10
11771712		为什么app看不见书中代码	10	2	2
10125472		还在看~	10	2	8
15467779		由多人写的，文章质量良莠不齐	10	2	6
15467779		收益了	10	2	10
15467779		在兰军的公众号看到这本新书的出版，由于兰军公众号里面很多干货，使我受益匪浅，于是看到新书出版毫不犹豫就购买了电子版的新书。很感谢兰军把一个想法付诸实现的精神，也感谢泡面们写的职场干货。很期待。	10	2	10
10041453		这翻译……「当dir函数就像这个例子一样，通过把导入模块的名称传至括号里，进行调用后，它将返回这个模块内部的所有属性。」	10	2	8
15354159		图1.5画错了，master和agent反了，另外第一个步骤的数据流也不对	10	2	4
15092913		算是学习提纲吧……	10	2	8