山水与日常	17402307
东京浮游	8305815
荷尔蒙	347694
实习生的蜕变	2152172
你可能不知道的香港	4531690
陌生人	896974
旅行故事	447847
歌声乍起	5450064
南下打工记	1083828
十六周的人生蜕变	1726300
眼望着北方	1295369
器世界	932902
有些失去，不曾离开	867083
某年某月某日	365082
吃素稗闻	4438
植物忆旧集	521710
久违的事：俄罗斯笔记	339211
四季家常味	969830
中文系是治愈系	815526
咸肉冬瓜	587626
身边的江湖	1541407
快活馋	3329974
冬牧场	1749508
惜别	5606896
把爱做到菜里面	6097612
人生对人生观开的玩笑	2564120
如果你知道去哪，全世界都会为你让路	6047160
各自的朝圣路	1009793
瓦尔登湖	507079
我承认我不曾历经沧桑	3454636
病隙碎笔	598556
今生今世	3277224
哥伦比亚的倒影	312992
外国音乐在外国	264825
阿勒泰的角落	1761465
荒废集	359489
一个游荡者的世界	268875
博尔赫斯的面孔	3104187
未来不迎，过往不恋	3712394
你若不勇敢，谁替你坚强	2606815
我们如何走到这一步	5142636
笑谈大先生	255501
素履之往	260216
沙与沫	6006872
倾我所有去生活	3318353
丰子恺散文	519764
我爱我自己，你爱你自己	2232352
无法靠想象完成的旅行	5508363
绿皮火车	684330
愿你的道路漫长	2348985
燕巢与花事	700468
门外汉的京都（试读）	258543
鲁迅文选	502759
只愿你曾被这世界温柔相待	314806
藤花抄	4861506
光与静默	5950755
浮生若梦	2285269
你是人间四月天	2908324
认得几个字	1150147
时光不老，我们不散	3512488
二十五岁的世界	1051331
工作颂歌	2426198
满世界找爱	1895440
我们·逆行	3130698
幸福的建筑	1209608
其实没那么糟	5817292
愿你的选择配得上你的苦	4082897
泪与笑	6003452
静默有时，倾诉有时	1952372
元气糖	973832
斯文	956782
馨香一缕寄云边	679118
时光印痕：唐诗宋词中的节气之美	3291487
琼美卡随想录	263907
兄弟在美国的日子	6018505
内在的从容	1010129
造园的人	2072655
飞鸟集·新月集	5151435
记忆与印象	399183
天涯晚笛	2589545
猎人们	492212
老上海，旧时光	5074374
例外	264557
都在书生倦眼中	986697
柔软的距离	1178991
闲愁万种	3748957
扶轮问路	2978144
上课记	635576
唯美食与爱不可辜负	2275859
品味	1108914
崩溃	3365646
彼年此时	1467382
人与永恒	1010240
每个小小的人都是一个世界	5281123
华学科学与哲学	3311264
胡吃乱想	277960
自由人生	671266
台湾念真情	2618205
一个园丁的一年	1108373
读书毁了我	569905
上海女人	5078282
古典的回声	986095
爱默生家的恶客	2714641
想乐	3673229
鱼丽之宴	262362
因自由而美丽	516707
谁的大学不迷茫	2105322
我们为什么不长尾巴?	5102904
九篇雪	494509
孤独的果实	1267289
再没有什么比生命更寂寥	4637667
我有一个朋友	324493
善良丰富高贵	1011179
饮食谭屑	1309011
草色连云	2848572
和最爱的人去西藏	3648236
孤独漫步者的遐想	752413
像艳遇一样忧伤	270890
湖滨散记	5783791
零下一度	852129
在各种悲喜交集处	2924219
温泉疗养客	3596594
白纸的传奇	5001581
北京老照片的故事	3280339
因为懂得 所以慈悲	1034857
茶事遍路	719632
汪曾祺作品精选	966495
做一个像样子的梦	3746970
灶下书	285738
诺贝尔文学奖获奖作家散文精品	3212928
继续走，继续失去的青春	3311165
反抗者	2420322
安静	991237
台湾这些年所知道的祖国	3844485
温莎墓园日记	2705380
梦书	963002
烟斗随笔	516895
北京，最后的纪念	1447624
国学拾遗	2265789
我是爬行者小江	684756
草木的理想国	1502240
美国的精神 	1286304
青年中国说	5655747
花间一壶酒	1944868
即兴判断	259811
半亩荷塘留清梦	655583
人生百忌	482650
小心轻放的光阴2	2051905
吃，吃的笑	1760243
把爱情像石头一样推上山	3132978
一生只为这一天	264764
人生不过如此	1285778
纸上王国	697346
美味方丈记	4965252
把心安顿好	998978
自传集	828500
于丹趣品人生	1052698
四季如夏	895892
风中的纸屑	1009530
好色的哈姆雷特	2239561
走读苏州	2108502
湘行集	820660
反与正·婚礼集·夏	2427027
季羡林妙语录	456715
林荫幽径	2093633
喃喃	697137
在日本，我忍不住又笑了	4411550
八九十枝花	884226
仰望星空	1183016
山居闲话	1774009
三毛：浪漫是一种病	1232110
不怕路长，只怕心老	5959020
无计花间住	4859954
我们心中的怕和爱	948323
退步集续编	366497
忆往述怀	1696722
凤凰集	816481
博兹札记——场景（英汉对照）	2394794
伦敦风景	739092
历史的空白处	1131451
此生，做这样一个女子	4626096
学飞的盟盟	1188456
余光中散文	971138
气质	787031
价值的理由	579331
流水不回头	1128654
喵了个咪	773707
不曾苟且	302133
跟理想主义者喝茶	2889499
飘零一家	274703
玫瑰的秘密	632907
把世界搞好啊，少年	5509594
我站在蚂蚁这一边	3055918
要塞	513628
蜗耕集	986933
宵待草	1305786
向自己最想要的青春，一路狂奔	4471211
海	4911491
我知道没有人值得我羡慕	1880923
始终不聪明	595145
