你一定爱读的极简欧洲史	1362753
我不知道该说什么，关于死亡还是爱情	15197014
冯唐：小通鉴（中国故事）	2536444
东周列国是怎样一锅粥	10025447
上瘾五百年：烟、酒、咖啡和鸦片的历史	8533929
人类简史：从动物到上帝	10570957
古董局中局3	8094998
马伯庸笑翻中国简史	8026333
鱼羊野史·第1卷	7642163
枪炮、病菌与钢铁	10167316
二战简史	9908396
一战简史	8508423
性的起源：第一次性革命的历史	8923231
美国种族简史	573198
剑桥简明金庸武侠史	4558425
飘	505510
明朝那些事儿·第1部	1465780
枪炮、病菌与钢铁	2812700
唐朝穿越指南	5189003
易中天中华史：中华根（第一部全七卷）	3836449
人类群星闪耀时	3880720
历代经济变革得失	4908884
剑桥艺术史：绘画观赏	2904216
案藏杀机	5298959
唐朝定居指南	5234669
明朝那些事儿·第3部	1492868
西方哲学简史	643155
世界史	2271925
明朝那些事儿·第6部	1487343
大败局1	1184026
明朝那些事儿·第2部	1465634
革命的年代（1789～1848）	3041825
明朝那些事儿·第4部	1494003
夹边沟记事	913278
明朝那些事儿·第5部 	1502433
剑桥艺术史：20世纪艺术	2887452
剑桥艺术史：古希腊罗马艺术	2970542
易中天中华史：两汉两罗马	5645365
旧制度与大革命	1069931
明朝那些事儿·第7部	1485115
帝国的遗产	6131280
邓小平时代	1810809
毛泽东传	620711
身边的江湖	1541407
叶	5911526
激荡三十年（上）	408334
剑桥艺术史：文艺复兴艺术	2889810
三国机密（上）	1291377
易中天中华史：汉武的帝国	4847971
剑桥倚天屠龙史	1129025
中国通史	597728
中国近代史	526348
菊与刀	754453
崩溃	3773529
菊与刀	1208022
古典音乐的巨匠时代（1685—1897）	2896519
十年沧桑	5657844
王阳明·我心光明	4518372
1980年代的爱情	1364673
南非的启示	2300211
帝国最后的荣耀	1285931
激荡三十年（下）	411394
宽容	730510
旧山河	571257
断裂的年代：20世纪的文化与社会	3348122
我们台湾这些年	1112293
1491	3364472
三国机密（下）	1295010
太平天国	441161
东方历史评论（第1辑）	1313882
帝国的年代（1875～1914）	3007250
王阳明·龙场悟道	5125156
璇玑图	5290683
战国日本	1242952
风起陇西	1160493
剑桥艺术史：中世纪艺术	2908484
南渡北归·南渡（上）	5660152
剑桥艺术史：19世纪艺术	2925697
世说新语精读	2496369
剑桥艺术史：18世纪艺术	2870400
第三种黑猩猩	3232066
史上最强日本史	1049946
还原真实的美联储	2392060
日本人与中国人	720573
宪法精解	2259116
韩熙载夜宴	5259045
王阳明·起兵破贼	4502165
南渡北归·北归（上）	5665028
许倬云说历史：中西文明的对照	2523531
肠子，脑子，厨子	3818544
殷商舰队玛雅征服史	1300731
极端的年代（1914～1991）	3294707
大中东行纪	1087150
南渡北归·北归（下）	5667905
一寸河山一寸血.1	1124450
当历史可以观看	2914414
跌荡一百年（上）	689215
拜占庭帝国通史	2255462
致敬加泰罗尼亚	960839
中国好人	2227881
南渡北归·南渡（下）	5681172
共和中的帝制	3675768
国会现场	1762142
巴黎烧了吗?	1076122
资本的年代（1848～1875）	3015627
长春的风花雪月	5782993
剑桥艺术史：17世纪艺术	2844897
开放中的变迁	1217536
这里曾经是汉朝.1	5868200
大唐游侠	5285600
这次不一样	1041527
全透视简明中国通史·1	3644735
大宋帝国三百年2：赵匡胤时间（中）	4404016
重庆往事	4571220
天涯晚笛	2589545
西方美术简史	784350
去趟民国	1929857
这里曾经是汉朝.3	5871927
浩荡两千年	388888
波斯帝国史	5513717
追寻失落的圆明园	3888406
右派国家	3325482
天皇的皇上有五颗星	5665309
孔雀胆	5259476
禅学指归	2260277
历史之源（中文版）	2512150
开膛史	3642386
大汉公主	5290541
辉煌的北京	1281453
道教简史	1447316
武士道	3166810
东方历史评论（第3辑）	2914874
郦波评说曾国藩家训（上册）	1366703
东方历史评论（第4辑）	2953637
中国误会了袁世凯	5539527
明史讲义	672280
其实我们一直活在春秋战国5	6087263
美国的奠基时代（1585—1775）修订版	1359092
曾国藩发迹史（上）	6074477
陈舜臣十八史略：易水悲歌	4976764
大历史的边角料	1124573
罗马史	4438438
文明及其缺憾	4625123
中国史纲	709063
楼兰	5526794
一步一如来	6124501
美得令人窒息的唐诗	697968
山河岁月	3279894
这里曾经是汉朝.4	5873558
为奴十二年	3474700
激荡三十年：中国企业1978-2008（纪念版）上册	5340811
败因：蒋介石为什么败退台湾？	2262880
如果这是宋史.6	1163792
易中天中华史：文明的意志与中华的位置	1142722
瞻对：终于融化的铁疙瘩	2866799
东方历史评论（第2辑）	1940174
中信国学大典：荀子	2554684
先秦政治思想史	637745
法国通史	2256916
斧声烛影	5285831
大清一品	4509692
北洋裂变	1244870
狄更斯讲英国史·第一卷	1451166
爱因斯坦信上帝吗？	5095086
拿破仑传	816555
左宗棠传	5004696
北京老照片的故事	3280339
世界帝国的往事：大元王朝与耶律楚材	4987617
温故一九四二	3636824
钓鱼城	6538644
包青天：沧浪濯缨	5290457
清代社会的贱民等级	317513
寻找·苏慧廉	1433774
陈舜臣十八史略：文治时代	4986533
美国联邦调查局机密档案	517556
启蒙札记	1757787
诸王的游戏 1：寒冰	3911056
陈舜臣十八史略：大风起兮	4958543
陈舜臣十八史略：皇皇盛世	4972168
激荡三十年：中国企业1978-2008（纪念版）下册	5348885
追寻律师的传统	696244
东周战争与儒法国家的诞生	912203
再谈国民性	2396989
被误解的台湾史	3662033
他们创造了美国	2170892
左宗棠发迹史（上）	6051743
台湾这些年所知道的祖国	3844485
罗马新史	956221
林语堂自传	1287169
大生意人	4633994
民国了	448101
城殇	620475
武夫当权	1259640
鱼玄机	5259162
重新发现宋朝	4680969
我的父亲邓小平：激情年华	2237770
沈从文家书	484697
画可以怨	1293549
明清史丛说	1096205
衣香鬓影2·千秋素光同	5188837
行尽江南，未与君遇	319017
陈舜臣十八史略：兴亡无常	4959712
我的父亲邓小平：“文革”岁月	2237590
进城：1949	850404
王阳明的生活世界	320265
“文化大革命”中的名人之思	1246317
毛泽东接班人的不同命运	6411111
文艺复兴（中英双语）	1970132
历史的坏脾气	1127797
近百年古城古墓发掘史	836693
杀戮书：八王之乱	3367210
跌荡一百年（下）	692428
小春秋	481843
明宫奇案	5289710
风声·雨声·读书声	317942
被禁止的考古学	4739818
中国文化里的情与色	296998
诡案录	5699249
变化中的中国人	2870336
小狗也要叫	1022043
纸醉金迷	2973729
牛棚杂忆（英汉对照）	2756992
历史的坏脾气	1536938
诸王的游戏 2：烈火	4742092
国运1909	592884
摇滚圣经——摇滚名词	1478293
中国人的精神（英文版）	1962594
家书中的百年史	5966717
近代史上的鸡零狗碎	1245556
二十世纪初中国政治改革风潮	317843
李敖50年唯一自选集·蒋介石评传	768398
八〇年代：中国经济学人的光荣与梦想	266021
宗教简史	1093425
人与土地	683845
女人的私房历史书：汉代篇1	1123446
拾贝集	489725
波兰！波兰！	3324783
艽野尘梦	2060171
幸好，他们死在书里	1063796
中国人为什么看不起中国人	1134835
流言里的民国（腾讯大家MOOK）	5120596
大学之魂	686260
白牙	3175564
不可重来的时代（腾讯大家MOOK）	5732961
这里曾经是汉朝.2	5870964
他影响了中国：陈云全传	3329775
撒切尔夫人	5198638
蒙古帝国	3630811
极简中国史	2659893
麻辣日本史	851702
在日本，我忍不住又笑了	4411550
父亲那场永不止息的战争	675406
理学纲要	652206
胡适文集·第1卷	2424000
和氏璧	5290304
诗唐归吟	4523114
古案今说	2212332
考古学的过去与未来（中文版）	2510500
封建社会(上下)	1219669
再说戊戌变法	1263754
天下兄弟	2875850
关于“两脚羊”的故事	1245918
直截了当的独白	1264641
如果这是宋史.5	1161124
先秦学术概论	641498
中国人的德性	670792
民国的角落	732559
新宋·十字1	3653255
张纯如	577721
历史（上下）	4895817
郦波评说曾国藩家训（下册）	1366806
白话本国史	4445029
无所畏与无所谓	1246632
梦醒与嬗变	1138665
姑妄集	1245156
历史的底稿	1125218
起风了	1678366
崔永元：我有一事，生死与之（中国故事）	1610659
固执鬼彼得	1255089
抗日战争的细节	2173257
世界金融五百年（上）	1232321
你若安好便是晴天	541225
历史的碎片	1133173
拿破仑传	1034703
论自由·代议制政府	802210
蹉跎坡旧事	2167664
草原帝国	1191452
德国通史	2255555
1912—1928：文武北洋•风流篇	769546
我的帝王生涯	1804634
卡廷惨案真相	329007
新宋·十字2	3653900
中国历史风云录	727369
性的历程	2630741
历史的空白处	1131451
日本在华的间谍活动	5442260
欧洲爵士素描	330521
时代的噪音	272318
许倬云说历史：大国霸业的兴废	699868
血战天下	3337597
大目标	1449949
1912—1928：文武北洋•枭雄篇	774882
大实话：历史与现在	1125071
听不完的历史	1101148
多情却被无情恼	1443047
一个人的诗歌史（第二部）	647840
重新发现上海：1843—1949	2328105
岂有文章觉天下	5964564
经济史上的结构和变革	1219919
在历史的下降线行走	1263989
历史	653616
真历史在民间	4695076
飘零一家	274703
上帝掷骰子	545530
夜读百年中国	3572973
世界金融五百年（下）	1232216
治大国	3948547
场记	3041579
罗马国史大纲	955817
舍我其谁：胡适	298747
清史讲义	638227
时光里的欧洲	1067335
世界五千年	5705029
绑架	5691777
明朝四季	721554
队徽微历史·意甲卷	1867612
八面来风	842036
小谈往事	3033884
中国音乐文学史	367276
政商中国	2169611
现代白话版—清史演义（上）	5450480
风雨张居正	1370908
中国在历史的转折点	1085671
史上最强日本史2	1054983
史海回眸李鸿章	668208
官宦王朝3	2193279
华盛顿传	2738545
亚财政	3050545
阎锡山日记	3749036
现代白话版—清史演义（下）	5452565
中国的儒学统治	1250372
交锋三十年	1498867
告别皇帝的中国	431819
触电的帝国	1285588
法治的代价	2170777
木垒河	3168331
立宪时刻	1034594
官宦王朝2	1168783
如果这是宋史.4	1159621
一个人的诗歌史（第三部）	1099330
花露的中国情缘（中国故事）	3225400
哈佛大学费正清中心50年史	447577
如果这是宋史.2	1150730
联大长征	452529
印度，漂浮的次大陆	1861673
自由之魂	3227924
胡适文集·第4卷	2406358
国士	886888
谁来决定我们是谁	1298998
你们忘了这个世界吗	1192431
血战太平洋	5429819
旧事与新说	449379
德川家光（第二部）	658243
偶然写成的日本野史	487544
黄埔传奇	4392408
黑白曹操	2835487
胡适文集·第3卷	2404044
兴衰之叹	1292264
穿透历史	1287535
黄石的孩子	644678
未来中国的变与不变	3784589
白宫是黑的	4763575
中国共产党：收缩与调适	888512
如果这是宋史.7	1164960
大同书	670160
自然史	2210667
找寻真实的民国（卷一：南北风云）	2618001
安南回忆录	4557060
大国尊严	4487352
唯心有物王阳明正传	1490703
毛泽东传	1086558
胡适文集·第2卷	2420537
青田街七巷六号	3112441
新宋Ⅱ·权柄3	3658450
大故宫3	3279280
艺术的性格	750027
追问大历史	1086447
邓小平改变中国:1978，中国命运大转折	3314845
齐如山回忆录：清宫史话（通识课堂）	2584536
民国先生	825544
中日之间	2819237
只怕不再遇上	733173
清亡启示录	569398
光荣与梦想：中国公学往事	3319581
思想的苇草	1230247
场景	2707945
晚清有个袁世凯	821061
马克思《历史学笔记》与19世纪	953951
历史是个商学院	595971
如果这是宋史.3	1151204
中国哲学对欧洲的影响	1093134
血与铁	480729
大宋帝国三百年1：赵匡胤时间（上）	3540963
新宋Ⅱ·权柄2	3658322
胜因：毛泽东靠什么统一大陆？	2241373
中国社会学史	736914
为何美国是老大	2181914
日本：最陌生的邻居（腾讯大家MOOK）	3583563
林肯传	2009268
许倬云说历史：现代文明的成坏	702078
中日恩怨两千年	2166472
石头的心事	679628
新宋Ⅱ·权柄1	3657832
官宦王朝	1165167
大汗之国 : 西方眼中的中国	4966523
粉墨春秋	4467073
古地图密码	266910
香港：是沙漠还是绿洲（腾讯大家MOOK）	3583016
散落的历史	612693
大唐泥犁狱	1194756
藏在箱底的秘密性史	770615
造反者	4734379
大宋帝国三百年3：赵匡胤时间（下）	4083316
希特勒的十字架	1267691
胡适日记选编	2519149
民国风骨	1003477
考古好玩	2456663
名利场 男人事	5572021
《资治通鉴》二十讲	4652552
不要相信美国	2252489
寻求历史的谜底	654387
新宋·十字3	3656828
软体动物	914250
食全酒美	965552
如果这是宋史.1	1149452
饕餮权相	2301199
日本商业四百年	768794
不信梦想唤不回	3578179
李鸿章传	535528
我的家庭回忆录	4386307
齐如山回忆录：清末的教育改革（通识课堂）	2583925
齐如山回忆录：抗战时期的北平民间（通识课堂）	2583722
齐如山回忆录：民初走出国门的京剧（通识课堂）	2583875
女人的私房历史书：汉代篇6	1137615
西域余闻	724453
女人的私房历史书：汉代篇5	1137233
女人的私房历史书：汉代篇4	1130418
林徽因的会客厅	769483
身体的沦陷	349533
荷兰文化	2233147
战后东北接收交涉纪实	318782
三国职场论之君主篇	773221
赫德的情人	356116
激荡的百年史	767048
维基解密	2239467
庚子使馆被围记	2873040
三国职场论之文臣武将篇	773388
其实我们一直活在春秋战国4	6084827
一寸河山一寸血.5	1141000
一寸河山一寸血.2	1126832
一寸河山一寸血.3	1132581
一寸河山一寸血.4	1133993
多少怡情烟雨中（腾讯大家MOOK）	3584232
迷死人的故事	4442807
大故宫2	3305033
怅望山河	1191775
走，回民国住两天	760977
因为爱情	6506476
象牙塔下	1004990
其实我们一直活在春秋战国	6061525
北伐往事	6655807
曹操	4626606
政界名人的情与爱	6425596
大萧条时代	2182257
这里曾经是汉朝.5	5874131
北京生活侧影	2727716
其实我们一直活在春秋战国3	6080362
罗曼·罗兰音乐之旅	1300512
暗战	6642126
1949年后台海关系揭秘	6424239
日本人的“色道”	2382939
日本商业四百年.2	765421
民国温度	1194631
左宗棠发迹史（下）	6053191
天下无贼	2241092
其实我们一直活在春秋战国2	6070657
凌叔华传	996938
为什么偏偏是朱元璋（01）小兵崛起	3741216
中国历史上的那些洋面孔	6509140
甲子3	2833985
这里曾经是汉朝.6	5874406
乾隆的骨头	892196
寻找孙佩苍	5869253
何枝可依	1750054
电影狙击历史	764926
伦敦蒙难记（中英双语）	1989689
苏北利亚	899219
潜伏者的传奇	6453442
上海私家记忆（中国故事）	3051559
宋史十二讲	737842
战国杀	5256365
西学东渐与晚清社会（修订版）	1301898
晋商会馆（下册）	222351
晋商会馆（上册）	200809
曾国藩发迹史（下）	6103645
历史的细节2	1954227
大国学	657705
中国的革命：1911—1912	891830
放言有忌	5965210
洋务运动史（修订本）	2368361
中国佛学史稿	676101
朝闻道集	489918
征服者档案·2	2677202
吾曹不出 如苍生何	2722877
庙堂往事	1287499
大衰退时代	2173533
征服者档案·1	2666105
我的父亲邓小平：戎马生涯	2237858
征服者档案·3	2678429
革命与生意	412069
征服者档案·5	2680442
毛泽东与斯大林	2376658
征服者档案	2091829
帝国的命运	291244
我的河山：人物	2070542
我的河山：会战	2077734
昭宣中兴	3021499
女人的私房历史书：民国篇1 	1130605
女人的私房历史书2	1137990
夏鼐日记 卷八	727268
我的河山：幕后	2103308
民族、文明与新世界	1213527
大繁荣时代	2173397
遗失的姆大陆之谜	3851270
中国大时局2014	2887264
 夏鼐日记 卷一	718370
夏鼐日记 卷五	712754
夏鼐日记 卷六	713443
夏鼐日记 卷三	722320
夏鼐日记 卷九	723891
夏鼐日记 卷十	721421
夏鼐日记 卷四	724212
夏鼐日记 卷七	716412
夏鼐日记 卷二	728132
民国三大文妖	3048503
黑白记忆•上海1980年代（中国故事）	3222576
大转型时代	2181390
父亲的一九四二	2944131
另一半中国史	2174642
千古文章未尽才	414149
兵谈	1251471
思奔	1333500
左宗棠卷	677025
女人的私房历史书3	1138057
世界级阴谋	2253248
静思录	2956258
女人的私房历史书：民国篇3 	1136765
革命到底是干吗？	4449333
袁世凯家族	3666840
大转折1937	2618510
长袍与牢骚	4501253
伟大的逃亡	1250704
只爱一个人	1746973
最后的关公：吴佩孚	2689516
蓉城十八拍	2022724
粉色官场	3047669
横赌	2908549
中国人的人格	2906106
甲子1	2830982
摩登已成往事	3048948
精忠岳飞（大结局）	2187510
绮情楼杂记	2037050
甲子2	2832017
女人的私房历史书1 	1137466
两个威廉与长城的故事	982169
契丹民族史	825768
征服者档案·4	2679367
战襄阳	9057072
世界科技史速读	10899992
温故（十六）	13556947
加拿大通史	16178233
改变时局的历史事件（下）	11524112
浙江潮第七册	17641657
第21次是国家公祭	12362305
独秀峰摩崖石刻	12041388
自卫反击	19671672
音乐的历史	8903876
温故（十七）	13555263
凌汛	8102881
默克尔新传：奋斗会让自己变得更强大	11895181
关山海	19687918
鲁迅和许广平	19260208
丝绸之路在宁夏	16252668
战国日本Ⅱ：败者的美学	15499033
中国古代服饰史	10943635
晚清学堂学生与社会变迁 	11155649
哈哈镜：贺友直、沈寂画说百年上海滩	19518766
何草不黄	11574575
辛亥：国运1911	9784902
温故（二十九）	12448356
许子东讲稿·第1卷：重读“文革”	8146534
文明历程	11743246
美国后现代小说与历史话语	18040761
大明第一推手刘伯温	14067810
中国文脉	10233114
中国一九五七	17055952
中国宰相全传	11429933
变中前行	18721997
三藩之乱	13050661
福特汽车王国	18259196
孔子执着人生（传世名家经典文丛）	10699190
历史（上下册）	9719780
大国的疤痕	13673713
耸人听闻的世界灾害	11486082
沉浮庄则栋	11302128
马克思主义中国化：历史与规律	12089603
年代四部曲	10569337
张鸣说历史：朝堂上的戏法	13362328
中国近代思想家文库·蔡元培卷	18050713
来龙去脉：历代皇陵命运大揭秘	13620444
李宗仁先生晚年	17006598
《资治通鉴》简编	17393345
史学：文化中的文化	18720973
弑狼	16242192
十年内战史话	9684977
百年风度：文化名人的背影	17356688
战争史	16139487
近代中国外交史资料辑要	10505751
战神粟裕	17129915
清代地理志书研究	18049760
从西点军校到鸭绿江	17396049
清朝野史大观（下）	17395548
史海温故	11744199
建筑中的数学之旅	12189973
交流与对抗：近代中日关系史论	17104097
中国历史上五位“文艺范儿”皇帝的人生 	7859785
文明之光：周口店北京人遗址	11466765
大清相国	18319475
唐卡中的西藏史	13372779
行走在历史的遗迹上：袁仲一传	19924610
图说以色列	10942506
国家威胁：中情局谍战亲历	8523215
定格历史的史学名著（上）	11522140
大明王朝（2）	11128744
现代中国的起点	7612357
大宋王朝（四）	11127993
崩溃的帝国3：日薄西山	12060700
易中天中华史 第三卷：奠基者	19156645
图说二十四节气和七十二物侯	18280688
无算计，不诸葛：打工皇帝的成功之道（下）	14255975
东汉六朝钱树研究	13264165
遇见另一个台儿庄	9087071
蔡东藩中华史：清史	9003550
历史何其相似	19963026
永乐风云（第1卷）：绝地惊涛	10660967
疆域与政区	11161848
从鸦片战争到解放	19874564
空战英豪：二战战机风云录	12197510
蒙藏文化交流史话	9683435
同心史话	16234550
二人台史略	18118324
年轻人要熟知的100位中国帝王	18216573
隋炀大帝杨广	11639117
血祭	13251233
世界反法西斯战争70年警示录	12498969
世界现代化历程·东亚卷	10865522
儒家史话	9684197
春秋大义	17090481
惊涛骇浪：世界大海难揭秘	13258429
历史的细节（1-2）	11498120
李自成（第四卷：李信与红娘子）	16904939
商会史话	9684519
韩国文学之龙虎相搏	11772737
朝鲜战争	10230104
中国皇帝全传	11401332
中国亚非关系史	12085841
天河	12701704
永乐风云（第2卷）：问鼎天下	10661453
中国近代史	15859891
冬天里的春天	12203872
秦汉名物丛考	18972465
向新四军学习	20261306
中小学生必读丛书：圣经的智慧	12592036
罗斯福自述：走出危机	16099550
清朝野史大观（中）	13085256
忍者	10468210
十字架上的正义	15577727
名枪13：火线雄兵	16864100
沧桑之城	985657
李自成：第六卷	12270172
青铜器史话	9683600
温故（十四）	13557393
希罗多德历史	20078138
商业史话	9685002
微历史：民国就是这么有趣	12569860
亡友鲁迅印象记	11154983
晋商五百年：河东盐道	18866344
唐太宗李世民	11639638
塔塔尔族	16219323
性文化简史	12251660
民国大师文库：中国制度史	11602025
道教史话	9462717
老师的谎言：美国历史教科书中的错误（修订版）	15690482
老北大的故事	12287460
尺素江湖：袁世凯家书	19646611
水底的火焰	643098
黑洞	9278016
诛佞记	17298474
混账的历史：五代史的另类解读	13622569
三星堆之101个谜	17218378
解放战争（下）	8015982
李自成：第五卷	12270089
沉船	17192928
台共党人的悲歌	9758342
圆明园史话	9729130
中国近代报刊史	10333859
崩溃的帝国2：励精图治	12051758
儒仁的图腾	16144853
血腥的盛唐3	6111704
中国佛教思想史稿：第一卷 汉魏两晋南北朝卷	19254562
杨度卷（中国近代思想家文库）	18236774
河南：第三册	16506030
搅局的人	11952436
我的生活（下）	13614199
汉朝大历史	13331691
走近皇甫谧	16371622
中法战争：第一部全景式展现中法战争全貌的历史小说	13618396
大明帝国的黄昏	13620662
重读李鸿章	7442423
移民的秩序：清代四川地域社会史研究	17859538
民族工业发展史话	9686323
亲历苏联解体：二十年后的回忆与反思	17945554
战争就是这么回事儿：袁腾飞讲二战（上）	4737151
《外国文学史》学习辅导与习题集	18053761
丝绸之路史话	9685466
心理吴越三部曲之一：鞭楚	14093052
实用古玉辨伪	15389215
曾仕强说三国领导力	12630499
大家02·甲午两甲子：忆与思	8280068
历史探谜	11698105
跟鬼谷子学处世 跟菜根谭学修身	15823132
敦煌：关山孤月	12192552
趣谈中国文化	11548752
诗人兴会：毛泽东以诗会友记趣	17028476
纪念辛亥革命100周年文集	16070801
阴影中的日本	20114322
苏联末日观察	17775338
清世宗雍正	20147570
漕运史话	9394102
战争史	20076492
铁血共和：图说辛亥革命	12267624
袁腾飞讲先秦·上古春秋	8765204
这里曾经是汉朝（套装）	11463987
罗马人的故事8：危机与克服	9218517
蒋介石传（1887-1949）	16407061
战国纵横：鬼谷子的局2	19096979
中国人的谎言	17055305
阶下囚徒——宋徽宗	11954258
清案探秘：宫闱秘闻	12070107
读人·读帖	10503931
千年乱局	20391405
长崎的毁灭	13478446
新历史：美丽岛足印	10556010
易中天中华史 第六卷： 百家争鸣	19756449
一句话读懂中国史	13608625
冷历史	10835040
王石谷	19059227
武乡的红色驻地	18142920
大秦王朝（4）	10616688
历史不忍细看	14782889
清朝的国家认同——“新清史”研究与争鸣	9293155
术书	12511079
罗马人的故事7：臭名昭著的皇帝	9218173
罪孽的报应：德国和日本的战争记忆	20253133
大汉王朝（1）	11128524
全彩中国史（上册）	11067192
卧底中将	12415599
国旗阿妈啦	10281027
猫：九十九条命	16822439
大金帝国	16908833
搜神记	4430117
浑厚深沉的古印度文明	11485326
曾国藩家书	12913111
统一大业（下）	19680559
大秦帝国·第五部：铁血文明（下）	11822470
李时珍——遍尝百草的大医学家	18306355
共和国将军：许光达	16425129
宪政史话	9726567
鬼谷子的谋略之道	18257540
天空宇宙	16204971
施光南传	19924977
金融雏形——当铺与质库	11466241
勃列日涅夫时代	11509848
许倬云说历史：台湾四百年	1157162
大唐王朝（一）	11128632
挺经	12288386
流光溢彩的世界古典史	11485158
斯文在兹:中华文化的源与流	10903305
中日恩怨两千年2	12355537
中外道德警示100例	14058192
隐痛与暗疾	11287584
大宋帝国三百年7	20078850
抗命	11975887
历史的教训	9052961
经营天下的湖南人	14082291
世界史纲：生物和人类的简明史	13849774
民间信仰史话	9685836
为什么偏偏是朱元璋（04）魂归孝陵	3742121
棠棣之殇：曹植传	17032454
温故（之四）	13557147
历代笔记	11694489
棉麻纺织史话	9683390
谋说天下：谋三国	10458248
影响世界的100个演说（下）	11741012
烽烟记忆——军事迷必知的60场经典战役	11099331
我们的战国	10341309
二战风云	12552939
历史就是这么不堪：中外宫廷奇闻录	13909023
苦命皇帝——明思宗	11992580
中外新闻传播史	15725828
战国纵横：鬼谷子的局5	7480342
顶级阅读进阶百科（第二阶段·自己阅读）：历史揭秘	17860587
启蒙思潮史话	9683247
炮楼里的女人：山西日军性奴隶调查实录	11077159
上下五千年	8878429
西方的没落	17830559
互联网之达芬奇密码	4795393
名枪15：枪王AK	16863815
战争史笔记（五代-宋辽金夏）	8090472
人权之门	9129680
邱少云	14048212
大停滞？	10308939
文成公主与唐蕃古道	7670436
中国的货币金融体系（1600~1949）	18008622
黑瞎子沟传奇	13257986
名枪17：战火雄心	16864242
西藏的变迁	19836079
昨天的中国	16435342
许倬云说历史：中西文明的对照	16536650
先秦学术概论	13764103
可怕的现象之谜	15988315
军统江山	13463954
《中国历代政治得失》导读	17393254
皇宫留迷	11742126
史航说萧红书简辑存注释录	10930673
武则天	19857737
夜话上甘岭	17216094
冷战时期美日关系史研究	17881637
中国五千年未解之谜	15991267
国学概论	10915884
蒋经国传	19315473
白衣卿相：柳永	12035908
“边缘人”纪事	19298398
日本人	7836551
浩瀚大洋是赌场（上）	15172871
西洋器物传入中国史话	9726938
谋划世界的100次会议（下）	11740034
热历史	20084272
悟经	18230711
大秦帝国·第四部：阳谋春秋（上）	11822072
先生归来：南京民国老大学的那些人和事	16459405
四明别墅对照记：海一条弄堂诸史	10904300
忠义保证前途：向关羽学习跟什么样的领导干（上）	14257537
两访中国茶乡（下册）	19061220
花江风物	10964543
大秦帝国·第四部：阳谋春秋（下）	11823246
历史上的南京之战	12362438
血色长城	17092421
人皮论语	8623167
敦煌之痛：斯坦因在丝绸之路上的探险与盗宝活动	11600290
红顶商人胡雪岩5：隐患埋于巅峰	9212135
围观历史之摄政	12980848
温故（之九）	13555849
忍不住的“关怀”：1949年前后的书生与政治——王芸生	13610374
嗜血的皇冠	10200055
大宋王朝·沉重的黄袍	6698190
温故（十九）	13556033
努尔哈赤	8221725
岁月如歌	17030587
唐朝女人折腾史	19051818
历史教会我们的爱与痛	13466717
中国谋略家 正传	13917832
向隅编	14755364
教案史话	9680628
Kidnapped（绑架）	11602962
东方大审判：审判侵华日军战犯纪实	16910032
木偶（英文版）	17625659
弄权者：最后一个汉将	13331997
曾国藩（全三册套装）	12631867
天人之学：唐明邦自选集	10904234
天下归心：周公旦	11837971
嫁给民国的女汉子：吕碧城情传	15501884
大宋帝国三百年6	20079410
半壁史书：历史上的那些姐儿们 2	13758252
清代戍边将军：依克唐阿传	16457124
大明王朝（1）	11164014
守望吾土吾乡	16242335
黑白民国	19871735
南京大屠杀	9355793
英国农村劳动力转移与城市化：中世纪盛期及近代早期	17675904
两次世界大战之间的国际关系（1919-1939）	20076661
敦煌文化	19059823
玻璃器史话	9463136
毛泽东正值神州有事时	8250841
西府游击队	16940598
逸趣名人	11743069
一本书读懂消失的文明（英汉对照）	10791176
中信国学大典：韩非子	9866386
英国：从称霸世界到回归欧洲	13916500
每天读一点中国史:先秦隋唐五代卷	10683174
虎尾汤	19891631
美国商业电视的竞争	15895641
解读敦煌•禅宗经典故事	13381147
另一种文明	8067678
活着就为征服世界：蒙古帝国史	14073239
我的宠物朋友	8817270
不倒翁冯道	11134282
浙江潮第一册	17625506
井冈山斗争口述史	19103636
岁月归真	10677790
阿拉伯帝国	8081421
东方劳伦斯	10512174
先生	10578467
杭州往事	11395499
特别谍案	17032661
帝国的分裂	15335866
康巴	10620575
中国历史博览3	11443200
中国历史的侧面Ⅱ	15251778
蒋介石传（1950-1975）	16407106
巴西：你必须知道的历史艺术	10514306
萨满，我们的萨满	10205537
东京梦华录	17794458
嗜血的皇冠	11463668
金丝小巷忘年交	18007534
The Prince and the Pauper（乞丐王子）	12990968
地上成都（巴蜀文化丛书）	10605509
恺撒：从人到神	8783961
从众神崇拜到上帝观念的历史考察	16175501
生子当如孙仲谋	15572346
新史学讲演录	18041128
宝卷：十六至十七世纪中国宗教经卷导论	17676942
舌尖上的历史	11434917
光绪宁灵厅志	15963805
大宋遗民的亡朝岁月	13620860
托克维尔回忆录	20077757
紫禁城的黄昏	9805823
大宋帝国三百年5：文功武治宋太宗（下）	8262069
底特律：一座美国城市的衰落	11435372
最长的一天	11936086
顶起半边天，践行中国梦	15710551
大元王朝3	11129688
红军留下的女人们	11967356
张之洞：唐浩明晚清三部曲(评点插图本)(套装上下册)	10904685
大明王朝：洪武篇章	13847687
故乡旧事	15950656
微历史	20091642
那些文学大师们	20273114
丧葬史话	9684372
铁血顺风号	18301841
武则天：向右，向右，再向右	16402632
朔方集（上册）	16251726
法兰西的兴衰	13885615
文明对话：跨文化的思索	16237718
三藩之乱	16592430
文韬武略一元戎：叶剑英	11512826
世界史	10768987
流血的仕途、嗜血的皇冠合集	11463442
危及世界的100场灾害（下）	11740868
清太祖努尔哈赤	11639543
文化奇观大揭秘	10941496
酷历史	19985251
中小学生必读丛书：史记·菁华	12595124
西方经济思想史导论	9779806
北平无战事	11732687
名枪16：铁蹄悍将	16863643
人类的故事	7505029
图说靖江王城史	18966884
浙江潮第九册	17641245
桃花庵下桃花仙——唐伯虎	18281315
民国的品格	6506222
国步艰难	8047853
李自成：第三卷	12269801
易中天中华史：南朝，北朝	9815954
书法史话	9685530
活在清宫	12564705
马克思“世界历史”理论与经济全球化指向	10729394
大元王朝2	11129468
矿业史话	9685710
当道家统治中国	7768064
大海盗时代	9757569
历史原来这么八卦	12994908
中国十大悲剧故事	10499190
战火之外	11175278
中国近代通史·第六卷	10895761
神巫毛拜陀	18966494
民国大师文库：中国考试制度史	11601599
尘封的往事	13460699
传诵千古的历史掌故（下）	11521986
民国大人物	11663837
我来剥历史的皮	12065955
青年运动史话	9683875
经与史：华夏世界的历史建构	14653788
刷新世界的100个技术发明（下）	11741662
朴槿惠新传：在苦难中微笑成长	11893270
世界遗产·中国	12294035
隋唐前传之彪悍南北朝：双雄会	7303168
一口气读懂中国史	10710636
土耳其通史	16663150
流血的仕途	10199225
蚕桑丝绸史话	9394020
李世民传	14303948
百战将星-肖永银	11938826
温故（十三）	13556464
司马迁与《史记》	17007034
金融史话	9680386
奥斯维辛骷髅俱乐部	12691506
后汉书	10043744
藏地原创:安多秘史	7514383
萨布素传	16471613
家具史话	9561548
精忠岳飞2	2187016
李鸿章发迹史（下）	6074330
人类群星闪耀时	12591767
忠魂正气：颜真卿传	17055812
蒙古秘史	7674630
大同传	19259963
矿冶史话	9681834
造纸史话	9729006
战略决战	19671820
中国近代通史·第三卷	10873688
温故（二十三）	13556514
寻找大别山	8353630
回藏民族关系史	15984768
转变中的工商所	17643803
金融帝国	10916096
平家物语图典	19313211
新闻记录的历史	17354806
未央·沉浮（修订版）上	9618274
刘胡兰	14125932
戊戌喋血记（上）	16833252
中东之旅	19258767
宋美龄传	16423424
出轨的盛唐：武后2	14074330
人民之战	19843920
民国三大校长	12373585
明朝那些事儿：漫画版.2	11066650
无头将军（上卷）	11598401
毛泽东为什么能	16149757
绍兴十二年	15452895
澳大利亚语文：英文（第一册）	13882091
中国老兵器说谜	8099440
中国通史	13917910
盖世太保枪口下的中国女人	12259735
永生之书	8817357
国史讲话：春秋	16683968
接吻简史	7181253
史说北京（插图本）	9121587
中国水族	20297951
波澜壮阔的世界近代史	11483314
寿山传	16640631
经营战略全史	18254053
战争史笔记（三国-隋唐）	8070616
最冷最冷的冷门知识	18715802
上海：东方的巴黎	13110381
人的元素	8329665
唐诗宋词（下）	15832457
罗马人的故事5：恺撒时代（下）	9218344
鲁迅藏百纳本二十四史·史记（卷一）	11951140
中国佛教思想史稿：第三卷 宋元明清近代卷	19254650
大秦帝国·第五部：铁血文明（上）	11822533
寻北之旅	16641457
温故（二十五）	12449008
中日关系之痛	8021884
河南：第五册	16505690
澳门史话	9416708
战国纵横：鬼谷子的局3	7480186
历史故事	11707809
谋说天下：谋汉	10457848
法国革命论	20075898
同心英烈	16234637
第二次世界大战史丛书·血海翻腾	11718602
1985：纠结的大清、天国与列强	10347358
民国外交故事	15243724
大清一品	15907634
中国古代名人传	11444114
中国回族史（修订本）	12482723
台湾这些年所知道的祖国	13723089
城市化与近代上海社会生活	12237517
道光十九年：从禁烟到战争	8425700
古锁史话	15698125
每天读一点世界史•近现代卷	10682967
战后东北亚主要国家间领土纠纷与国际关系研究	9949763
苏东坡旷达人生（传世名家经典文丛）	10698812
麻姑	11897179
第二次世界大战史：二战史诡秘谍海	15814014
人类与宗教	10919629
我的抗战：重走当年路（上）	10577334
贾志刚说春秋之一 · 齐楚崛起	9821026
合作与奉献：毕节实验区专家顾问组20年	17792502
虎踞梅岭——梅关	11466416
新宋Ⅲ·燕云2	3661187
中日恩怨两千年 4	11023300
惊撼世界的100场战争（上）	11740388
大唐平叛传（上）	15907529
一口气读懂历史上那些皇后	14086401
乌托邦时代	10556215
无中生有：中国历史中的诬告往事	13621901
袁腾飞讲两宋风云	8766390
史航说当历史可以观看	10930478
非常事端——日本侵略重大事件亲历者口述全纪录	15431077
大唐帝国的扩张（第2部）：帝国雄途	12681934
震惊世界的100次变革（上）	11739646
中国政治思想通史·魏晋南北朝卷	10241623
共和国将军：陈赓	16426291
岳飞——精忠报国的抗金名将	18331774
圣雄箴言录	10573259
天下第一村	17033015
每天读一点世界艺术史	12288035
农民运动史话	9683116
石刻史话	9684727
敦煌史话	9462833
浩荡两千年：中国企业公元前7世纪~1869年	10000464
大明王朝（第三册）	5758368
大明亡朝	19722942
中国史一本通	10692501
大学史话	9395707
史记	11243336
开卷有疑：中国现代史读书札记	13481267
历史的惯性：未来十年的中国与世界	10566565
中国古代宰相传	11444979
蔡东藩中华史：民国	8902120
汉魏士人的思想历程	15989981
观世留音	15452648
中国皇后传	10498340
悠悠南北朝	11602127
白马叙事	12256254
给小学生讲世界历史（下）	9668486
向八路军学习	20340881
起风了	9443889
俄罗斯恋人	13992096
新宋Ⅱ·权柄4	3658870
暗杀1905·第2部	9296033
温故（之十）	13557054
矮奴	13259389
爱因斯坦在柏林	19637995
历史的玄机：权臣谋士的传奇人生	10452511
唐风遗韵	15642950
谁的爱情绚烂了那座城	17784699
历史为什么选择了毛泽东	10566703
世界现代化历程·西欧卷	10867021
震撼心灵的历史故事	11456969
20几岁要知道点历史常识·中国卷	20378850
永乐风云（第4卷）：万代千秋	10661288
无头将军（中卷）	11598871
阿拉善往事：阿拉善盟文史资料选辑甲编（下）	15902921
邬达克的家：番禺路129号的前世今生	13111256
李超琼日记	10940511
论语别裁	12593996
书院史话	9686420
庆亲王	16036125
孙子——影响世界的超级军事家	18303686
道教史	4499153
李自成：第七卷	12270322
中宁史话	16299163
风格迥异的亚非奇迹	11483414
天路长虹：“劈山开路先锋连”纪实	17032835
史家高华	10574042
一口气读懂世界史	10714198
重读摄政王载沣	17397503
戊戌喋血记（下）	16833883
千年重农	11742398
大秦帝国·第三部：金戈铁马（下）	11825602
琢磨历史	15464281
遗失在西方的中国史（上册）	19459615
深夜十堂	13252639
纸年轮：民国以来百年中国私人读本	16887624
晋商五百年：走西口	18767787
每天一堂历史智慧课	12605976
李勣：与大佬们过招的日子	13622487
绞杀世界	11143289
圣女贞德	8052217
占婆与马来世界的文化交流	12088028
温故（之八）	13555959
知识界的抗争	12362587
华夏生死书	10234485
海上第一名园：张园	19030034
锦瑟哀弦：李商隐传	16893216
战争史笔记（上古-秦汉）	8068897
历史就是这么离奇：中外宫廷奇案录	13464896
守先待后：思想、格局与传统	15959810
刘湘家族	3048117
拉贝先生：关于日军在南京大屠杀与“国际安全区”	16893522
论中国	9956043
清末国会请愿风云 （历史记忆）	18719709
Quo Vadis（你往何处去）	11602831
饮茶史话	9728679
温故（之五）	13556875
李自成：第八卷	12270456
中国军事史速读	10898328
帝国政界往事：大明王朝纪事	9823708
大明王朝（第二册）	5754830
解放战争（上）	7951619
中国生活记忆：建国65周年民生往事	9750800
我和慈禧太后	9818382
左宗棠收新疆：晚清史上最扬眉吐气的一场家国保卫战	13618217
安禄山史思明评传	13839951
中国黑室	2620412
15场世界经典战役	16281900
滴血的皇冠	12258473
新宋Ⅲ·燕云1	3660446
经典的传播	19746125
乱世潜流：民族主义与民国政治	16596394
梁山泊里论英雄	18264321
欧洲大历史	9026275
百年老校	9734759
张骞大传	12416010
唐朝文学观止	10476620
国土九章	16995379
十三不靠	19319975
黄金史诗	16471559
罗马人的故事14：基督的胜利	9218743
谋说天下：谋明	10457938
北斗	10532245
清初三大疑案考实	13321009
斯大林的失误	16252758
中小学生必读丛书：人类的故事	13405135
风雨北大，水木清华	13256910
信赖·互惠·共生	16057515
大汉王朝（第三册）	5741149
百战名将陆荣廷	11574710
李世民——开创唐朝盛世的马上皇帝	18306959
康有为卷（中国近代思想家文库）	18050620
浙江潮第八册	17641512
帝国政界往事：公元1127年大宋帝国实录	9821386
变化中的资本主义	10378352
那些思想大师们	20254854
战争就是这么回事儿：袁腾飞讲一战	4735902
人类酷刑史	13129007
1898年那场未遂政变	11011022
中流砥柱	12677868
匆匆2014	11434444
惊撼世界的100场战争（下）	11740243
辉煌灿烂的世界中古史	11485006
国学与汉学	9787933
丰臣秀吉【六】	9938572
中国抗日战争史简明读本（英文版）	14756331
公天下：多中心治理与双主体法权	11574668
铁腕柔情：撒切尔夫人传	11291782
历史转折中的邓小平	8727787
共和国将军：张云逸	16425006
我的老北京印象（荷兰大使夫人之民国见闻）	17873928
呐喊：大屠杀回忆录	11289257
中国古代文人传说	11444746
大清王朝（4）	11129068
悬挂的魂灵	17245939
至尊红颜：武则天传	11116390
法兰西在中国300年	13106821
交流与交通	11153797
一代天骄成吉思汗	11639856
统一大业（上）	19680679
文明的故事 	13363741
中国历史悬案	11400408
三边情愫	16146432
火器史话	9561081
乱世解码：犀利说民国	11896797
大汉天威：刘邦的草根哲学	13242973
韩愈与柳宗元	16996053
资治通鉴	11243524
行走在历史的田野	18220430
徐州画像石	19253672
见证中国：爱泼斯坦回忆录	19846987
近代中国（第二十四辑）	19030513
女性媒介：历史与传统（1897－1949）	15889913
丰臣秀吉【二】	9926990
京西锁钥——卢沟桥	11466895
震惊世界的100次变革（下）	11739743
大秦王朝（2）	10613351
七九年之战目击记	16933610
重任在肩：美军四星上将的军事回忆录	9951091
丝绸之路	10865967
国家与市场：英国重商主义时代的历史解读	11007679
初刻拍案惊奇（精装典藏本）	15821356
世界上最著名的36桩暗杀事件	10600020
李自成（第十卷：巨星陨落）	16904843
民国的风度	6505640
文明的度量	9762771
武则天正传	10390210
阉宦兴衰	11744227
诗咏五台山	18152019
美利坚之矛：美国海军陆战队	17090738
帝国的惆怅	7048385
服饰的进化	16283739
如是我闻——艺海拾贝	15202889
中国历代政权与伊斯兰教	12424245
行走的家园	12488062
解读敦煌：中世纪服饰	9493254
历史的狼性征服（完整版）	15608938
风暴来临（1920－1929）	11233659
中国马克思主义大众化研究：历史进程和基本经验	18154434
中国通史	15860442
温故（十一）	13556662
西藏史话	9727359
穿过历史的迷雾	19853396
亲历中苏关系	18467504
宋元明清那些爱	15646398
汉口的沧桑往事	14338733
圣者为王	3127068
关键十六天 ： 白崇禧将军与二二八	15996624
世界历史全知道	11386720
唐宋诗词述要	16280992
民国大师文库：中国伦理学史	11601261
国民党军事制度史	15244479
朱元璋评传	11867158
北欧文学论：从北欧中世纪文学瑰宝到“当代的易 卜生” 	16174549
鉴真	19058915
新宋Ⅱ·权柄5	3659313
街角的老北京	12569918
不倒宰相冯道	10417622
民国大师文库：中国报学史	11601464
日新月异的世界现代史	11485968
汉景帝阳陵探秘	13886716
中国古代艳情小说史	17710363
那些远去的坚实身影	13611294
诸葛亮——神机妙算的一代名相	18331997
中国国际新闻传播史	15726099
世界青年运动史论	17710561
延安记忆	17092511
曾国藩：魔力不倒翁的生存寓言	18261715
罗马人的故事2：汉尼拔战记	9217972
桂林抗战文化城奇闻异事	10964353
尽显繁荣（1990－1999）	11234561
走进科学·史海沉钩	15823216
红色经典传奇100例	14124298
悲情王妃戴安娜	12047261
中国历史研究法	19983051
共和国将军：王树声	16426929
近代中国的不吸纸烟运动研究	17941017
北洋北京——摄影大师的视界	17424982
曾国藩大传	9253301
张力与限界：中央苏区的革命（1933～1934）	17945263
文明的对话	1349987
Q版大明衣冠图志	9758232
北京十年	10355009
这样读史更有趣	18256742
中国历代名女：宫女卷	14857767
从华夏到中国	9821827
华侨史话	9560450
政治的历史与边界（中文版）	2632788
许倬云说历史	11465072
地理学史话	9462535
体育政治化研究	16280517
李自成：第十卷	12270668
新民说：复兴孔子 继往开来：你需要的哲学与思维修炼	10660380
当代学者自选文库：谢冕卷	16909545
风吹过的岁月	15935058
耳语者：斯大林时代苏联的私人生活	17692801
铁血黄花：清末明初的暗杀	13941598
异乡	16812060
浙江潮（全十册）	17626083
变革风生（1980－1989）	11233399
活着: 清影纪录中国·2011 	11261768
山西辛亥人物传	18159911
浩瀚大洋是赌场（中）	15501295
春秋战国故事	15988941
国史讲话：宋蒙三百年	16684001
蔡东藩中华史：两晋	8865791
战争从未如此热血4：二战美日太平洋大对决（终结篇）	12701274
且借纸遁	19490903
运河史话	9728990
燃烧的月亮	11988462
李白——仗剑行侠的诗仙	18307179
罗马人的故事6：罗马统治下的和平	9217863
击浪生涯——李宗仁与郭德洁的执手岁月	17206165
上海史：走向现代之路	16393766
上古西周故事	15989096
晚清最后十八年：从甲午战争到辛亥革命2	19343196
天机·富春山居图	13427371
中国近代通史 第七卷	10874002
帅气逼人的历史	8309540
耦合与嬗变：21世纪合拍片的繁荣与华语电影新形态	15847914
龙之源头	16457490
人文成都	13612777
危及世界的100场灾害（上）	11740654
抗日战争的细节 2	6072790
学校为一大事而建：我与“七外”这十年	18719047
中国历史博览2	11443137
水利史话	9685981
鉴真东渡	10288704
衙门逻辑	5818875
大明王朝（4）	11128911
文中象外	16424475
儒日中天：汉武帝的辉煌	12340790
游牧北京：行吟诗人眼中的北京	13265823
糊涂县令郑板桥	19491741
李鸿章：甲午之殇	6868798
文化隆德	16238157
世界史的构造	11963710
义务教育学科教学指导：历史	16266549
我是我的神（套装上下册）	17089696
治世之能臣，乱世之枭雄：袁世凯传	11148369
全彩中国史（下册）	11067007
迷局：不忍细读的历史真相	10457472
东亚大历史	18117486
犹太人惹了谁	10491336
康熙——开创清朝盛世的一代明君	18306550
易中天中华史：秦并天下	9351380
十二国	16190365
第二次世界大战史丛书·亡命暴徒	11718538
第四野战军	5917717
暗杀：义烈千秋的壮举	13840123
学校史话	9727453
庄子逍遥人生（传世名家经典文丛）	10698634
大国推手：历史就是这样被改变	7875050
他为世界而来——成吉思汗和他的草原帝国	10090749
魏晋玄学会要	9949901
青年希特勒	15336605
德国，你如此优雅	12258350
思想背后的利益	18746230
为什么偏偏是朱元璋（02）四方逐鹿	3741919
诸王的游戏第1部：寒冰	14092101
谋说天下：谋秦	10458044
千年一叹	10231808
吕著中国通史（上）	19853729
他们的岁月	13379752
改变时局的世界会议	11483689
新宋Ⅲ·燕云4	3671022
军阀秘史	15243078
通鉴载道：司马光传	17033565
战国纵横：鬼谷子的局8	7480934
水墨青花，刹那芳华	16424122
老同济的故事	12568341
民立场（大象公会第3期）	9764130
大观系列：正眼看世界	10660598
驼峰航线：抗战中国的一条生命通道（插图版）	16511021
美国通史	11069318
丰臣秀吉【五】	9937123
爱情定则：现代中国第一次爱情大讨论	8346074
世界预言之谜	15988430
史前生命	16240525
何日君再来：流行歌曲沧桑史话1927—1949	15574867
近代诗坛上的徐志摩	12130314
魏晋南北朝骈文史论	13249212
帝国政界往事.上	7373989
不曾停歇的旅程	13459921
澳大利亚语文：英文（第四册）	13882592
极简左传	7984093
新宋Ⅲ·燕云3	3661678
伟大的历史：中华民族五千年的兴盛与辉煌	16627622
谈闲说怪	11742643
宁武之美——史话	18238859
看懂世界格局的第一本书3	18952081
古代世界的七大奇迹	19741237
分分合合的朝代更替（下）	11523665
古埃及探秘	17792886
中小学生必读丛书：希腊神话	12592282
吴梅村传	12268339
流民史话	9681999
向红军学习	20261279
世纪之交的沉思	16240329
史前文明之谜	10978256
18世纪法国唯物主义社会历史观研究	10530903
浙江潮第四册	17641320
一点都不靠谱	18115233
火与剑的海洋　帝国的崛起与衰落	12332730
冯梦龙	19059167
美国海军	12293961
武则天	13425838
淮军四十年	12260265
青梅煮酒论英雄	13728263
故人风清：文化名人的背影	18770087
血腥的盛唐5	6112758
天朝落日：中国二十王朝覆亡全景	14980334
文心雕砌：雕漆大师文乾刚口述史	16281100
智谋观止	9191052
李自成：第九卷	12270585
中国历史之谜	10498658
李自成：第一卷	12269636
趣谈中国古代文学家	11549006
中国近代通史·第四卷	10895872
朋友还是敌人？	11962055
简明中国现代文学史	15889444
商人也要知道点历史	14980684
我的生活（上、下）	13613801
历史上的人权	14404905
贾志刚说春秋之四 · 天下大乱	9859203
启迪世界的100部文学作品（下）	11741996
从前的先生	15498952
民国那些牛人	8499005
刑具淫威	11743595
盗国：一个女人的爱与天下	15122454
罗马人的故事15：罗马世界的终曲	9219156
首志封神 2	10869596
亥姆霍兹科学哲学思想的历史考察	15335736
一以贯之	9866697
驿道史话	9728453
盐铁往事：两千年前的货币战争	8840193
客家圣典：一个大迁徙民系的文化史	16892495
莫卧儿帝国	8071859
中华文韬武略精典	11349278
眼前	19491356
文化海原	16236027
历史老师没教过的历史3	16862790
天朝的狂欢	18953592
历史转折中的邓小平	20414442
丑女有爱黄月英	16790843
开国外交秘闻	6442941
零年：1945	16510866
野史的味道	16263923
红顶商人胡雪岩6：悲凉醒世大结局	9212535
汉朝那些人	10441234
你不可不知的文学典故	13334524
民国纪事本末（1911-1949）	9821729
真田幸村	8634758
1978大记忆：北京的思考与改变	17644124
浙江潮第五册	17641446
易中天中华史：隋唐定局	16168085
我家的故事：陈白尘女儿的讲述	16459625
其实历史可以这样读	18215120
中国政治制度史（第3版）	18001056
中国通史简编	9785585
写给孩子的世界历史	13265585
图说北京历史上的今天	17427771
独领风骚的工艺美术	11483983
史记鉴赏	11039893
一战100年与中国大变局	12498670
素书谋略全本	9813925
清朝大历史	13298025
司马懿吃三国 3	6103399
青梅煮酒论英雄	11142937
解读敦煌•佛陀的本生因缘故事	13380767
千古一相管仲传	16935111
英国动画	16087653
纸牢笼	10715651
国学十讲	18237134
美国的智慧（下）	18224085
大风起兮	13841887
谁的国家谁的家之非常谍战	8449245
柳如是：如是我闻	11866039
外国人眼中的中国人：溥仪	8823930
大唐帝国的黃昏	13621083
震惊中外的历史大事件	11487046
生于1971	10584601
宠辱一身的历代皇后（上）	11522254
维多利亚女王传	10769895
闺阁与画舫	18531367
中华的另一种可能	7607705
发射将军	15610987
中国未完成的革命	19833509
说中国：一个不断变化的复杂共同体	15232494
北宋三苏	13840591
听黄仁宇讲中国历史	13381088
中国帝王性格解码	12983395
一统中原——赵普	11840257
大元王朝1	11129391
中国古代高僧传	6024094
大秦帝国·第三部：金戈铁马（上）	11822717
音乐史话	9727995
大道与歧途	10320559
亚特兰蒂斯	8137965
礼俗史话	9682472
太阳最红	17032370
最隐秘的中国名人未解之谜	20374174
潜规则（修订版）	19328242
中国老游艺说趣	8101683
天下故事	17033198
马步芳全传	12423560
沧桑	10532970
东瀛花影	7478882
女人的历史	17872472
世界历史博览2	10698176
记者、小说与知识分子关系	11893053
明朝大历史	9555135
共和国将军：粟裕	16425286
大宋帝国三百年4：文功武治宋太宗（上）	8160052
梦游者	9701680
民国经济故事	15243665
震撼世界的100个科学发现（上）	11741192
湘西秘史	17004689
战国九局	17900106
明朝大佬戚继光	13653743
留学史话	9682692
蜚声中外的中国建筑（下）	11523788
隐忍的老虎司马懿	14068244
郑和	19059372
大国崛起之谜	19636295
把生命浪费在美好的事物上	12041051
清官海瑞	15606731
中国历史的侧面	14717666
海上丝路史话	9688218
军情六处：秘密情报局历史	16820024
绍兴名媛传略	16189520
牢墙内的巴勒斯坦	13907953
历史典故（下）	11625333
湘西寻宝记	16779847
特别谍案	12001073
世界简史	10919878
三峡那个桃花村	20297266
中国的黄金时代：唐朝的日常生活	10769098
潜伏，在特殊战线	15584086
大观：海权沉浮	10660691
贞观政要	14970912
本色中国人	9871123
司马懿吃三国 2	6102657
塞上古史钩沉	16145828
红雨：一个中国县域七个世纪的暴力史	11618881
风月有痕	1475061
司马天下	17030157
铁帜辽西	15203558
李自成：第四卷	12269941
空穴来风：中国历史中的造谣往事	13622041
辛亥：国运1911	16792993
帝国政界往事.下（终结版）	7306774
逆史	10460939
陈寅恪丛考	16395325
恩泽传	16456991
明清大案揭秘	13848668
察今	11367932
曹操的故事	18265708
不破楼兰终不还	13459863
中国文化概论（精编本）	18443656
我的抗战：重走当年路（下）	10577197
资治通鉴菁华 	13364568
共和国将军：黄克诚	16426707
河南：第七册	16506331
革命烈士书信	11549177
对决太平洋	10672002
大国医(孟宪明)	10513110
荣枯鉴——千年不二之异书	10676017
美国印第安文学与现代性研究 	8336011
审判美国	10572810
老先生	10321446
皮草人生	17424432
读史知王道	15933672
三国演义（上册）（地图珍藏版）	17356851
两访中国茶乡（上册）	19061140
天崩地裂	13613630
蒋纬国口述自传	10016566
复活的古城（下）	11743857
潘金莲的发型	9759095
鼓吹：终结帝制的集结号	13886840
天津往事：藏在旧时光里的秘密地图	12507924
石器史话	9686509
美国十讲	11350434
中华少年智慧故事金典：斗智显智慧	11470677
鸦片战争史话	9727519
76号特务实录	15574696
北洋政府史话	9417165
才高八斗：曹植	12084019
社会主义思潮史话	9685318
汉藏文化交流史话	9688597
河南：第九册	16506207
李自成（第九卷：兵败山海关）	16904152
寿山将军	10784439
中信国学大典·礼记 孝经	10566267
南宋大航海时代	19676975
繁荣的背后	858925
大英雄本色	17390205
史航说大帅府秘闻	10932272
一枝一叶总关情	17094473
极简史记	7985162
东方历史评论（第6辑）	15998132
李际科传	16134295
阿拉善往事：阿拉善盟文史资料选辑甲编（上）	15902263
大清王朝（1）	11129822
潘金莲与李瓶儿	14123539
老梁论成败	7648818
二号人物吕不韦	9669436
陪楼	16933089
建设富裕和谐秀美江西（小学中高年级版）	14084306
The Code of Hammurabi（汉谟拉比法典）	9956308
晋商五百年：万里茶路	18768695
清华之父曹云祥	13298620
大前门：聊聊过往那些事儿	16457580
风雨长征号	15611319
历代宫廷阴谋故事（上）	11727091
大师与传统(增订版)	12344322
南洋红头巾	11432253
大火磨	13466190
孝行天下	10841850
大汉王朝	13242132
古罗马文学史	11895242
交子 	18874309
大秦帝国·第六部 帝国烽烟	11823161
话剧史话	9560879
活色生香的民俗	16641656
英雄的历史	10942024
七杀	10954848
十大将军	17359036
丰绅传	16640853
流血的仕途：李斯与秦始皇（套装上下册）	11463391
孙中山传	16423822
百战风云（第一部）	8538978
我的父亲母亲	10063967
朔方集：全2册（下册）	16247188
名人传	18305800
陈独秀文选	17193017
金融可以颠覆历史2	16434425
中国古代皇后传	11444481
中国的匈奴	10757860
大争论：左派和右派的起源	9272156
中国电视纪录片史论（1958-2004）	15888371
千年传承——舞龙舞狮	11466024
那些国学大师们	20336816
许倬云说历史：这个世界病了吗？	13723608
定格历史的史学名著（下）	19994455
黄金时代	7268316
卑鄙的圣人：曹操10	11020781
三千年来谁著史：两汉时期的生存法则	13299005
曾国藩相人术	10858156
天行健	17032744
历史，你也懂的	11394466
见证与记录：南京大屠杀真相精选（中方史料）	19060939
清代乾隆朝省级司法实践研究	2507934
金动天下	13848122
扑朔迷离的世界之谜	11485642
澳大利亚语文：英文（第五册）	13882356
世界现代化历程：俄罗斯东欧卷	19255128
岁月留痕：朱威烈译作选.社科艺术卷	16219616
胡适文选	15337998
钓鱼城的乱世佳人	10807260
大观园里的替身——《红楼梦》索隐之二	10330267
冷的冬，热的雪	340682
世界历史博览4	11828727
大唐李白：少年游	19869225
营国巨商：吕不韦	11931903
宋慈洗冤录：满怀冰雪	11421890
丰臣秀吉【三】	9932996
外交家曾纪泽	14307094
乡愁北京：寻回昨日的世界	11734275
文学史纲	9559117
明月流照君	11793713
德国战败赔偿政策研究（1939-1949）	10721066
中日恩怨两千年 3	11022787
汉书故事简读	10441382
国学中的国学	19029809
见证与记录：南京大屠杀真相精选（西方史料）	19060849
《克劳备忘录》与英德对抗	9123912
史记	10990786
享誉世界的音乐大师	11486494
杨绛传	19052054
外国人眼中的中国人：康熙大帝	14202054
薛定谔之猫	12703112
牛人袁世凯	12229145
斯诺在宁夏	16218052
预知	16483822
唐朝大历史	13379671
帝王之都（热河）	17861585
世界现代化历程·大洋洲卷	10866591
地理大发现的故事	9232203
觉醒的国殇：甲午战争120年祭	12050851
历史形态与文化表征	18531166
经鲜为人知的三国秘闻	12129643
司马懿吃三国	6101976
乱时候，穷时候	9210264
民国秘史	12565685
历史典故（上）	11625110
昨日之前的世界	8524172
抵制与反抗：来自东欧的教训	11005862
天衣无缝：东方皇裔与时尚设计的传奇	16939026
汉书	11243248
俄罗斯通史（1917-1991）	18740855
解读敦煌•敦煌彩塑	13379245
情系高君宇 .上	18935541
温故（之七）	13556781
素馨萦怀·香学七讲	18280541
大国游戏	11171128
生命里最美好的春天	19343899
北京往事	11939067
遗失在西方的中国史（下册）	19523029
宁夏岩画	16172658
宋家客厅：从钱锺书到张爱玲	9812084
美国的智慧（上）	18223986
张大可讲《史记》	9127062
井冈山斗争口述史	12361895
历史与反复	10358177
外国人眼中的中国人：成吉思汗后世子孙	14203474
青史垂名	11744304
见“色”男人	12127749
历史的诡计	10369824
元功之首——邓禹	11841237
老复旦的故事	12568147
长江史话	11031627
又疯又狂卡扎菲	1000475
我们能做什么：胡适谈中国	12488144
计算机：一部历史	12328807
吴三桂的发迹史2	13265203
明孝陵	19254832
狂饮大时代	16893036
《中国历代政治得失》导读	9678074
遗迹，文明的基因	16283259
伟大的犹太人（下）	10948964
这是哪儿？北京！	11498685
百年世事	10836315
陈桥驿梦	8302441
台湾通史	8221891
海盗之谜	11093802
邮政史话	9728552
改革大佬王安石	13621505
三国演义中的三十六计	18216296
慈禧与光绪：中国宫廷中的生存游戏	11141469
清明上河图密码	8028142
向志愿军学习	20340479
诗歌史话	9684641
黄金密档：1949年大陆黄金运台始末	9769873
震惊世界的考古大揭秘	17643940
退士闲篇	9678899
传奇将军牛化东	15941343
古老的密码（上）	11743984
贾志刚说春秋之六 · 圣贤本色	9820585
无头将军（下卷）	11598785
孤寂百年：中国现代知识分子十二论	16887262
复活的日本财阀	10230706
大清孤儿：清末传统士人的宿命解读	13620743
忍不住的“关怀”：1949年前后的书生与政治——张东荪	13480791
满文《满洲实录》译编	18437386
父亲的忠告	16617627
宝鸡峡	16911250
血腥的盛唐 7	6116124
罗斯柴尔德家族（上中下）	10568287
汉武帝的三张面孔	8689229
流动的斯文	16407830
易中天中华史 第四卷：青春志	19751384
上海监狱的前世今生	16062778
明清故事	15989289
关东风云	12680236
天国的封印	13848875
麻辣近代史：1840—1885	16421722
中古伊朗八大诗人	16288667
冰鉴全编（上、下）	10373911
外国人眼中的中国人：拔都汗	14206506
中东现场：揭开伊斯兰世界的冲突迷雾	16196414
世界秩序	12350086
开埠史话	9681429
历史就是这么率真	13908666
外国社会学史（第三版）	17827686
探寻宪政之路：孙中山的宪政思想及实践问题研究	17676015
商鞅变法研究	17945034
清朝的面孔	13623643
1898：百年忧患	16903608
胜负手	13940856
百家争鸣：春秋战国擂台赛	8831212
唐臣（套装上下册）	10678047
百年美联储	9186526
中国戏剧史	10233260
河南：第一册	16505553
虎口索食第一人：晚清外交家曾纪泽	11916871
浴血荣光	6965122
百年袁家	19641894
泥人（英文版）	17625769
“阳谋”与“阴谋”	6447001
历史的灵魂	1169820
全球通史（上）	11079206
成吉思汗忽必烈评传	16383733
20几岁要知道点历史常识·外国卷	20379389
大明日落	13409794
剑桥美国文学史：第6卷	15691103
转机时刻（1970－1979）	11234028
风流孟夫子	16386390
三国成语典故	16146589
世界五千年未解之谜	15988620
文化视野下的近代中国	15982722
慈禧全传 第二部	9587127
日本史随笔	19104308
罗马人的故事4：恺撒时代（上）	9218297
大汉王朝（2）	11128487
我们台湾这些年（套装共两册）	10149879
罗马人的故事3：胜者的迷思	9218059
古老的密码（下）	11744047
假面君王：明代宫廷第一疑案	20375396
司马懿吃三国 4	6104133
国学千问	17900581
烟台大观	17234949
道教与书法	17527123
从草根到皇帝	8440572
笛语新说	18110702
迷失的盛宴	7819291
云诡波谲的世界外交	11486717
战地行纪	13341524
隋月唐歌	9334082
戏曲史话	9726644
中国历史的教训	9708635
质疑四大文明古国——颠覆历史常识	17859839
战国纵横：鬼谷子的局6	7480487
小先生的游记	10756538
间岛铁骑（卷二）	11594439
扬州历代名贤录	19104015
名家推荐世界名著：中华上下五千年	13095832
汉朝的密码	18257322
爱因斯坦是间谍吗	11365194
大清王朝（3）	11129281
秦朝那些事儿	20372368
中古赋学研究	18967237
音乐深深深几许	16282399
大汉王朝（第二册）	5739959
尔虞我诈的宫廷政治（下）	11523053
中国历代冤案	11116903
岛国故事——写给孩子们的英国历史	15869271
历史的足迹	16133385
最漫长的十四天 ：南京大屠杀幸存者口述实录与纪实	15460941
谋说天下：谋宋	10458322
曾国藩:如何改变人生	11893435
袁世凯、孙中山与蒋介石	17215947
东周列国志	15822367
行走的中国	16996164
中国历代帝王传奇（上册）	12230753
情感堵塞：民主德国的心理转型	10801235
中国病人：袁世凯	9795779
吴三桂的发迹史3	13265169
道教内丹学溯源	17525699
新反经（下）	18231455
嘉定忠臣	19746243
决斗	19746488
第二次世界大战史丛书·噬血恶魔	11718291
血泪春秋	18142364
改变时局的历史事件（上）	11523452
将进酒：中国历史上一百个酒局	16177182
史上最强日本史（1-3）	11463206
中国近代思想家文库·王韬卷	18340679
银川广播电视简史	16267460
战争从未如此热血3：二战美日太平洋大对决	7580367
历史百科（中国儿童课外必读）	11194471
收藏史话	9685643
商会百年潮——上海（上）	19646452
王朝世系	11742942
中国近代通史·第五卷	10895656
包世臣卷（中国近代思想家文库）	18050920
婚姻简史：爱情怎样征服了婚姻	19746667
地球角落2	17895193
军制史话	9681164
千古风流话周瑜	9692510
最寒冷的冬天Ⅲ——血战长津湖	17216153
义和团史话	9728098
“救时宰相”于谦	15609043
罗马人的故事1：罗马不是一天建成的	9217739
易中天中华史 第一卷：祖先	19100777
探古上党脊	18146227
北京知青	10479413
皇太子妃劫持事件	13049354
刑辩律师	11513522
筷子与叉子	14829651
秘道	16820771
牢记：一个家族的抗战史	15453788
边缘、族群与国家——清末西北回民起义	15905781
温故（二十八）	13556221
天变	10935816
在北大听到的24堂历史课	15068114
枪雨中的精灵：中国百年步机枪史	18275172
中国是部金融史 2	7807066
东汉那些事儿	20372535
世界历史博览1	10698088
长恨天之武媚娘	15345624
资治通鉴故事·导读本（上册）	9696932
横看竖看美利坚	17039274
永不可及的美好	10582114
先秦编钟研究	10965424
司马迁——忍辱负重的历史巨匠	18303986
世界悬案全记录	11430473
外国人眼中的中国人：成吉思汗	8683274
嗜血的皇冠：光武皇帝之刘秀的秀（大结局）	11147785
甲午殇思	12584835
向上吧！中华少年	16833384
背着你飞越江河	17003570
马克思主义大众化的历史经验研究	9745696
山河小岁月	9754754
生活与命运	17355760
公主是怎样生活的	12226343
历史的局：设计出来的霸业	14749661
老梁数英雄	7649649
黑龙江将军	16640498
温故（二十一）	12459442
一座城池的文化史观	17944486
历史的光点	11535249
辜鸿铭卷（中国近代思想家文库）	18050324
毛泽东与王明	7464277
法国大革命与革命心理学	18722076
生活在宋朝	16417275
帝王陵密码	10234247
清高宗乾隆	11638846
美国学生世界历史 • 英汉双语版（上下册）	13727327
温故（十五）	13555303
我是老枪	16930220
浪漫时代	11930884
澳大利亚语文：英文（第三册）	13882126
战国纵横：鬼谷子的局 7	7486390
多面中国人	9816985
饮食史话	9728715
新疆史话	9727074
浙江潮第二册	17625481
帝国败于中层	15577167
伯林传	10352572
人民的主张	14752917
罗马人的故事11：结局的开始	9218846
西方将主宰多久	9859612
遥远的桥	11936100
铁血强宋 (历史可以更好看)	10593193
疯狂的科举	10750303
清朝野史大观（上）	13084678
温柔的血腥：剖解帝制时代的十一位太上皇	13624698
河南：第四册	16505768
世界是部战争史	13722680
心理吴越三部曲之三：吞吴	14094248
钱穆先生学术年谱（1~6册）	10902978
秦始皇：如何改变中国	11962888
浙江潮第六册	17641762
风流长安	7625266
谋说天下：谋唐	10458497
1915，中国表情	9979875
大唐王朝（四）	11128257
唐德刚作品集：段祺瑞政权	17355830
皮影（国外版）	17678176
雄韬伟略：汉武帝传	11090529
知行合一王阳明 （1472～1529）	12062205
明清小说研究概论	10786638
一部奇书的命运	17094172
民国初年的国会政治	9650694
湘江之战	8249130
摇曳多姿的中国舞蹈（上）	11523841
盛世悲情	16781465
典藏绘本：官箴集要	17422280
谋说天下：谋清	10458140
辛亥风云	17005610
别裁	7751185
英雄故事	13265951
吴三桂的发迹史1	13264956
陵寝史话	9682330
大国的兴衰（上下册）	10560848
扭转世界的100次外交（下）	11740163
安塔拉传奇（10）	16825930
数学与人类文明	16424569
官制史话	9688174
清代广西贡院	10966023
动荡年代（1960－1969）	11233448
中国的社与会（增订版）	9911374
父亲和爷爷的战争	18220140
民国那些腕儿	10457506
谁翻乐府凄凉曲	17029746
英雄的历史	11840515
松下幸之助创业之道	11040799
澳大利亚语文：英文（第六册）	13882240
民居建筑史话	9683795
中国神秘文化——测字文化	14299865
香港史话	9726811
乡图	11513396
中越关系两千年	12085253
历史的绝笔：名人书信背后的历史侧影	16824884
你不可不知的历史典故 （新编十万个为什么）	13332071
孙中山评传	12274848
大唐王朝（二）	11128103
中国人信札	16460264
迷失的盛宴	16421888
烟台饮食文化纵览 	17358098
柯林武德史学理论研究	16296844
华工史话	9560254
改变世界的100个条约（下）	11740419
城市史话	9395540
独秀峰王城题咏	15962383
最后一役	11936494
从富强到文雅	17215444
你一定要知道的2000个文化常识	15955459
园林史话	9729439
除旧布新：中国政治发展侧记	10988453
历史的疤痕	17795001
唐高祖李渊	11639429
大唐帝国的扩张（第1部）：廓清漠北	12682189
雷锋	14060819
泰国通史	16305737
族群性的建构和维系	16371834
香港史	10977888
散文史话	9684098
民国人物过眼录	13481371
群山——马文瑞与西北革命	16926524
南明那些事儿	20142787
帝国的终结	7049663
战争从未如此热血2：二战美日太平洋大对决 	7520915
贵知行	12352692
未央·沉浮（修订版）下	9618340
丰臣秀吉【四】	9936010
皇朝落日	8169893
唯物史观视域中的文化论题	18538553
曾经的乡土	11145208
王阳明的六次突围	7879436
河南省普通高中学业水平考试范围与标准·历史	15850802
广州史话	9688315
共和国高层往事	17215840
悬案与真相	6436391
一念之间：戴立宁的感慨与谏言	9866597
历史考证博览	11389330
《史记》曲笔探赜录	15900473
双皇	16250958
温故（之六）	13556122
罗马人的故事12：迷途帝国	9219067
外线战略进攻	19671760
晋商五百年：会馆浮沉	18814766
郑板桥	19059433
温故（二十二）	14271096
中国的革命：1911—1912	10788511
99%的人不知道的历史真相	12552550
唐蕃古道	7700806
名枪3：超级警察	11735663
厚历史	19977419
舍我其谁：胡适	14783166
最幽默：世说新语	15860307
宗庆后传奇：平民首富的中国奋斗史 	16629804
北京十年	10913889
台湾老兵口述历史	10660244
辛亥风云	12002996
好兵帅克	14955318
中国的现实与超现实	10305135
奕山传	16641023
史学史话	9685195
胡适自述	16426460
马来人后裔在中国	16150544
十大参谋长（第三版）	17680470
坚如磐石——明清城墙	11466557
程德全传	16640390
日本论	7835849
最好与最坏的时代（第一部）：局中人	14327023
走进科学·历史见证	15822991
心理吴越三部曲之二：辱越	14093971
远去的都市：1950年代的上海	17945831
玄学史话	9727196
隆美尔战时文件	16429307
上海史话	9684860
大唐王朝·贞观之歌	16908539
现代奥林匹克运动会的文化创意：历史演进与价值创新	12790233
华丽苍凉，逆流而上：私房阅读民国女子	16426514
中共吴忠历史资料汇编：1936～1949	16288340
李自成：第二卷	12269768
全球通史（下）	11079688
第二人生	16616778
温故（之一）	13557226
共和国将军：徐海东	16426861
城东旧事	10513705
重读曾国藩	7659690
顾顺章：中共历史上最危险的叛徒	12487929
遣花居书信	13080164
巴塞尔之塔：揭秘国际清算银行主导的世界	10418824
踉跄：晚清以来中国人的梦想与超越	15576973
宋元文学观止	10476008
交通工具史话	9680938
令妃传之庶女夺宫	10198554
无算计，不诸葛：打工皇帝的成功之道（上）	10553342
熬过：完整讲述共和国历史上最折腾的岁月1	9340970
晋商五百年：汇通天下	18835120
我和溥仪	12341503
武夫专制梦——中国军阀势力的形成及其作用	11510807
一本最危险的书：塔西佗《日耳曼尼亚志》	12184303
光怪陆离的世界民俗	11483728
中国历史全知道	11402289
中国政治史速读	10898235
将革命进行到底	19671437
民国大师文库：宋元戏曲史	11369141
每天读一点中国史：两宋民国卷	10683002
饮食须知	16779661
温故（十二）	12448628
百年风云钓鱼台	11938177
大雅村言	16909915
满汉文化交流史话	9682503
历史上的玄奘	16133199
五虎将	11459274
千年烟月在	19898870
给小学生讲世界历史（上）	9693012
365天读历史	13673227
中国近代史（插图珍藏本）	7301637
中日关系大事辑览（增订本）	18467335
个人印象	17833118
换位游戏	17214425
消费者发现与主体性缺席：现代广告理论及运用史评	15960258
伦理道德史话	9682230
先秦时期齐文化背景下城市与建筑研究	20376590
重整河山（1950－1959）	11233756
百岁回眸： 变迁与求索	18535905
盛世基石——姚崇	11963365
温故（二十）	13555185
资本主义大变形	9722923
“她”字的文化史	18721247
新加坡国家认同研究（1965—2000）	18251899
凿刻在石头上的历史	16262771
传诵千古的历史掌故（上）	11522074
塞北之尊——恒山	11466308
科学技术史话	9682160
中国古代文学观念发生史	11291093
戊戌变法史（修订版）	17090665
史上最牛宋史 1	8310719
先生们：他们继承了中华文明之气脉	20158609
易中天中华史：禅宗兴起	18362366
骄傲西吉	16096160
谋说天下：谋元	10458542
一片冰心在玉壶	7970268
如梦如烟恭王府	8230847
箫声剑影	427385
异域孤军沉浮记	15583971
苏俄现代化与改革研究	14213861
神秘家族：罗斯柴尔德家族传	17358408
农业科技史话	9683547
中国共产党宁夏简史：1926～2009	16289994
大国之魂	12258273
洗尽铅华始见真	10354804
禁烟史话	9681007
人类的故事:绘图本	11154734
抗日正面战场	15431175
流弹的故乡	16472798
帝国瑰色：那些邂逅政治的红颜	16395282
中国近代大案传奇	16167108
历史中的大博弈　	9659800
珠江：东方的觉醒	17056136
镜子 : 照出你看不见的世界史	17846214
我的战国我的策	13359775
儒学基本常识	11470094
宁夏文物	16171310
风格迥异的古代民族（下）	11523180
萃语师足文集（下卷）：民族文化与民师文化	20300310
石窟寺史话	9685225
回眸与感悟	16282063
中华上下五千年	12566502
官称衙署	11742036
河南：第六册	16505905
王懿荣传 	17250130
甲骨文史话	9561480
隋朝如此疯狂	2026748
高情已逐晓云空：古代文人的感情世界	15079120
孤云独去闲：民国闲人那些事	16426047
西方的衰落	9750631
谁将主导世界货币？	10574451
民国外语教学研究	16422203
天之魂	17033262
国学入门	10915259
连天烽火化春风	10964647
李鸿章：潜龙在渊	9277623
契丹王朝	16933428
航运史话	9557924
大国的崛起	13241615
见证与记录：南京大屠杀真相精选（西方史料）	12361995
民间风情——三百六十行	11465942
清宫隐史——《红楼梦》索隐之一	10331056
大汉王朝4	11167578
世界武力全接触：美国陆军	12294437
中国古代造纸史渊源	16779901
节俗史话	9681322
传奇大将陈赓	12341334
中国文化史速读	10898533
雪月花时最忆君	16435429
燃烧的两晋	15494054
章士钊卷（中国近代思想家文库）	18050878
大谋略家张良	14069152
南京大屠杀·1937	8849490
续命的井	12003768
史上最强日本史（3）	10210494
中国历史博览（一）	11442939
从晚清到民国	11663505
大秦帝国的野蛮成长	16394859
桥滩记	17938592
荒野寒山	18370068
伟大的犹太人（上）	10948848
从蒋经国到陈水扁	10016457
逍遥	11758894
中国佛教史	19649185
奥斯维辛骷髅俱乐部	13346571
千年三公梦	16140893
新宋Ⅲ·燕云5	4715506
物语三千：复活平民的历史	11729225
民国那些范儿	10503005
河南：第八册	16506102
尘埃里开出的花	9689327
悲喜春秋	5099188
旧制度与大革命	10723891
乾隆皇帝与章嘉国师	7645759
司马迁笔下的牛人们	10338984
毛泽东与林彪	7437360
季羡林散文新编·4：牛棚杂忆	12261562
一个帝国的生与死	8541518
十城记	11737271
读懂日本战后60年	10435984
中国共产党镇原县大事记	16290599
民国大师文库：中国教育史	11601374
告诉我们真的历史	15948095
阳谋天下刘伯温	19253875
奠基蒙元——耶律楚材	11894735
话说周氏兄弟——北大演讲录	19647584
摩根财团	12068629
乡愁钩沉	16307034
温故（二十六）	13555671
考选科举	11742287
日本调：一部穿越时空的日本风情史	15837870
河山	18257657
大人物：13位著名的男性	10357855
茶圣陆羽	12462970
易中天中华史：女皇武则天	19701416
那一世的风情：民国才子情事	16423310
柳如是：柳色独秀 	7549913
买办史话	9682983
扭转世界的100次外交（上）	11739933
特普钦	16640742
历代帝王在宁夏	16134098
明隆庆六年初刻版《传习录》	11280947
王阳明：人生即修行	13608397
温故（十八）	13555075
念念不忘：历代笔记中的绝世美女	11370092
遵义会议	10976467
新闻抄袭历史	19258241
大秦帝国·第二部 国命纵横（下）	11822248
大师：寻找那些远去的大师才子	17525886
出轨的盛唐：武后2	11071010
分分合合的朝代更替（上）	11523333
慈禧太后	8203396
战争就是这么回事儿：袁腾飞讲二战（下）	4738088
中国科技史	11234853
尔虞我诈的宫廷政治（上）	11522441
马克思主义伦理学的探索	18537229
美术史话	9682796
远乡：蒋氏父子和他们的台湾子民	10025328
中国佛教思想史稿：第二卷 隋唐五代卷	19254748
北大历史课	13241295
历史潜规则	10356525
马克思主义与社会主义的历史命运：大字本	12089895
中世纪的城市	20077450
世界名人未解之谜	18302033
历史的天空	12266753
西夏	8237797
吴越后裔	9118471
集装箱改变世界（修订版）	11830709
1938中国大营救	10413936
战国日本Ⅰ：时间的滋味	13426001
罗马人的故事9：贤君的世纪	9218489
到莫干山看老别墅	16908674
中国历代民族民俗史	11235410
谭云山	17677377
美国的108（上下）	11070164
李达卷（中国近代思想家文库）	18054355
史谈	1253342
宋朝那些人	10475985
追捕渣滓洞刽子手	20297386
晚清最后十八年 : 从甲午战争到辛亥革命	18161836
经济学了没？	19084091
历史老师没教过的历史2	16405853
人生如赌局，成功是信仰	10510418
中国乡贤	20054334
养生史话	9727836
易中天中华史 第二卷：国家	19140965
大清王朝（2）	11129186
刷新世界的100个技术发明（上）	11741439
监察史话	9680889
中国通史简编	17395285
报刊史话	9416923
大明王朝（第一册）	5753412
遗失的古国	18313368
晚清县令李超琼	10921229
马背上的经幡	10205820
劫难	12128146
战国纵横：鬼谷子的局 4	7480271
抗日战争史话	9819462
撑船记	16907214
诸葛亮智圣人生	10698432
决定中国命运的密码：毛泽东电报解析	8273568
史记	10585643
忠义保证前途：向关羽学习跟什么样的领导干（下）	14259004
我是曹操，我怕谁：一号首长的心理秘密（上）	14253503
浩瀚大洋是赌场（下）	15501086
蒋介石与现代中国	9700768
名胜探奇博览	11389269
两次全球大危机的比较研究	12578203
历史中的心理学	9884620
中国近代史	18361684
青少年一定要读的历史故事	11624797
草原帝国	10228160
河南：第二册	16505830
曾国藩：唐浩明晚清三部曲(评点插图本)(套装上下册) 	10901849
文明的进程	16237489
学者的责任：中国学者在抗日战争中	18496678
货币崛起	8532512
饮酒史话	9728285
塞上革命先驱张子华	16145925
中国近代通史·第十卷	10873438
世界文化史速读	10900017
大宋王朝（一）	11127784
多尔衮轶事	16291661
唐朝那层窗户纸	18314332
易中天中华史 第五卷：从春秋到战国	19753596
女谍陷阱	16612784
爱的真谛	16659904
漫漫自由路	9475832
梁启超谈教育	8155105
英语人名词语趣谈	13367753
七大古都史话	9683995
复兴之路	16735551
开国战将：让尘封的历史成为新闻	12822263
反复	13885793
报刊舆论与近代中国政治	10354216
爱在百花深处	8827368
永乐大帝朱棣	11639775
清匪反特	19671326
科举史话	9681683
宋太祖赵匡胤	11639007
世界战争之谜	15988780
复活的古城（上）	11743776
白崇禧传	17024492
天才、狂人与梅毒	18928915
晋商五百年：商界翘楚	18768975
潮商	10692499
恭亲王奕䜣	8295906
大决战：平津战役	17070671
战争史笔记（元-明）	8163831
一本书读懂大秦史	10935257
魂兮归来：金一南讲抗日战争	17077804
底特律往事：汽车之城衰落史	9216092
战神之首	13478253
历史的拐点：影响中国历史进程的转折点	10452488
傅玄《傅子》校读	15935754
中国民族史	10857562
二刻拍案惊奇（精装典藏本）	15821994
谋划世界的100次会议（上）	11739836
每天读一点世界史·古代卷	10682823
大秦帝国·第一部：黑色裂变（下）	11491242
土地问题与南非政治经济	17676230
近代中日基督教教育比较研究(1860-1950)	18722995
苏联专家在中国（1948-1960）（第三版）	17945344
神与王的聚会	10531052
温故（之三）	13556361
野哭：弘光列传	9652658
年轻人不可不知的108件世界大事	18208081
1号档案	15899823
《帝国主义是资本主义的最高阶段》导读	14979591
提堂	13420973
冯巩与家庭	16617394
无奈的选择（上册）	17945985
文明起源：河姆渡遗址	11466146
中国梦的学术管窥	18718097
忍不住的“关怀”：论知识分子为什么“软弱”？	14213034
曙光初现（1940－1949）	11233928
女子之不朽	9140754
兵家史话	9462929
甲午战争史话	9561825
贾志刚说春秋之七 · 孔子世家	9859448
青花瓷	15350477
民国的忧伤：民国初年的宪政传奇	15086669
慈禧全传 第一部	9580606
成吉思汗：意志征服世界	9337462
北大历史课	15230153
北京人口史	18077997
隋唐历史人物：狄仁杰评传	13940749
没有宽恕就没有未来	16510970
盐池1936	16253421
世界历史博览3	10699083
陪都重庆：大轰炸下的抗日意志（1938～1945）	19643299
非常道II：20世纪中国视野中的世界话语	10562040
斯诺在宁夏	12510805
岁月旅程	16218968
宋慈洗冤录：一天明月	6930360
拥抱与决裂	17000821
无极较量	13614635
农业改进史话	9686068
北大公开课	8338703
谁主东洋	9156036
伟大的博弈（珍藏版）	10329077
天南地北同心人	16224506
此史有关风与月	17856213
嘉靖阁臣顾鼎臣研究	13247385
犹太秘史	10942369
晚清落日（1900－1909）	11233815
蒋家私房照	16407565
崩溃的帝国1：举步维艰	12051079
民国第一杀手 	12208502
无奈的选择（下册）	17945760
每天一堂趣味历史课	15230733
明朝遗民的大清岁月	13623045
取悦公众：公关之父艾维·李和美国公关发展史	15835931
后现代文化景观	9712039
改变世界的100个条约（上）	11740557
我的灵魂永不下跪	8520822
广告大王大卫·奥格威传奇	18272557
鲁班	11896670
阿拉善往事：阿拉善盟文史资料选辑甲编（中）	15903017
中国近代思想家文库·陈炽卷	18237248
四书五经史话	9686114
风流不见使人愁	12194442
病变、中兴、衰毁：解读《汉书》密码	10241009
中国生活记忆：建国65周年民生往事	10307003
民国大师文库：中国史纲	11369375
洋务运动史话	9727731
韩非子权术人生	10698339
宋：现代的拂晓时辰	15965298
胜利荣光：芷江受降	12508030
世界上最畅销的两本二战小说：《德国式英雄》+《无路可退的战士》	17131166
明朝十大奇案	18289368
正面抗日战场(第1部):我的家在松花江上	10594099
高层人物交往秘闻	6463624
大唐王朝（三）	11128358
历史的拐点：改变中国历史的偶然事件	13622604
血腥的盛唐 6	6115225
再造世界的100个奇迹（上）	11741206
惊心动魄的世界战争	11484441
江湖凶猛	20254233
在民国（修订版）	7775587
孔门理财学：孔子及其学派的经济思想	17623995
历史大咖的另一张脸	15501574
阿米什人的历史	12403441
国史讲话：上古	16684631
第三帝国的最后十四天	18785019
清圣祖康熙	11638983
变法史话	10135106
新潮涌动（1910－1919）	11234372
震撼世界的100个科学发现（下）	11741332
曾国藩	9737088
人类与宗教	12040780
民国大师文库：中国美术史	11369287
你从何处来	10556605
大明王朝（3）	11166465
第二次世界大战史丛书·苏德争锋	11718491
第二次世界大战史丛书·铁胆勇士	11718322
温故（二十四）	12449623
湖广填四川	13257772
晚清80后	7862601
大秦帝国·第二部：国命纵横（上）	11823682
陕甘宁边区政府史话	9684244
文本与真实：《三国演义》君臣关系理想范型之解读	18895937
炉边谈话	11896401
重庆统战故事	20311277
哈萨克的快乐	15969341
囚徒的长征	9783971
君子不计小人过	12134373
每天读一点世界史	15848526
三民主义史话	9684400
远方飘来的云	20297732
中国式管理的30个大手段和40个小细节	10689903
华夏边缘：历史记忆与族群认同（增订本）	9808402
进攻日本	12039010
世界简史	14012715
影响中国历史的十篇政治美文	9498014
袁腾飞讲先秦·战国纵横	8765759
白话文学史	15575561
晚年所思2	12569620
气吞万里	12751814
民国说明书	16422790
为什么偏偏是朱元璋（03）北定中原	3742077
诫子孙书	12130092
借党项人说事	16095454
The White Company（怀特公司）	9533778
动物生活史	19979153
托邦：拉丁美洲解放神学研究初步	11893766
使命	18288425
货币史话	9561224
欧洲中世纪史	16305063
张之洞	9783377
澳大利亚语文：英文（第二册）	13882452
穿越中国现当代文学历史的对话	18966140
体育知多少	16282132
忧乐天下：范仲淹传	17001656
沙漠王子	7833952
流血的仕途	10199009
新反经（上）	18231566
曾国藩家书	18668572
血战塘马	10848067
胡麻的天空	9815368
麻辣近代史：1885—1905	16422009
浮世绘（大象公会第4期）	9760359
名枪14：黑鹰坠落	16864019
见证与记录：南京大屠杀史料精选（日方史料）	19061078
家庭史话	9613087
张鸣说历史：重说中国国民性	13362512
大秦帝国·第一部：黑色裂变（上）	11491107
易中天中华史：三国纪	9009221
日军暴行 惨绝人寰	16641378
苹果传奇	18275352
战国策	9865744
杨度	9782512
胜在孙子嬴在老子	18288399
回到德国	15613073
民国往事	12565348
贾志刚说春秋之二 · 秦晋恩怨	9859022
中国公共关系史	15858127
晚清第一智库：曾国藩幕僚	14318985
战争从未如此热血1：二战美日太平洋大对决	12705461
名门之后	11023448
美国学生艺术史（英汉双语版）	13728096
仲实：张仲实画传、忆念与研究	16325281
甲午战争的千条细节	8686664
曾国藩兵书	11454824
大宋王朝（三）	11128040
李鸿章发迹史（上）	6074241
历史名人与宁夏	16133266
北大学生最关注的100个事件	10358852
1982：内卡谷地空战	6885487
王阳明	10347149
决死长空：中国空军抗战史	11304182
围观历史之政变	12981320
清明上河图密码：隐藏在千古名画中的阴谋与杀局.2	13311492
三十年海军司令萧劲光	18275626
清朝野史大观	11150840
皇权刑律	11742580
针锋相对的斗争	19671598
张居正：全4册	12204955
忍不住的“关怀”：1949年前后的书生与政治	11350302
史籍精华	11742741
菊与刀	7835088
震撼世界的十天	12739605
羊角号	18230694
其实我们一直活在春秋战国6	6088123
解读敦煌•飞翔的精灵	13381421
寻找法律史上的失踪者	8683340
贾志刚说春秋之五 · 吴越兴亡	9859380
中日甲午战争	10620035
出土的谜团（下）	11743349
温故（二十七）	13555582
儒将风流（下）	15202327
嗜血的权杖：从乡村教师到南宋权臣	9676898
东寺头乡志	18113257
中国古代将军传	11445119
建国之道：周易政治哲学	11007716
国史党史七大疑案破解：四重证据法	18722180
曾国藩的藏与露	17795578
晋商五百年：院宇重楼	18768298
名战史话	9815689
历史掌故	11707601
三十万言三十年	16146025
温故（之二）	13555722
硕鼠肥狗	5124374
航海史话	9558068
老脚印	12511292
鬼才魏忠贤	14871204
远钟	17002265
抗倭英雄戚继光	15608722
楼兰迷踪之荒漠高楼	17205788
乱世民清陈家沟	17089309
独掌乾坤的历代帝王（上）	11522609
岳飞评传	11880097
北伐秘史	15244811
旗人史话	9686299
新民说：中国的近代性（1840-1919）	10659856
历史也能这般幽默	16134188
晚清二十年	8033986
雪野屐痕：丁玲在北大荒遗迹、遗物考	16641568
丝路吴忠与吴忠思路	16252076
他们为什么没能成为皇帝	13624035
战国纵横：鬼谷子的局	7480072
诸王的游戏第2部：烈火	14092457
行刑人尔依	17900089
图像晚清：《点石斋画报》	8865266
居安思危：苏共亡党的历史教训（大字本）	12138865
辛亥革命史话	9727215
幕僚生存智慧	10458743
中国历代名女：名妓卷	14875103
从马拉松到滑铁卢	19080715
忍不住的“关怀”：1949年前后的书生与政治——潘光旦	13481195
历史与看客	11510582
台湾往事	10063504
血腥的盛唐4	6111968
中华大帝国史	17694900
贾志刚说春秋之三 · 晋楚争雄	9859123
万历朝鲜战争	12064767
同遵共守的世界条约	11486181
将帅沉浮录	6452137
为什么研究中国建筑	11998507
草根宰相诸葛亮	9697074
两个命运之决斗	19927158
李大钊北京十年	19745150
说不尽的外交	9769315
拉贝日记	16619276
轻松读懂二十四史	15231985
曾国藩好累	16813964
第二次世界大战最后结局·全面进攻	11728928
猿飞佐助	8482150
帝国旧影：雕版画里的晚清中国	11007839
民国军事故事	15243563
大唐平叛传（下）	15907476
新中国口述史：1949——1978	18517359
西洋文化简史	9780069
商人也要知道点历史	15202479
走进科学·人物解谜	15823730
美国的108（上卷）	17365992
素书	10357010
菊与刀	15847518
浦之上：一个王朝的碎片	11969385
过云楼	19253575
中国盛世	10498995
史迪威日记	18007695
疲劳的颜色	9146907
影响世界的100个演说（上）	11740985
读史有感悟	18228026
楚汉大梦	19094317
罗马人的故事13：最后一搏	9218988
大宋王朝·大地棋局	7226655
我是曹操，我怕谁：一号首长的心理秘密（下）	14254983
第二次世界大战史丛书·亚欧战火	11718792
美国人	13908997
中国古代高僧传	11443441
出版史话	9395692
远东来信	9498246
血腥的盛唐	6106905
大宋王朝（二）	11127872
建设社会主义和睦家庭	14202109
宝藏新探博览	11389119
北大五明国学课	19925717
浙江潮第三册	17643382
和亲史话	9560180
麻辣近代史：1905—1928	16421917
大秦王朝1	10613231
梁启超文选	17079212
新反经（上下）	18231607
罗马人的故事10：条条大路通罗马	9218601
富甲美国	12354837
醒狮：跨越时代的卢沟桥	12151846
诸葛亮用兵	15973356
杨毓麟陈天华邹容卷（中国近代思想家文库）	18051669
先秦那些人	13877403
以平等之名 ：托克维尔与《论美国的民主》	13425701
战国策·沟通策	9479807
特斯拉：改变世界的汽车	17940266
永乐风云（第3卷）：大政兴邦	10661377
宰相史话	9729215
烟雨人生	12005252
史航说萧红	10931726
中华神秘文化——八卦文化	14300020
日本明治维新	10199307
奉贤与货币起源	16177753
金融可以颠覆历史	13268214
浙江潮第十册	17642638
克宫内幕	19746092
瞿秋白	19059011
历史转折过程中的探索与思考	16133072
隔墙有耳：中国历史上的告密往事	13621835
普救寺	18464598
见证与记录：南京大屠杀真相精选（中方史料）	12412916
不可不读的微历史	10417764
野史更疯狂	10769739
史记	13254528
从矮脚病夫到东亚巨擘：日本崛起的故事	13410817
名女人面对死神	17264334
向全国进军	19671908
天下故事	11750587
武则天 	15244171
绵山访贤	18275722
锌皮娃娃兵	15197238
日本明治维新	10200104
政海秘辛	17007523
甲午镜鉴	12584680
龙床：明六帝纪	9469029
古罗马文学史	17415426
血腥的盛唐2	6107563
科学才露尖尖角	16283811
正面抗日战场第二部:烽火大地	10593631
罗马帝国	8088483
典型文坛	16909246
中国史纲	15860110
不堪回首：历代笔记中的文侠优伶	11368187
1933，聆听民国	9908562
马家大院	19083712
宰动天下：历代宰相是这样烹国的	10730366
苏东坡传	18224919
古代上位术	10831365
