美国人怎么看中国	8628598
不可思议的印度	9359156
春秋战国：一段你应了解的历史（十四）	5388475
春秋战国：一段你应了解的历史（一）	3030042
边缘的姿态	2059957
春秋战国：一段你应了解的历史（九）	4742245
春秋战国：一段你应了解的历史（二）	3739423
春秋战国：一段你应了解的历史（三）	3740077
越泰柬，散落的时光碎片	3159482
本格料理物语	5459664
春秋战国：一段你应了解的历史（第一卷）	6064682
春秋战国：一段你应了解的历史（七）	4408561
歌声乍起	5450064
春秋战国：一段你应了解的历史（六）	3970689
诸神记	152785
春秋战国：一段你应了解的历史（八）	4656936
春秋战国：一段你应了解的历史（五）	3868839
春秋战国：一段你应了解的历史（四）	3745067
美国性格	323158
春秋战国：一段你应了解的历史（第三卷）	6065145
雅斯纳亚·波里亚那	77964
春秋战国：一段你应了解的历史（第二卷）	6064829
中欧快车	479127
当镁光灯闪耀时	5702329
春秋战国：一段你应了解的历史（十五）	5508632
春秋战国：一段你应了解的历史（十）	4868987
穿越印度的火车之旅	175373
东京独立书店巡礼	150251
春秋战国：一段你应了解的历史（十二）	5000928
向死而生的自由人	2820299
春秋战国：一段你应了解的历史（十一）	4888106
春秋战国：一段你应了解的历史（十七）	5741429
吃素稗闻	4438
正常人都不知道的日本	4870163
春秋战国：一段你应了解的历史（十三）	5235310
春秋战国：一段你应了解的历史（十六）	5647583
百年论战	1056839
日本文化小记五篇（中日对照）	2946
激素少年	560637
久违的事：俄罗斯笔记	339211
玉溪拼图	5816182
插画之森·欧洲上篇	448404
插画之森·欧洲下篇	448797
春秋争霸不容易	4945914
被喝咖啡的上海人	1707522
旧时衣服尽云霞	788737
明代一起奸杀案所引发的风波	650992
死在爪哇也不错	1522149
战国那些变革与精英们	5902489
插画之森·美国篇	616577
千鸟	490062
插画之森·亚洲篇	448801
说说先秦两汉的休闲娱乐	1508071
西班牙文化地图	1728640
张爱玲城市地图（上）	159560
宋史其实很有趣：三千佳丽一台戏	5462326
灵异真相	592044
张爱玲城市地图（下）	156270
浮光碎影意大利	2781213
说说唐人的休闲娱乐	1409442
古城风物	2377394
创伤之展翅	4842
宋史其实很有趣：如此帝王伤不起	5462215
走，去看文化混搭的印度	1605478
美国游记	3219618
小资？你也配！（第二卷）	610238
久违的事	3515395
《庄子》的隐秘世界	5100796
权谋背后的真三国：名将风采篇	5038484
直立行走的逻辑	563600
霹雳军团	564701
这才是日本史	1471436
佛罗伦萨十二天十一夜	3555
有一些爱情注定被长久误解	447461
所有人都笑了	153752
汉宫往事（第一卷）	5216386
宋史疑云（南宋卷）	5171401
宋史疑云（北宋卷）	5313115
在冬天里醒来	1170433
青春豪赌	586307
九龙十二钗之雍正失头记 2	3361157
九龙十二钗之雍正失头记 7	3820918
九龙十二钗之雍正失头记 6	3819627
九龙十二钗之雍正失头记 4	3811075
九龙十二钗之雍正失头记 5	3812330
九龙十二钗之雍正失头记 3	3808734
当我盛年时	1487720
九龙十二钗之雍正失头记 1	2627324
一个人的燕赵人文地理	1756925
权谋背后的真三国：美女柔情篇	4974236
浪子情深	566171
弹·俗语	1455982
权谋背后的真三国：谋士论策篇	5038554
灰色星期	5469514
权谋背后的真三国：群雄逐鹿篇	4957849
山海关	1418447
炼丹小引	2311811
不如私奔	849276
每个人的心都是一只箱子	151838
40个游戏——第七届“天真者的艺术”	3241090
我们这一代的怕和爱	1235315
风流民国	1038821
贪欲、权力、金钱	2825
美国人在操心什么？	1111339
浆果与流转之诗	341768
锦瑟无端	3573
罗马的邻居	1244005
长安烟火	2382428
离开地平线	2934950
穿越生命的歌声	2349085
皮革制备术的奇迹	378836
最远的以及最近的	3530131
革命的标记	334245
君莫舞	8049508
我在电影中看见了什么？	17343503
人性的暴烈与温柔	12337924
大山深处的神秘洞葬	13806453
现代小城的考古学家	18808859
王国维与曹雪芹的路边谈话	18958094
吃女神食物	18309184
踏上美国西部	15275737
埃及旅行笔记	6025177
喜马拉雅天梯：通往雪域秘境之路	14718674
看不见的旅行	16804784
剑桥印象	8584995
伊本·阿拉丁的第九个知名者	653213
找寻京脉	681420
摇滚笔记	7682395
跟着《美国国家地理》去旅行	7592934
春秋战国：一段你应了解的历史（二十一）	16552319
心中的西藏	19130401
你们有钱人真会玩	18981626
春秋战国：一段你应了解的历史（二十二）	17371988
当明朝的官很累	5907262
你可以随时调换	16546557
隐藏的姑娘	12338145
春秋战国：一段你应了解的历史（十九）	8895804
春秋战国：一段你应了解的历史（第四卷）	17537737
识男手册	20237403
樱花树和熊猫	8510395
春秋战国：一段你应了解的历史（十八）	8233602
假若穿越到明朝（上）	5904202
退无可退	6926928
三莆书	13682712
明朝中前期的盛世与帝王们	4945866
吃货须知	18981934
我们都是取暖的豪猪	1919345
假若穿越到明朝（下）	5902280
西游局中局（上卷）	18993701
人之大欲	19508301
春秋战国：一段你应了解的历史（二十）	11724113
漫游京都	7004940
朱雀航北	7762986
东游记	1453458
