比你想象中更有意思的爱情	8445927
毁灭之路	14915784
不老泉	2975986
我不知道该如何像正常人那样生活	8889550
我认识了一个索马里海盗	13042665
喜欢就买单	15360611
第十三天（中）	12933444
像火焰像灰烬	10810034
第十三天（下）	13871381
我二十九岁的夏天	10843809
少女哪吒	10271749
五食记	11572304
我是如何一步步毁掉我的生活的	1194922
谋杀电视机	7436619
严晓丽我最亲爱的人	1706634
去地狱玩好吗？	9519908
恶土	6981602
一只陌生老鼠的来信	6921210
有爱我们床上谈	2508999
飞虫	5788537
无声告白	11275699
斯通纳	17118989
太阳黑子（《烈日灼心》电影原著小说）	11279632
三体	930946
摸金校尉之九幽将军	17125914
奔跑的月光	13236717
我是猫	11057813
局外人	754089
古董局中局4：大结局	16269764
遗落的南境1：湮灭	16824505
不婚女王	11634111
再会，谢谢所有的鱼	8464333
24个比利	11337239
剩者为王 Ⅱ	1847143
我的漂亮朋友	10958440
基本无害	8464256
生命，宇宙以及一切	8464469
《古董局中局·大全集》全新修订套装（共4册）	16269557
情人	2538477
奇谭怪事录	10246026
悟空传	562482
古董局中局3	8094998
何以笙箫默	7177698
宇宙尽头的餐馆	8464549
霍比特人	5915935
银河系搭车客指南	8464166
芬妮·希尔：欢场女子回忆录	1718675
呼兰河传	384985
再美也美不过想象	7463335
局外人	2427766
万物生长	8466659
消失的爱人	1008049
心理罪：第七个读者	8697382
甜牙	9543220
后来的事	5549653
万物生长	779540
和喜欢的一切在一起	10162163
了不起的盖茨比	5485543
狼图腾	3637184
最初的爱情，最后的仪式	9189496
生于一九八四	7730472
当我们谈论爱情时我们在谈论什么	1237545
白夜行	680843
银河帝国：基地	5968669
魔戒（全集）	6064515
失业，这件小事儿	4659170
嫌疑人X的献身	405202
大漠谣·下篇	2330435
大漠谣·上篇	2326307
银河帝国2：基地与帝国	5968784
伊斯坦布尔假期	6402512
暗恋·橘生淮南	6123886
银河帝国3：第二基地	5969832
王小波全集·第六卷:中篇小说	612052
当我足够好，才会遇见你	3841103
基督山伯爵（上卷）	5969247
如果一切重来	6398945
比恐惧更强烈的情感	6400420
银河帝国4：基地前奏	5970502
银河帝国5：迈向基地	5971031
飘	505510
群山回唱	5891804
银河帝国6：基地边缘	5973180
基督山伯爵（下卷）	5988142
饥饿游戏（全集）	6564959
银河帝国8：我，机器人	5979106
银河帝国7：基地与地球	5976630
毛姆短篇小说精选集	2523017
复活	5548216
银河帝国12：机器人与帝国	5983890
教父全集	3129759
银河帝国9：钢穴	5979369
银河帝国11：曙光中的机器人	5983295
魔戒 第一部：魔戒同盟	5921210
银河帝国10：裸阳	5979616
我读书少，你可别骗我	1114431
人间失格	526213
死亡通知单之离别曲：大结局	972056
东方快车谋杀案	5177636
那些忧伤的年轻人	5484813
傲慢与偏见	682817
死亡通知单之离别曲（上）	969694
灿烂千阳	3052392
幻夜	698016
王小波全集·第四卷:长篇小说	615632
他方世界	5998385
怪谈（修订全译本）	432581
尼罗河上的惨案	5202672
罪与罚	740943
第十一根手指	4891486
魔戒 第三部：王者归来	5921749
玩火的女孩	501183
时间之沙	6023745
台北人	263569
明朝那些事儿·第6部	1487343
局外人·西绪福斯神话	448949
明朝那些事儿·第2部	1465634
了不起的盖茨比	690690
城堡	5448654
神经漫游者	1210652
青春是张单程票	6456883
十八岁给我一个姑娘	775353
夹边沟记事	913278
周天·天巡记·第一	380039
王小波全集·第八卷:短篇小说	611918
无声的证词	4892985
尸语者：公安厅从未公开的法医禁忌档案 	4892552
仿生人会梦见电子羊吗？	1550448
魔戒 第二部：双塔殊途	5921625
少数派报告	1593941
罗生门	1051657
查泰莱夫人的情人	572984
我是猫	532760
直捣蜂窝的女孩	462759
2666	3033917
洛丽塔	5600586
大教堂	1241830
一朵桔梗花	280427
鼠疫	2429996
明朝那些事儿·第7部	1485115
告诉我你的梦	6093260
十七个远方	2420033
龙文身的女孩	162792
鸟，看见我了	924315
朗读者	5245007
寻欢作乐	1071097
王小波全集·第七卷:中篇小说	612109
罗杰疑案	5201017
都柏林人	5465951
三国机密（上）	1291377
长夜	5190827
演讲达人成长记	4830050
多情剑客无情剑（上）	847262
乞力马扎罗的雪	2014144
老人与海	515483
死于威尼斯	5466954
突然，响起一阵敲门声	5413135
漫长的告别	2883307
饥饿游戏	6454989
男人的一半是女人	543054
我的朋友陈白露小姐	1600103
灭顶之灾	5995050
北京教父	6052761
教父·1	3134997
阴兽	589879
城堡·变形记	1042901
自由	403241
藏地密码1	1136446
双城记	504931
邪恶催眠师2	3220234
追随她的旅程	164357
午夜的回忆	5983007
分身	418946
希区柯克悬念故事全集·上册	2279841
Y的悲剧	2882265
多情剑客无情剑（中）	846132
古村妖物志	5738059
虹	5524158
尤比克	1592231
北京，北京	765647
魔山	956368
爵士时代的故事	5481946
美妙的新世界	3230456
钟形罩	5099407
儿子与情人	5666236
1980年代的爱情	1364673
命运之星	5992287
了不起的盖茨比	3208383
岛	3167299
邪恶催眠师	1528828
饥饿游戏3：嘲笑鸟	6457959
堕落·流放与王国	449945
高城堡里的人	1551863
活着活着就老了	771375
最美的时光	972144
宇宙墓碑	4460236
堂吉诃德	534686
古董局中局	1145016
廊桥遗梦（纪念版）	5377570
第三大道的这间酒馆	4919325
古董局中局2	1649237
多情剑客无情剑（下）	846330
基督山伯爵（上册）	725999
红与黑	507609
三国机密（下）	1295010
人间椅子	639608
约翰·克利斯朵夫	513973
小城故事	1860381
呼啸山庄	734775
悲观主义的花朵	1092933
所有年轻人都将在黎明前死去	3653123
怪笑小说	536727
叛逆的灵魂	6010329
王阳明·龙场悟道	5125156
别相信任何人	571348
X的悲剧	2882983
璇玑图	5290683
底牌	5179257
第二份工作	2302014
北回归线	2419118
寂寞的十七岁	264254
基督山伯爵（下册）	727542
悲惨世界(上卷)	552952
我们在互相辨认中老去	6092856
王小波全集·第三卷:长篇小说	615185
饥饿游戏2：燃烧的女孩	6457407
爱的算法	506438
三生三世枕上书·终篇	2265091
万箭穿心	3796766
长安乱	873365
少年PI的奇幻漂流（插图珍藏版）	407582
少年维特的烦恼	5446307
爱伦·坡短篇小说选	565406
纽约客	271455
恐惧	1133385
聆听父亲	1143195
风起陇西	1160493
简·爱	502432
地下世界	1866535
我是个年轻人，我心情不太好	709141
孽子	259041
心理罪：画像	2426691
包法利夫人	747194
十日谈	512305
三生三世十里桃花	1809620
王小波全集·第五卷:长篇小说·剧本	615836
罗生门	541678
你是人间四月天	2908324
相遇	3114459
到灯塔去	5331778
金粉世家·上	3123783
普宁	5626905
三国配角演义	1296937
我们这儿是精神病院	3655242
欢乐英雄(上)	1168014
地球上最后的夜晚	3386145
藏地密码2	1136948
青春	852527
心理罪：城市之光	2424667
曼布克奖得主短篇小说精选	5558471
公开的秘密	1990138
废都	948004
远大前程	5325903
鳄鱼街	832484
布登勃洛克一家	3010479
赎罪	1003016
春宴	3167808
福尔摩斯探案	1025321
象棋的故事	1135043
女孩和女人们的生活	1976049
血字的研究	306009
龙文身的女孩（上）	163197
动物庄园	954085
巴黎伦敦落魄记	954114
眠空	1557148
韩熙载夜宴	5259045
后宫·如懿传.3	3361506
谋杀启事	5201900
疑惑	1623901
春天在哪里	3241285
西湖六吊桥心中未遂	459547
最明净的地区	5989891
晚安，故事	6126413
殷商舰队玛雅征服史	1300731
晚来寂静	1060889
夜航	514334
黑暗中的笑声	5583780
布鲁克林有棵树	1076813
阳光下的罪恶	5192599
灯塔里的陌生女孩	5215610
因为孤独的缘故	325874
不堪抄	1627294
芭特姑娘	6599392
藏地密码3	1137524
龙文身的女孩（下）	163217
北妹	222684
藏书室女尸之谜	5176181
绿林记	310027
杜拉拉升职记	1739522
沧浪之水	518857
边城集	817068
假面饭店	2229298
他的国	857295
楚留香新传1：借尸还魂	969702
三色堇	731683
下面，我该干些什么	959483
荒芜城	1313239
陆小凤传奇3：决战前后	1002924
汤姆叔叔的小屋	504663
白噪音	1830668
床笫之间	1019343
绝代双骄1	1494992
馨香一缕寄云边	679118
犯罪心理档案	4777017
羊毛战记（上）	2817140
羊毛战记（下）	2828838
茶花女	502060
穿裘皮的维纳斯	629201
白手套	5081629
心理罪：教化场	2427110
九州·黑暗之子	3494692
雪中悍刀行6	3248765
西西弗神话	2435328
大唐游侠	5285600
教父归来	5363250
萧十一郎	846783
夏与冬的奏鸣曲	2889200
四签名	308246
教父·2：西西里人	3135179
橙子和天使	692661
黑笑小说	713382
欧·亨利短篇小说选	2720228
盛夏的方程式	426040
一座城池	865808
藏地密码4	1137884
基督的最后诱惑	728031
后宫·甄嬛传·伍	879559
教子	3655418
后宫·甄嬛传·壹	870948
古墓之谜	5189700
移民	2177331
我的妖怪培养计划	2037256
京城往事•1（原书名《北京教父2》）	6054720
去斯万家那边	719128
寓所谜案	5192390
幸福过了头	1975489
动物庄园	3243583
衣香鬓影：回首已是百年身	4685304
第一个人	2401949
后宫·如懿传	2553248
我们	3239582
一念，半生	1193657
暗恋	589980
做单	981461
青少年	2044517
包法利夫人	503386
爱上浪漫	3451019
请你安静些，好吗？	1242752
莫失莫忘	2881287
三生三世枕上书	1818372
浮躁	948261
原谅我红尘颠倒	1081556
中国科幻大片	2856601
后宫·如懿传. 2	2563204
路边草	1083420
法兰柴思事件	500540
柔软的距离	1178991
天下卵	2289866
在爱情中我们寻找什么	702431
布朗神父探案集：花园谜案	812350
教父·3：最后的教父	3135448
芭贝特之宴	985153
人性记录	5207730
希区柯克悬念故事全集·下册	2286161
为他准备的谋杀	435445
蒙马特遗书（试读）	256340
达洛维夫人（中英双语）	1983974
七日谈	2217175
武林外史（下）	1175711
热爱生命·野性的呼唤	3171393
屋顶上的猫大人	1866910
金粉世家·下	3130127
雪中悍刀行5	3247474
孔雀胆	5259476
柳林风声	3175113
欢乐英雄(下)	1172660
三少爷的剑（下）	1494363
后宫·甄嬛传·陆	879628
冒险史	308626
人性的污秽	684681
既然已经走了这么远	3446215
傲慢与偏见	5412818
流枫川志	280769
推拿	2948029
鬼吹灯之圣泉寻踪	634165
红发安妮	520669
契诃夫小说全集（第10卷）	2821050
恨，友谊，追求，爱情，婚姻	1976672
大汉公主	5290541
女人之罪	2100987
怪屋	5200463
堪忍箱	3701792
故事开始了	3030595
向日葵不开的夏天	284958
陆小凤传奇5：幽灵山庄	1003774
偶发空缺	348972
哈尔的移动城堡	476668
虞美人草	1693131
后宫·甄嬛传·肆	879334
三少爷的剑（上）	1504586
我亲爱的精神病患者	3581229
雪中悍刀行4	3246277
可怕的孩子	427922
牛虻	733342
夜色温柔	5493318
哥儿	1619556
漫行欧洲	1739235
谁曾路过春暖花开	6127626
万世师表	1545015
高位过招	5284630
太阳照常升起	2028715
武林外史（中）	1171622
孽海花	5970178
羽蛇	2429687
急箭之谜	5784893
云中人	701660
怒江之战	961989
在无尽无序的汪洋里，紧挨着你	1057165
天秤星座	1854296
蜘蛛女之吻	568044
月亮与篝火	939949
人字旁	2208546
只爱陌生人	998646
凯特·肖邦短篇小说集	2100496
海底两万里	547200
曾国藩发迹史（上）	6074477
陈舜臣十八史略：易水悲歌	4976764
罗马神话	1078241
沉默的证人	5178218
风之影（试读）	429688
生于一九九叉	1278429
绝代双骄2	1495655
楼兰	5526794
杨氏女	721703
斯泰尔斯庄园奇案	5215026
金色夜叉	1088687
寡人有疾	435676
武林外史（上）	1167071
绝代双骄4	1500463
绝代双骄3	1499671
归来记	311141
消失在西雅图的1095	5125852
返老还童	5480977
类人	1395435
陆小凤传奇2：绣花大盗	1002406
趁一切还来得及	569731
租书店的女儿	964671
为奴十二年	3474700
陆小凤传奇1：金鹏王朝	1000619
末日那年我21	3108032
影像感染	5030813
中国同学	4395574
鬼望坡	5040196
梵蒂冈地窖	1998921
外婆的古城	2235334
陆小凤传奇6：凤舞九天	1005062
躺下去会舒服点	1408834
茵梦湖	1120091
时间中的侦探	5498315
风沙星辰	768566
心学圣人：王阳明	2190375
周天·有苏化龙	377129
光荣日	841975
我把一切告诉你1	539881
刘氏女	723945
基度山恩仇记（上）	743022
后宫·甄嬛传·贰	871084
逝鸿传（上下卷）	409605
基度山恩仇记（下）	743437
我也会爱上别人的	1473742
瞻对：终于融化的铁疙瘩	2866799
癌人	1309168
悬崖山庄奇案	5217713
狼人传	2234588
一直很安静	3336491
潜伏在办公室：第二季	1066023
费玛	2497616
高尔夫球场命案	5176544
鳄鱼手记（试读）	256256
麦琪的礼物	793629
零下一度	852129
在少女花影下	724063
贞观幽明谭	471379
我想和你好好在一起	5818567
阿斯彭文稿	1604118
富豪俱乐部6	1250517
斧声烛影	5285831
大清一品	4509692
死亡约定	1238905
穿过爱情的漫长旅程：萧红传	3707416
京城往事•2（原书名《北京教父3》）	6071832
青年艺术家画像	5463090
火车梦	5384664
起风了·菜穗子	4828424
神秘岛	562825
相夫	441317
跟随一位少女穿过城市	358275
浓情巧克力	1691305
快乐影子之舞	1993544
必须犯规的游戏	2612506
周天·镜弓劫	379985
周天·堰都城攻略	377005
温故一九四二	3636824
大人物	1175252
天机·第二季	927498
音乐课	634038
两分铜币	277532
萌16	5384894
钓鱼城	6538644
包青天：沧浪濯缨	5290457
卡利古拉	2427954
高老头	734375
后宫·甄嬛传·叁	871821
火	1243079
陈舜臣十八史略：文治时代	4986533
非如此不可：顾准传	6009183
血色收获	997914
狂喜：幸福的研究	6367222
哈尔姆斯中短篇小说集	1169107
苏绣旗袍	180034
陈舜臣十八史略：大风起兮	4958543
流星·蝴蝶·剑（下）	1515486
第二次呼吸	375141
橄榄园	2488960
暗流	5033259
寻鹅记	683417
唐朝诡事录	2166612
失败者之歌（修订版）	1013462
九州·英雄（增订版）	580517
牧夜手记	224019
黑犬	1018719
陈舜臣十八史略：皇皇盛世	4972168
鬼吹灯之抚仙毒蛊	646889
永别了，武器	2002985
踏着月光的行板	752571
沉默之岛	962726
习惯死亡	809609
鲁滨孙飘流记	527934
七种武器2：碧玉刀·多情环	1035429
被侮辱与被损害的人	2199963
格列佛游记（中英双语）	1987995
周天·水云双界录·第二	377677
量子江湖·燕子坞（下）	1122870
喊女溪	925678
火并萧十一郎（下）	848431
九州·丧乱之瞳	3803377
流星·蝴蝶·剑（上）	1514429
怒江之战：大结局	962026
冒充白人	1534584
豹人	1280793
连生	1257961
忠勇之家	2855174
甘南纪事	815883
暗访十年	898248
东灵	1258981
左宗棠发迹史（上）	6051743
云中命案	5191717
全中国最穷的小伙子发财日记	1114049
温莎墓园日记	2705380
雪中悍刀行3	3245020
藏地密码9	1138874
饥饿的女儿	1155424
喵星上的福尔摩斯	5795916
最后致意	312733
异事录·叁	3196881
假如面具不说谎	3369187
摄魂谷	3808997
恋爱中的女人	1052876
回忆录	309865
像少年啦飞驰	863586
一个夏天的故事	928369
罪全书前传	4956383
而我只有你	595215
亲和力	950837
暗黑神探	2211998
衣香鬓影3·明月照人来	5188709
鱼玄机	5259162
渣男与真爱	4625954
欢喜	770705
藏地密码8	1137747
恐怖谷	311888
巨人传	735378
藏地密码5	1138214
逃离	2285682
不存在的女儿	566699
贝罗那俱乐部的不快事件	442739
衣香鬓影2·千秋素光同	5188837
蚁生	841485
藏地密码6	1136333
时光队伍	963226
九州·魅灵之书	3803131
去年在阿鲁吧	2234088
藏地密码7	1137100
好儿女花	1159174
我们为什么分手	5032149
1294	291620
火并萧十一郎（上）	848374
“不太好”及其他	5201622
陈舜臣十八史略：兴亡无常	4959712
藏地密码10	1134385
羊脂球	506755
小沙弥	2424463
世界怪奇实话（下）	3753980
致命之旅	1241135
新探案	309908
隐僧	397785
北京小兽	925463
边城浪子（下）	845251
斩首之邀	5599592
除非灵魂拍手作歌	762141
卡瓦利与克雷的神奇冒险（试读）	308492
你是世上最好的妈妈	1075599
九州·轮回之悸	3802175
寂寞芳心小姐	642989
老张的哲学 猫城记	523594
背驰	3382876
许愿机之人鬼钱未了	5783835
放浪记	2459322
魔手	5200167
黑死馆杀人事件	802360
野人	2350029
明宫奇案	5289710
喜乐章	351073
萧萧集	823649
绿野仙踪（中英双语）	1989006
蜗牛	1084171
曼斯菲尔德庄园	5440127
我们家	2799889
绝望	5584455
一张俊美的脸	498803
雪中悍刀行2	3244626
老虎的妻子	3230235
世界怪奇实话（上）	3704705
理智与情感	5420750
初恋（中英双语）	1974529
最后一个道士	2545366
小城畸人（英汉对照）	2398315
小说密码	2545667
周天·镐京云	376440
雪中悍刀行1	3243827
三十能立	842357
纸醉金迷	2973729
黑色的春天	2508349
七种武器1：长生剑·孔雀翎	1030829
丧钟为谁而鸣	821137
纸上王国	697346
双栖蝶	3227337
同业鸦片	2852802
哈！：大作家·短故事之幽默篇（汉英对照）	3041138
七面钟之谜	5203589
那些有钱的年轻人	3294527
传奇十四章	694767
名剑风流（下）	1537507
名剑风流（中）	1536756
华胥引 : 纪念画册	2517009
推理者的游戏	558670
杜拉拉2：华年似水	1747064
我曾爱过你，想起就心酸	1350681
犯罪小说家	2557174
寻欢者不知所终	1160115
魔术时刻	963138
我们游向北京	3583697
不夜之侯	755497
周天·姑麓山合战	376626
沉寂的星球	3924449
巴黎圣母院	743978
南回归线	2602695
地狱变	930618
纠正	1111779
富豪俱乐部5	1248411
陆小凤传奇4：银钩赌坊	1004059
名剑风流（上）	1535796
高铁	328319
伪币犯	2018256
欧米伽点	1827745
半暖：你的景色，我的流年	5244016
博来特·法拉先生	496571
天机·第三季	928116
一亿六	807685
鸦	279843
鬼吹灯前传·卷一	5878435
花与火的杀意	2738742
浮云	2484737
比如，单身	1362393
棉被	2484252
屠场	3064436
三个女人	2097794
吸血鬼伯爵	631675
永别了，武器	812138
最美：唯有时间了解爱	2349611
追捕	2895329
我们失去了雷蒙德—卡佛死了	691328
白牙	3175564
月异星邪	1527365
秦腔	948676
火星照耀美国	4479821
最后一个道士3	2546197
桑苏西来客	5214093
异事录·贰	3196407
两生错之尘仙（网络独家特别版）	4001859
一觉睡到小时候	450696
我把一切告诉你2	558424
护身符	3390483
被单身	1250965
创意总监	5283933
在切瑟尔海滩上	1004486
小镇奇人异事	726433
造星主	872832
陆小凤传奇7：剑神一笑	1004789
爱你，但我无以为继	1273327
角落里的老人	452822
林荫幽径	2093633
王小波全集·第十卷:未竟稿	613645
格列佛再游记	864902
鬼不语1：仙墩鬼泣	1084037
名侦探的噩梦	560056
最后一个道士2	2545820
乔家大院	796555
和氏璧	5290304
她死在QQ上	1295634
石榴树上结樱桃	487865
血色天都	687001
水乳	222753
九州·云之彼岸	3799548
高窗	442881
量子江湖·燕子坞（上）	1122712
马耳他之鹰	2890662
惜别	493286
希区柯克惊悚经典集	681818
上班奴	1234039
地铁	1189138
穿条纹衣服的男孩	703454
LA BELLA	455319
古老的法兰西	612969
末日预言	1278895
玉岭的叹息	4965780
天下兄弟	2875850
众声喧哗	5434678
被偷走的那五年	1535954
世间女子	964456
红颜已老	962987
天涯过客	5215868
青玉狮子香炉	4998023
长舌男	947925
圆月弯刀（上）	1517864
圆月弯刀（下）	1521020
绿山墙的安妮	962882
吉祥纹莲花楼·朱雀	1091849
红字（中英双语）	1988310
犯罪心理师	1002166
小妹妹	481541
泄密的心	2758802
死者的警告	2613167
雅各布的房间（中英双语）	1973352
闺蜜	4990897
春，夏，然后是冬	480536
起风了	1678366
五年文集	847730
固执鬼彼得	1255089
飘香剑雨（上）	1542116
飘香剑雨（下）	1542610
楚留香新传4：新月传奇·午夜兰花	971038
悬念集·卷16·巴斯克维尔的猎犬	5772426
大卫·科波菲尔（上）	536200
欲望都市	656524
战栗与本案无关，但与任何女人有关	707096
2012年中国武侠小说精选	3238875
新房客和活死人	2613045
天空的囚徒（试读）	429996
变色龙	1069308
草	838471
我的帝王生涯	1804634
再婚	828269
天机·第四季	928873
巴斯克维尔的猎犬	311057
憎恶的化石	2886683
以她之名：第一次接触	2104561
情感纪	1174028
茶花女（中英双语）	1987281
飘过半个地球的追寻	3799139
双面催眠师	2780299
假面人物	2458650
为她准备的好躯壳	4499974
苔丝	736847
名字	1830263
需要时，就给我电话	1246944
黑暗之劫	3888357
契诃夫小说全集（第5卷）	2803520
欢乐之家	1098430
日落危城	5893885
2012年中国侦探推理小说精选	3244783
钟鼓楼	2966835
睡觉大师	1780242
日出之前（全二册）	491999
魔幻玩具铺	764798
猫町	1860076
雨雪霏霏：婆罗洲童年记事	5594051
三恋	2424277
瓦城上空的麦田	809481
九州·星痕	3798969
镜中千年 	1211771
成全了自己的碧海蓝天	1915121
排队的人	499964
海边的屋	510215
一声叹息（中英双语）	1991836
布朗神父的怀疑	650039
驻京办主任（三）	3499489
病毒	913117
皮尔兰德拉星	3888040
地心游记	562758
紫丁香庄园	2888913
证据游戏	2103561
太阳照常升起	803040
爱情与其他发明	1128098
杂林别墅里的希腊神话	1601242
圣经故事	2005263
青旗·嘎达梅林	442242
家有老爸	2036921
疯狂的程序员 	1061463
掉线	405392
和风之心	3718773
荒野侦探	3404269
流亡与独立王国	2429509
八十天环游地球	527431
发条人偶	952847
悬念集·卷18·血字的研究	5761017
三剑客（下册）	730026
白色的乌鸦	436814
情深不诺	3485623
输赢	1238181
生命如歌	634849
玻璃钥匙	2891572
驻京办主任（二）	3499008
大漠苍狼	949623
三人同舟	1201325
九月鹰飞（上）	848178
我的大学	733664
九月鹰飞（下）	848506
我和倔犟在一起	705220
我们的底牌	378
购物狂日记	653819
悬念集·卷17·四签名	5771999
驻京办主任（四）	3499705
杀手保健	5413269
玛格丽特的秘密	2611491
刀下留人	1700598
始终不聪明	595145
狙魔手记	3202970
驻京办主任	3498705
了不起的盖茨比	1459289
青春如茧	350624
起风了	2277531
女囚	717017
人生何处不尴尬	284772
宝贝,别哭	658075
星期六	1011081
十二宫	635958
花隈街的迷途	2738366
咖啡馆推理事件簿	3092438
深度依赖	604080
天虹战队小学	563596
狩猎.1	2624947
我知道你去年在中国干了些什么	1215310
侠盗亚森·罗平	600400
黑森林	509718
若星汉天空	3206785
狙魔手记2：冰大尸	3205076
北京，你是我今夜不及的梦	3707155
九州·龙痕	3798463
毒	840251
斑羚飞渡	748449
现代白话版—清史演义（上）	5450480
2012年中国悬疑小说精选	3244486
猎人笔记	1084889
花叶死亡之日	2738453
这就是我的答案	2963524
纸锋	5022754
把信送给加西亚全集	435279
重写神话	605904
科尔沁旗草原	998862
古老的地球之歌	328450
我的童年（英汉对照）	2398032
原配	5237497
异事录·壹	3195719
官宦王朝3	2193279
契诃夫小说全集（第2卷）	2816474
不可能犯罪诊断书Ⅲ	3694778
纽约往事II：淑女篇 	1535101
最完美的女孩	5182474
三剑客（上册）	727665
现代白话版—清史演义（下）	5452565
战事	311543
程序员的爱情	1115673
时光机	984337
伏藏（上部）	2259465
伏藏（下部）	2260923
一个小女人的常春藤之旅	4702656
紫极舞	1094601
边城浪子（上）	844320
金色笔记	566338
每况愈下	5075097
诺桑觉寺	5438815
威尼斯之死	633308
职场风云之暗贱难防	563054
诺贝尔文学奖获奖作家短篇小说精品	3217475
代号星期四	5785229
大机器停止	994022
我们	939385
跟踪8	3127202
阿姆斯特丹	1024730
理智与情感	685100
思考机器探案集之寒鸦女郎	614951
拼拼拼爱	5670563
星旅人	582747
百年神秘经典·卷四·恐怖惊悚卷	2871805
逃跑家	1115985
复仇之角	1696179
木垒河	3168331
刘心武续红楼梦	1453082
蜥蜴的眼睛	5362835
天涯·明月·刀（下）	848684
白玉老虎（上）	1516051
白玉老虎（下）	1523823
漫漫归途	1694912
孤岛之鬼	638101
思考机器探案集之幽灵汽车	614421
缅甸岁月	954322
宝贝回家	3206428
魔术师	565705
再见，妈妈	1691557
人扮动物园	244293
天涯·明月·刀（上）	847878
丹恩家的诅咒	995544
勇气	5413907
栀子花开	607473
走出非洲	517108
山海经密码	1907503
秘密花园	3148003
闪开，让我拥抱幸福	2098317
欺诈师与空气男	643922
鬼吹灯之牧野诡事	651272
吉祥纹莲花楼·玄武	1090420
青衣	754329
爱人的头颅	912890
偷灵魂的男孩	2544153
葵花宝典	1296133
我的父亲是只猫	1860697
社交礼仪守则	941019
威廉·迈斯特的学习时代	1113480
山海经密码4	1890285
迷失威尼斯	4813261
契诃夫小说全集（第8卷）	2806126
契诃夫小说全集（第9卷）	2811152
她们	250917
南方有嘉木	1343276
陆桥谋杀案	617950
致命裁决	2108974
北京大妞儿的贫嘴爱情	1024939
漫长的告白	1860505
布朗神父探案集：盗贼的乐园	814964
大明宝藏	796848
亲爱的陌生人	657113
大卫·科波菲尔（下）	536828
朋克刑警的骄傲	2891003
奥兰多	2916683
霉	1810033
荒野猎人	284353
坚持	2150962
契诃夫小说全集（第4卷）	2812383
山海经密码5	1895796
十字	845577
击鼓的男孩	2429412
我曾是一个黑人	4467533
你们忘了这个世界吗	1192431
血战太平洋	5429819
七人环	3169238
弓区之谜	614859
堕落	2402917
有一种境界叫苏东坡·3	3621373
少年侦探团	643552
辞职，去旅行	333160
师姐不是随便的人	4751101
契诃夫小说全集（第6卷）	2805528
有一种境界叫苏东坡·1	3620706
大都浪子	617388
十二族	2832248
上海月亮	820274
死亡画像	2729992
借东西的小人	909190
有一种境界叫苏东坡·2	3621056
青春，我们逃无可逃	2014312
流浪玛厄斯	700127
诺贝尔文学奖作家微型小说精品	3215532
契诃夫小说全集（第7卷）	2809857
月池	872673
生命册	1110616
她的国	905623
借东西的小人在野外	908680
百妖物语	5318640
流放七月	4652460
懒得暧昧	3390199
伤魂	2614241
幸福像真的一样	528341
老鼠仓	3393960
我们爱到悲伤止步	2845355
不朽者	603788
契诃夫小说全集（第3卷）	2812218
血鹦鹉（上册）	1174415
血鹦鹉（下册）	1179730
恋爱曲线	3733662
我们，是否还有好时光	3167780
爱无可忍	1017983
借东西的小人在高处	910045
后来我们都哭了	5255970
坛城	603935
黄石的孩子	644678
富豪俱乐部	893862
螺丝在拧紧（英汉对照）	2395755
水泥花园	1003231
出租车司机	1722663
道德颂	272931
失眠者俱乐部	667989
爱谁谁	606111
忧伤的老板	448231
地狱的第19层	933980
魔法师的外甥（中英双语）	3098700
我快要碎掉了	679960
无辜者	1000301
暗花	3392589
即临之族	880323
裸色	215966
猫空爱情故事	2961431
不得往生	3138532
忽而今夏	909792
追日	1014312
1/7生还游戏	428635
周天·水云双界录·第一	377441
暗夜女子	999698
西顿野生动物故事集	2203003
单声列车	4552445
狮子、女巫和魔衣柜（中英双语）	3119409
封口费	700552
新宋Ⅱ·权柄3	3658450
黑河钓事	5455543
七种武器3：离别钩·霸王枪	1035346
思考机器探案集之水晶球占卜师	767213
黑暗的心·死者	2378030
钟形罩	2436762
诸神战场Ⅰ	1180988
秘书长·二	1223150
哎呀！我的妈	2916379
屋顶长的一棵树	680578
黑蜥蜴	639286
草样年华·壹	3532370
猫眼	933513
啤酒女厉冰冰	1279987
青烟	2875117
女工记	1111483
怪盗二十面相	565565
迷宫蛛2	751758
美，始于怀念	5389831
十七年表	3199082
山海经密码2	1867967
唐僧写给观音的36封信	637409
神在看着你	913382
对幸福我怎能麻木	704935
较量	1276564
痒	1280932
人外魔境	3700329
小公主：插图本	3882640
海上宴	2845218
一朵桃花倾城开	5253263
1980的情人	288254
告别香巴拉	1057020
证言疑云	450553
最后一战（中英双语）	3113649
寂静玛尼歌	361636
前夜 父与子	737785
花之血	644714
流星追逐记	535956
小爵爷：插图本	3883141
犹是深闺梦里人	3549322
新宋Ⅱ·权柄2	3658322
契诃夫小说全集（第1卷）	2800147
秘书长·大结局	1223308
迷宫蛛	750433
旧欢如梦里	2357167
大海入侵	561986
思维的竞赛	3840796
上海王（修订版）	1143551
西夏死书4	1222604
能言马与男孩（中英双语）	3092997
双轮马车的秘密	748661
思考机器探案集之微笑的上帝	757617
大萨满之金羊车	693005
凯斯宾王子（中英双语）	3117932
银椅（中英双语）	3106415
黎明踏浪号（中英双语）	3115991
溥仪藏宝录2	2182534
绿光	565989
亚当和夏娃日记（英汉双语）	2725188
少年们无尽的夜	1803577
神木	1110359
回到卡戎	565611
死者的警告	1428334
土街	715731
墨西哥人（中英双语）	1989257
人事官事	1081956
平常日子	1085494
北纬31度的录像带	706063
上海爱情故事	5137271
沙海祭	1684350
完全犯罪	3745761
蝴蝶公墓	934047
白天&黑夜	1249612
蓝裙子杀人事件	3317360
美丽的地下世界	533706
恶意的基因	2737104
童年	736237
在人间	737464
门岭怪谈	1558052
我和卡夫卡的爱情	2730588
警娘	722157
国家赔偿	716978
绝望的密室	1275811
扶乩（中英双语）	1987644
大唐泥犁狱	1194756
狼煞花	1086859
日月	437405
中国情人	1056524
忍得下孤独，飞得上云霄	3863702
秘书长	1223082
奥尔拉	940921
七个哥特故事	3686663
女记者厉冰冰	1294414
他是否还在人间	2458034
久助君的故事	3147096
黑房契红婚约	697798
深喉	3182025
平行塔	1654891
大校的女儿	2238615
跛足之年	250397
请别随意@她	762243
歌剧魅影	2422298
锁与匙	1074493
扎斯特罗奇	1074148
罪人忏悔录	1074557
我们共同的朋友·上卷	2373243
锁定目标	4775317
七星龙王	1183501
离魂记	3107942
长河集	825011
倾慕	1293474
终南山主人	2854088
浮华背后	3185231
维庸之妻	2430207
凝欢	1810475
杀李哥	2655295
一走了之	5333678
为爱结婚	3191192
丢失的谎言	2449836
啊！：大作家·短故事之惊悚篇（汉英对照）	3039315
给乌鸦的歌	520394
山海经密码3 	1857262
奥特兰托堡	1074309
大漠苍狼：大结局	951155
夜行	3364231
暗访十年：第四季	937035
远离尘嚣	734505
夜半笛声	918768
富豪俱乐部3	897137
富豪俱乐部2	896560
一号人物	662616
思念人之屋	1169764
年轮	1104806
轮舞	867925
我愿意悲伤地坐在你身边	5124291
黄金谷	2447268
父亲的家园	278337
在少女花影下	661150
幽灵客栈	926365
新房客和活死人	1221942
毕业了我们一无所有	592626
再被狐狸骗一次	759939
流浪的岁月	278455
望我天真如初，愿你善良如昨	1240228
留一个房间给你用 	698303
英格兰，我的英格兰（中英双语）	1961929
美穴地	948551
私人生活	1125565
漂洋日记	5413658
七种武器4：愤怒的小马·七杀手	1033410
妖折	1108088
尘埃飞扬	1344894
趁现在年少如花	1235007
三个人的双胞胎	3727022
空中城堡	473906
豪门兴衰	1853312
挂职2	1221435
纳尼亚传奇1	2857475
百万英镑	4437427
我们不结婚，好吗	2962358
讲故事的机器人	415976
都挺好	3139370
锁命湖	693885
溥仪藏宝录	2182185
直到四季都错过 	599399
杉	3776901
被美人	1563372
光年之美国梦	1863069
我的老千生涯	3192301
香气	5266755
纽约往事I：绅士篇	1534675
暗水	5032807
野草在歌唱	567947
饥饿的山村	2352251
高潮	2224626
寻花	2779120
男人三十	2104336
魔沼（英汉对照）	2397810
志明与春娇	1092555
顾问官	817446
何不醉在人间	1666760
嘉尔曼 高龙巴 	751646
高兴	948454
挂职	1213274
胖子	1150288
牵手	2241743
赫德的情人	356116
失魂雪	693513
第九夜	240347
战事	2884436
绿物语	1655237
通俗爱情	697491
我的老千生涯III	3193998
布朗神父探案集：金十字架的诅咒	813551
布朗神父的天真	657084
人的大地	510072
我还爱着你，像过去一样	1228757
西夏死书	1055127
后悔录	542822
八十天环游地球	518722
天天向上	5288424
假装深爱的少年	3796317
我的老千生涯Ⅱ	3193242
希区柯克精选集1	695902
迷：大作家·短故事之悬疑篇（汉英对照）	3039466
富豪俱乐部4	897822
晚菊	2473801
还乡之谜	428230
生死故乡	4887414
湖南骡子	1364856
天桥	2729147
象牙塔下	1004990
悟：大作家·短故事之人生篇（汉英对照）	3035883
天行者	1096522
死于荣耀之夜	3108202
北伐往事	6655807
果树园小夜曲（中英对照）	2395202
沉默基因	1459315
最后的美国人	879198
给我一个理由忘记	1226833
中国十大禁毁小说文库（下卷）	4658960
荒漠迷踪	1688143
中国式离婚	2234747
刺客	1811721
空军飞行员	507894
画像里的女人	828483
离奇的小岛	566773
蓝色城堡	658118
黄泥街	1418803
2莓	4676069
歌剧魅影	4721572
一生（中英双语）	1979963
成全	760740
第七条猎狗	753783
爱情是个冷笑话	375984
世界怪奇实话（中）	3738842
丫的伪大爱情电影	3108393
武道狂之诗·卷一	1546730
狼少年	4575618
穿越时空之错爱唐朝	1109269
左宗棠发迹史（下）	6053191
混血豺王	962478
水中之屋	4089884
林海雪原	630528
城？：大作家·短故事之婚姻篇（汉英对照）	3041447
失忆	509553
天下无贼	2241092
碧血洗银枪 	1172384
缘：大作家·短故事之爱情篇（汉英对照）	3042065
锁春记	3192274
老残游记（插图本）	625963
初恋41次	1629462
乾隆的骨头	892196
瓦赛克哈里发史	1074291
爱情是一座荒芜的花圃	4651462
归无计	1261024
生死十日谈	2979950
半步村叙事	3647364
啊，鼓岭！	3338482
乔家的儿女	1277809
被遗弃的女人（中英双语）	1986957
缘来爱情不加V	535635
生命练习曲	2714176
学着说再见	1880367
袈裟扣	753826
阳光之城	1695220
失魂引	1516681
浮夸	1191213
最美好的人间十日	1592710
蓝耳朵	1879633
上海魔术师（修订版）	1159004
最后的驻京办	1223826
仙剑问情·贰	3339032
汤姆·索亚历险记	1024594
森林母语	5814754
为普鲁斯特哭泣	2199549
罗马·突围	4076772
纯真及其所编造的	1140038
曾国藩发迹史（下）	6103645
隐居日记	805819
少年迈尔斯的海	625176
仙人掌之花	3693744
极地司芬克斯	564465
风铃中的刀声	1510516
单挑	3107398
台北春宴之陆小岚	3215263
闺蜜的战争	779395
无法纯粹	1217113
华丽派对	3538852
机器岛	563132
异：大作家·短故事之奇谈篇（汉英对照）	3040439
希区柯克精选集2 	696879
沙海无澜	2494756
环游黑海历险记	689854
中国十大珍品小说文库（下卷）	4597059
房间之内欲望之外	2927860
祖先的爱情	829748
上帝的指纹	4724255
微幸福时代	3749667
唐太宗政变24小时	2175307
麒麟传	179980
命运操盘手	755535
回家的路	2695165
齐天传（一）	2199799
北京浮生记	1005949
老大不小	1700440
到世界上去	1497072
战争魔术师	513065
谜局	1714183
时间机器	1408087
阿黑小史	811185
黄色评论家	2924761
顽主之后	275784
螺旋楼梯	2423632
中国十大孤本小说文库·下卷	4052834
逃跑的诺亚	2783055
缀网劳蛛	1922920
庙堂往事	1287499
丈夫集	825287
革命：2020	2242198
我未来次子关于我的回忆	269887
南方邮航	508692
到爱的距离	1830565
吸血鬼	1073980
不愁少年	1313005
百年神秘经典·卷一·侦探推理卷	2868576
13只钟	974863
贵族之家 前夜	2360477
月下小景	824254
毁灭天使	5581261
险：大作家·短故事之冒险篇（汉英对照）	3039726
迷城	930889
绝不低头	1174721
沙床	3424361
柏子集	812842
吻下去，爱上你	1835712
剑毒梅香（下）	1504621
诗人万岁	5008080
银行佳人	4668268
跷跷板上的女人	2918696
极端优雅的少年	1207411
穿越时空之生死恋	1233081
遗失在光阴之外	444091
花园虚踪	485450
齐天传（二）	2205393
九命灵猫	1154447
大坡地	1864795
紫藤花园	1115727
车厢里的圣诞小姐	2391021
依然是你	3188752
男孩，别哭	655740
风和日丽	255175
苍穹神剑	1506398
天边灯塔	562236
曼哈顿情缘	4737769
时光之船	879922
猎鹰·赌局	1182415
卡门（中英双语）	1981375
布朗神父探案集：小村里的吸血鬼	819856
童年（中英双语）	1971687
布朗神父探案集：梅鲁神山的红月亮	813490
湖光山色	542928
失忆的年代：蔑视	1944543
布朗神父的秘密	655645
奔跑的男孩	2519840
不过是插曲罢了（中英双语）	1987059
剑毒梅香（上）	1501291
剑毒梅香（中）	1504242
布朗神父的丑闻	650779
青草垛	2423800
布朗神父的智慧	653174
游侠录	1514331
梦三生·永劫之花	1814792
山中少年今何在	419148
沿着瞭望塔	358093
剑客行（上）	1507268
剑客行（下）	1508306
对面是何人	3177286
像浮云般飘散	1258174
曼哈顿花絮	1533432
白猿（中英双语）	1985516
我和狗狗一起活下来	2596608
纳尼亚传奇3	2867654
猫蛊手记	595676
齐天传（三）	2207854
齐天传（四）	2208421
齐天传（六）	2208881
危险的咒语	4761157
百年神秘经典·卷三·悬疑解密卷	2869554
徐霞客死亡游记	2845989
环形山	954280
黄连·厚朴	2422389
藏·世界	1181628
猫生十年	1037887
贵生集	818902
九顶假发的女孩：一个美好而快乐的抗癌故事	2648054
荒村归来	932768
猫看见	2253417
莉齐·利（中英双语）	1988872
仙剑前传之臣心似水·终结篇	2192910
仙剑前传之臣心似水·起源篇	2186362
独臂男孩	510144
普鲁士军官（中英双语）	1989512
精忠岳飞	1142983
牛鬼蛇神	1250285
恋君已是二十年	2919734
小号传奇	510850
纳尼亚传奇2	2867492
齐天传（五）	2208618
我的爆炸女友	2485942
施蒂娜	1300855
东莞梦工厂	2803439
藏獒笔记之反盗猎可可西里	3379745
我不喜欢发短信	2902714
中文系	523225
青春简史	4853980
红楼记	338446
物欲动物	1361096
手持青春奔跑	3360574
素素花开	2298242
独立团	1085512
三条魔龙	1156526
失忆的年代：误解	1182556
昨天相亲的姑娘邀我共进晚餐	1167345
天经	4537840
我捡到一条喷火龙	1139216
星虫	1156855
老福赛特的印第安之夏（中英双语）	1988748
游泳的狮子，扑火的鱼	1184290
谁？：大作家·短故事之推理篇（汉英对照）	3036400
特雷庇姑娘	950789
史班瑟岛	531834
首战告捷	2592736
上海之死（修订版）	1148510
迷途	268003
海上流华之四面菩萨	2655374
来生再见	2179442
若是爱已成伤	1189753
华尔街假发店	336876
他们用假的名字因为故事是真的	2918367
方圆四十里	696675
黑魔法的大考验	4850921
魔鬼的诱惑	2716133
空中村落	561849
德鲁德疑案	2421748
编号0911	1050661
罗亭	2395523
横赌	2908549
飞入天中的梯田	2648982
藏獒笔记	3379632
电视台的女人	762027
我们像野兽	1366998
漂浮的城市	564064
遥远的真相	1377496
边境之歌	661465
黑焰	1135357
天黑前	2927003
荆棘树的不解之谜	4850355
神秘的护身符	4834181
食色故事	964040
雪晴集	826931
精忠岳飞（大结局）	2187510
鲜衣怒马的日子	2212960
你丫快跑	2837614
啼血的铜鹤	4732301
仙剑问情·壹	3327815
一点墨	3316340
十五岁的小船长	563713
赵凝短篇小说自选集	1220139
这儿，那儿	2522524
百年神秘经典·卷二·鬼魅故事卷	2869187
大栅栏	702661
门外即天涯	322993
地狱里的囚犯	4850433
莫哈格的秘密	3590093
不可容忍的巴辛顿	2273910
爱拼北京	1267778
粉身碎骨	1700666
转身，相遇	1180237
前夜（中英双语）	2066972
告别青春	411688
血色交割单	757278
烽火岛	693728
不在梅边在柳边	3184431
人间犬吠	924933
鬼眼新娘	995766
吕梁英雄传	2972249
魔曲	4645403
西夏死书2	1209814
密室之别墅疑案	1714762
百步穿杨	16911010
女人的手	11886717
再见，如果可以再见	16812695
When the Sleeper Wakes（当睡者醒来时）	8285463
日出酒店	18850288
爱情的枷锁	11974371
延春堂	12460880
居里夫人的故事	7536742
玩火者	12067731
奋斗 2.0	16630015
蜂蜜	15611255
若你不弃，此生不离	13643811
第十二夜之XYZ谋杀案	8801869
那么多悲伤，无路可逃	16862374
苍黄尧天	18463568
凶画	15662065
记住月亮升起的地方	16895772
少女哪吒	12125252
爱情不设房	16097019
田野上的风	17089443
神秘身份	10598419
圣魔传说	10954237
时尚女王	10471566
被你深爱的时光	9580314
又见彼岸花开	11933052
浮生梦	17608423
教授之死	16896600
曾许诺·殇	12825563
林中婚约	10630219
星基因危机	11050076
妇产科男医生	13904513
兵团岁月	10532592
有种后宫叫德妃.4	13775497
万有引力之虹	12181157
萼叶盛宴	13771794
城奴	11796351
零点登录	11911028
虎口夺单	13035700
罪玉	13266529
向阳孤儿院3	10761125
遇见另外一个(穿越版）	15341196
跳婚	12754998
一身孤注掷温柔 终章	10069870
纳尼亚传奇：最后一战	20083143
大清相国	18319475
我欠你的幸福	15583680
农村兵	10940817
人的杂志	8774136
惊悚e族27：飞头蛮	13412183
北京记者	16207701
海上劳工	10738493
绿光	10921900
绝代风华之代黎篇	14773660
The Happy Prince and Other Tales（快乐王子童话集）	12220010
咏而归	11115416
碎媳妇	12423678
斯大林大街之恋	16817615
卡拉马佐夫兄弟（上）	13449328
血祭	13251233
死在午后	13448841
觉醒日2	11702567
情为何物	11218457
眼镜侠	12005466
华尔街继承者	9808370
最后一两力留给自己	11869615
茶花女	18268088
救赎	9013536
菲洛梅娜	7038377
宠物	15816875
福尔摩斯探案集8	9871036
游吟之旅	13655421
骊歌	13464442
巴黎圣母院	5509432
凯丰传	14122825
疯门怪谈	13885982
大跳蚤	17070793
His Last Bow（他最后一次鞠躬）	10089533
爱情魔法变变变	15819911
汤姆叔叔的小屋	11893327
第十二夜之天方夜谭	8801525
中国奇妙物语7：说出去就会死	15570863
驭蛊经	11816512
爱上你等于爱上寂寞	10929765
妖仙天下一趟游	11810214
极品王妃	13097470
爱	9404839
李自成：第六卷	12270172
糖溪帮探险记.第2季：老师的麻烦	9952774
一个巴黎两个爱	13759685
千盏灯	11811297
武林猛虎	13359883
除了爱，我们什么都不会	13719621
唐人街：在伦敦的中国人	16458366
深海勘探恐怖事件手札	15838300
盲音乐家	8666583
黑幕交易	11774101
猎人行	8434566
灵界邮差	10952376
民企江湖 2	7285865
狼王梦	754245
八十天环游地球	18270037
宝宝的诱惑	12110184
如若有你，一生何求	13604013
前夜·父与子	5608258
凯撒之死	15608378
收山	19641256
养一张试卷当宠物	10730074
呼兰河传	13248265
幻想魔王传	10951174
文摘小说精品·父母卷	15812978
最强剑神	13148294
阿Q正传	13263720
动物农场	18928623
我爱你，蓄谋已久·丛优篇	15945031
美国后现代小说与历史话语	18040761
青春无悔	11087546
为奴十二年	10715127
中法战争：第一部全景式展现中法战争全貌的历史小说	13618396
神仙修道路	16777916
王子们都爱母亲大人	16778720
童年·在人间·我的大学	18303858
从终点开始的旅程	10512772
亲爱的敌人	10675301
麒麟王·第一部：鹿鸣传说	11432983
屠格涅夫小说选	18302679
手掬你直到天亮	12422885
庶民春秋：田舍小说集	16246692
黑童话	13311832
最后的情人	19374119
冒牌公主的真爱	12111588
跟特种兵老爸去冒险2	10505611
网游之相贱恨晚人贱人爱	11277856
迟暮	12462534
活着之上	16819288
马桥词典	13052234
才子	10532431
神秘大陆系列·魔女消失的房间	12422081
烟火不暖，糖衣不甜	13625397
玄武大陆	13146389
狼族的诅咒	13332988
爱的流放地	13860651
极星残梦	14123163
正经人家	11780783
罂粟之家	20087009
所罗门领域	11017973
亲爱的，你一直很孤单吧？	13921465
失忆的年代：仇恨	8101529
守望五千年的魂：小说卷（Ⅱ）	16298170
藏獒3	9363947
底牌将启：短篇悬疑小说集	15164438
再也别来这个地方了——萨迪斯县的传说	18278977
古玩家族	13847740
夏洛克•福尔摩斯全集（英文原版）（下册）	13767472
有梦就好	15252354
男人不可以穷	9704150
信	5993092
金棺陵兽	13333584
蟊贼	15607239
隗家村	6118040
火焰贴身保镖	11927439
曙光·成与败	14640406
女不强大天不容	19027780
将军烧坊传	17078296
毒步宠后	13229594
我是证人	17076825
黑水灯塔船	9372145
雪落高原	11737556
胭脂扣	6708491
小东北嘎嘎酷之非比寻常的夏令营	15254238
中国历代通俗演义故事——东周列国志	16291446
再生草	9456941
梦行天下	13134447
白玉堂：案中案	9711553
向阳孤儿院5	10761350
情境卷	15844374
独角兽的美味恋曲1	12611715
天使泪	13103139
情迷牛仔	12109540
狼人笔记	14619604
未见萤火虫	13601940
牛仔女孩的抉择	12109893
伪装成独白的爱情	19928062
嬉笑江湖	16078014
香巴拉秘符1	12702152
喻世明言	15583327
《封神演义》和神魔小说	11098948
环月飞行	8084658
三校草	17217705
第十二夜之万灵节之死	8747009
武则天	19857737
无出路咖啡馆	9410665
掌心白月光	11807289
深宫谍影	15639528
纸老虎	16459778
凶宅笔记	6695027
睡前恐怖故事14：碟仙	16428812
罪与罚	13450369
奥兰多	13352243
80天环游世界	11229195
进击吧，天才！致命谎言	19256491
人皮论语	8623167
杀手界	17354063
还魂女再续前缘	13236382
驯子记	20115310
穿越黄昏小巷	10845252
纳尼亚传奇：魔法师的外甥	20082867
伯爵夫人的爱情	12111467
代号黑寡妇	10745040
超时空祭奠	15339168
三个火枪手（上）	13315793
盗墓门	10429405
梦成今古：敬敏皇贵妃	11926444
大卫·考波菲尔(上)	14843493
世界最具故事性的中篇小说（2）	11026661
封神演义	9397676
我的名字叫王村	16930438
偷窥一百二十天	11737311
傲慢与偏见	18268627
简单艳遇	15609354
踏雪无痕	14642242
吴越咒1：寻找古越女	16778910
我们都是外星人	12068236
安娜·卡列尼娜（下）	13471327
公务员	11225703
穿越之轩王妃	13238385
渡鸦之影Ⅰ：血歌（下册）	11934932
侠女奇缘（下）	11459328
我前面桃花开放	16202131
独占告白	16815574
省长之争 第一部	19504908
笑看温柔闹红尘	13890818
风云女儿心	16617822
安塔拉传奇（9）	16826140
穿越时空之情迷五胡乱华 1	10198649
血案	10680197
孝恭皇后·第一册	17796302
中国传奇	18224115
卿非卿	12441048
清水里的刀子	16184355
换头之后	10806962
暗杀1905. 第3部	10684682
康巴	10620575
若我足够好，终将遇见你	13913113
无援	8830055
爱与忠贞	12107005
消失的地平线	11250636
嗜血的皇冠	11463668
惊宫之袅	13912573
调整	19902949
小个子法国人和他的水下地皮	10626206
陪你到世界的每一个角落	11508106
The Prince and the Pauper（乞丐王子）	12990968
汤姆·索亚历险记	5420552
亲情独白	15843736
因为女人	8031558
我们是嫡亲姊妹	14964660
爱情距离	13652368
沉默的子弹	5237006
操盘	15938209
中小学生必读丛书：小城三月	12595546
最后的完美世界	10249596
妇女再研究	11249276
The Adventures of Sherlock Holmes (福尔摩斯探案集) 	7618889
张之洞：唐浩明晚清三部曲(评点插图本)(套装上下册)	10904685
告白	13257425
岁月挚爱	12272557
猎人笔记	10614210
“野蛮女”出嫁	11362679
女人的河	12424049
江湖奇侠传	16282794
青绿	6661854
汤姆·索亚历险记	10613972
出租新郎	16790241
Persuasion（劝导）	15563059
少年维特的烦恼	10697861
欲海滴血	10883606
福尔摩斯探案全集（中）	14209830
琐事集	11227257
夏屋，以后	9484672
月照梨花湾	12423924
明天谁去坐牢	14979856
The Sign of the Four（四签名）	10365942
归去来	13045345
惊奇物语2	9808538
省长亲信	11109124
首席女法医9：起火点	18874842
宫门怨	13236173
恩主	10167990
静候佳音	13653362
哀艳成诗	13231388
美人蹄	16221376
夜长梦多 	9373973
寿衣裁缝	13617403
爱的教育	13682962
蒙大拿的风流医生	12109952
动物小说选	10511952
鱼馆幽话2	13645637
夜机	12005919
女儿	17103999
恋上，一个人	15944650
空城	16126393
鼠惑	10724356
美男脱去校服时	10529035
流血的仕途	10199225
枪火	16140639
读心卡：时光深处的秘密	16098006
凤凰的哭泣	10606206
守候瞬间的永恒	9281243
村魂	20335734
雌性的草地	9409147
夏天糖	16833410
失声画眉	15644113
考骨	13036406
我知道那晚你干了什么	15672643
真相	8576421
嘉莉妹妹	13349394
聊斋志异	11623307
天经圣战	12063065
死神来了	13300912
哈克贝利·费恩历险记	14871061
马丁·伊德	10686663
纵容你，我乐意	11867957
分裂的村庄	9212670
一个勺子	17094291
一号嫌疑人	16264523
君主	11992929
永不，永不说再见	16812243
神秘大陆系列·怪盗格里芬	12421567
基督山伯爵	13316130
女流	20332821
小女花不弃	17640565
化身博士·诱拐	11845075
十年梦醒时年殇	13102226
宇宙潜龙	11055337
海王星卷：地心世界	15339391
巴比伦人扎第格	10628778
午后的偶遇	15647117
人鱼泡泡Ⅰ	13643133
半是蜜糖半是伤	13912746
一个人的抗日	12981924
神秘大陆系列·两人变成两只	12421781
带一颗心去田园	16908324
往事并非如烟3	16236363
我们是动物	9438280
群魔（下）	4400096
施蒂娜	15567423
地海传奇6：地海奇风	15242523
血脚印	12007400
王子苏亚历险记：故事起源 & 月宫之战	12245323
间岛铁骑（卷三）	11594609
罪全书2	14702112
燃犀奇谈·雪之下	17291078
迷魂	13909455
鬼医仁心	11763956
蛙鸣	17035459
两河口	20292665
安塔拉传奇（7）	16825537
高老头	19497380
撒浪嘿	14614394
塔屋	10629420
决战王妃2：背叛之吻	16824486
托马斯·曼中短篇小说选	13350036
逆天孽缘	16612557
查布大草甸子上的鹰	12423008
许茂和他的女儿们	13250359
永恒之民无所畏惧	9529465
大陆纪元	16388929
减刑	12286892
逆神·诛光千劫	13774087
关东赌王	15338844
杏林劫	16783969
超级女生死亡PK	13616721
首席女法医11：终极辖区	18869202
熬过：完整讲述共和国历史上最折腾的岁月3	9346522
黑子	15612244
甲午之恋	16896990
红杏出墙记9	7325215
众灵	11056014
犯罪心理档案.3	9503898
一夜玫瑰	11931656
北京，1912	16696339
儿子与情人	10697456
永远，其实不远	11115358
俄罗斯恋人	13992096
矮奴	13259389
酸	9058720
孟盛小说集	10761760
狗日的战争	7281989
江山如画：执子之手	13098081
谁在背后	14238806
狗日的战争2	7282983
逃之夭夭	12291055
三言二拍精编	12425781
走过那一季的春暖花开	15064579
A Tale of Two Cities（双城记）	9533847
名家名译：柳林风声	11069891
To the Lighthouse（灯塔行）	14910473
创意总监	15909599
Burning Daylight（燃烧的戴莱特）	14900860
日光微暖爱倾城	13643656
花儿是心上的油	12260087
浣熊帮帮忙	13260538
村庄的语言	15908185
偷窥背后	10477937
霸道王爷别太狠	13231845
最初的爱情，最后的仪式	10167070
戊戌喋血记（下）	16833883
水妖	5472791
亡者童眼	13614014
葛原与春时	11135267
斗虫记	12463214
美人之头	10629224
旋转的摩天轮	13250855
倒霉天使的恋爱物语	17070963
沉默女王	17831368
往事并非如烟2	16236174
玉兰花醉	17002150
状态	9783714
盗墓玄机	10434069
大机场	20251234
信箱里的小鸟	10625651
Roads of Destiny（命运之路）	15925429
Quo Vadis（你往何处去）	11602831
省府大院	11737011
再生之环	11815565
生死宝藏	17205918
匆匆那年(下册)	12912052
李自成：第八卷	12270456
城市白皮书	16907506
幸运的三叶草	14056367
尖叫	1666397
合江亭	10607095
安娜·卡列宁娜 下集	8981831
月沉吟（下）	18364170
孙犁全集（第4卷）	17030416
等等灵魂	16909846
古董衣情缘	9718616
附身	16683828
黑天使的情人保镖	11904130
妖媚儿	16093998
勇士之城（上）	10807500
快乐王子	18305638
微型小说一千零一夜（第九卷）	14039752
福尔摩斯回忆录	11250388
冥王星卷：黑洞危机	15339471
年日如草	10842935
鬼望坡	15628850
罗布，要做自己的王	10075123
救赎，在迷雾中（卷一）	11595745
爱上水晶女孩	11364680
金粉记	13608145
雅古复仇记	7251189
道者无心·海内篇 Ι	8033750
黑鹅毛	13616969
盛宠难拒：寡头的囚爱萌妻	13102075
中国女作家名篇选读	17395101
午夜的独身女人	14016549
迷失哈瓦那	11492505
长相思1	12824231
偏执狂	12050313
玉露无心	6386045
合伙	10288422
簪中录3	12202940
The Return of Sherlock Holmes（福尔摩斯归来记）	10365504
温暖的芬芳	11137599
悬挂的魂灵	17245939
特工冷妃：袖手荣华	12291269
爱情保卫战	14902745
纽约人在北京	10546228
京漂男的快乐生活	16123550
时时刻刻	10660725
老人与海	10663635
选择	11137379
放手爱	15469597
继位之争	9317392
我的传奇人生：赌徒笔记2（血战到底）	17273551
手信	13959150
她的生活我的戏	14009628
红顶商人胡雪岩3：人情是最重要的投资	9194324
Far from the Madding Crowd（远离尘嚣）	11080580
初刻拍案惊奇（精装典藏本）	15821356
摩登时代	17349304
笑面人	11498769
阿斯洛加的骑士	9119148
大卫·科波菲尔	19520549
古惑仔之江湖飞雪	16618208
三生·神仙债（全二册）	12153252
打拐	15581099
基督山伯爵（上）	13317464
德川庆喜（第三部）	2817539
永乐风云（第2卷）：问鼎天下	10661453
诺桑觉寺：汉英对照	13848445
小海蒂	9006101
无愁河的浪荡汉子：朱雀城（卷五）	11303820
解放战争（下）	8015982
惊鸿姣影	18264011
梦浮图	10289732
花样蝴蝶	14619039
抵达昨日之河	11733466
黑白较量	10442059
起風了	7798899
绿绿的吉祥三宝之大嗓门女侠	11020245
Cabbages and Kings（白菜与皇帝）	10785276
中国古代艳情小说史	17710363
破译	10832973
生命中的四日	10627841
生如夏花	11431413
守夜人	7479223
光芒四射：王涂鸦中篇小说集	12468157
同桌的你	13906325
一月十六日夜	9333664
太古密经：失踪的记忆	16609667
首席女法医8：致命暴露	18866961
乡村书记传奇	20334402
名侦探推理破奇案	10943889
使者	8625027
露沙的路	12266951
五月的鲜花	12268447
拳赛	11229810
站队	19903064
正常人（卷三）	12297094
林海回民工队	16132405
请你原谅我	13612558
原来你也在这里	10883369
代寻旧日时光	9718280
秘密（短篇集）	10723212
天机·富春山居图	13427371
归无计	11134925
钢婚	16994565
《套中人》 契诃夫短篇小说选	15384714
省委书记和他的秘书们	12000511
防守	10168935
福尔摩斯历险记	11250172
博士家的火灾	9794076
不要绑架我的青春 	8902452
左牵黄右擎苍	10680017
芯片之谜	10833360
鹿眼	12204488
儿女的荣誉	10504525
惊微录	20504204
百年混沌	11503389
大地芬芳	16814477
对江天	8679067
匆匆时光	13257094
我是我的神（套装上下册）	17089696
贼日子	14079571
恶鬼缠身	16384901
血魂传	12004211
传古奇术（四册大全集）	11020888
艾伦·特罗	11226968
卫生院长	19504125
八百万零一种死法	6704739
胡桃木的漫长冬天	11174405
魔之王国	12489830
时光旅馆	9511068
祝你好孕	17271817
创造	10950291
首席女法医7：死亡的理由	18856222
以恨为名的爱恋	11931492
惊心的照相	14050650
曙光·爱与恨	14640331
二十年目睹之怪现状	15575331
The Survivors of the Chancellor（大臣号遇难者）	13575015
拾螺记	16189993
残月	12256635
我的生命里你不曾远离	13265000
幸福时光	11762050
静静的白桦林	9392823
老人仓	17224312
米米朵拉	20170193
与爱为邻	9344940
糖溪帮探险记.第2季：夜晚的尖叫	9952373
千回·夜（卷一）	10706788
尾巴Ⅰ：我在身后看着你	15667357
牵着宝贝嫁给幸福	13135865
死囚末日记	11498403
蝇王	13342198
安娜·卡列尼娜	5068358
绿山墙的安妮	10826995
内线	16611831
博尔塔拉河左岸（下）	12457514
残酷翻篇，即是温柔	13044719
复仇女神	16782639
极度诱惑：漂亮女上司	11953576
神王魔兽	13101804
飞来陈醋	13957867
我的泪珠儿	3189132
顺手牵夫	13259050
The Great Gatsby（了不起的盖茨比）	8281104
恋爱告白式	16821185
一个都不放过	8959864
许是蔷薇开	14114644
环游精灵国度的女孩	19471253
智斗小三	16590002
神秘岛（全译本）	16077746
阿甘正传	9333322
因为是医生	7097289
谁在耶林普提大道的第三个拐角	13617612
谛听尸语	10831450
北纬38度之恋	20301054
那年夏天我还爱你	5919030
异床同梦	10842796
潘多拉的眼泪2	13603259
走过独自取暖的寒夜	8861643
八零后的小李	15582496
怡殇（上、下）	8704131
绝色惑妃：太子别嚣张	13132559
真相不白	8789998
江州义门	11393377
爱历元年	15998656
唐宫倾雪	12290929
讲故事的人	12461153
神的拉面	9535476
重案行动	16367819
校花真有这么萌	12003356
首志封神 2	10869596
神秘大陆系列·我和侦探伯爵	12421681
死水微澜	10677428
盗墓家族	10424116
知命何忧	17054759
阴谋与爱情	16811812
天王星卷·迷失时空	15340331
女生文科宿舍	13611311
学会做富人邻居	17091891
美国FBI重案实录	15848954
仙道神魔之凡人星球	15583722
缘牵一生	12108011
欢宴	14115195
那年他们在一起	13135261
娜娜	10370789
The Secret Agent（间谍）	14260843
懒人闲思录	11226882
大学潜规则	8082126
开凿	19465997
纸牢笼	10715651
时光会记得	11736745
失踪者·诉讼	10166736
替嫁新娘	13102582
深度昏迷	14632964
平安夜	13611496
前门	13297841
觉醒日3	16912575
水北天南	15243880
神兽宫	13258952
调侃年代	13940980
皇陵珍宝谜案	11917254
背叛	11905571
欢乐英雄（上下册全本）	18313608
囧的大学生活	10244783
心域之书	11019455
谁之过	14652549
豆丁二人组之神秘的新邻居	11021151
太阳最红	17032370
杀妻日记	16592871
The Memoirs of Sherlock Holmes（福尔摩斯回忆录）	10365074
The Casebook of Sherlock Holmes（福尔摩斯档案簿）	10364657
年轻的心在哭泣	13348562
死亡匣子	10168286
漫长的惊悚	9783863
如果当初我勇敢	8860374
苦藤甜瓜	16618999
军婚	16125754
妃常妈咪：负心王爷别想逃	13230478
鬼吹灯外传3：突厥神棺	15612965
域外小说集(套装共2册)	10980011
龙焱	10453566
职务	12289086
叶“障”鼠目	12040509
案藏玄机之血色情怨	8397142
谁主沉浮	16251479
娜娜	13303725
浮沉劫之缠恋	16292085
粉色职男	20500846
紫砂记	12463147
艰难时世	13306008
李自成：第四卷	12269941
我喜欢你好多年	13958583
我的名字叫黑	6116442
尘事	12467718
敌人	17025626
我的初恋王妃	14257905
简·爱	11226167
春日永安	6885861
鬼	13450518
开着坦克去唐朝	16125976
一位神经质先生所说的奇异故事	11229308
途经一场寂静时光	13617915
亲爱的另一个我	9051720
官场现形记	16283662
动了真情的掠夺者	8057238
红杏出墙记10	7325406
古墓生死恋	11902651
错爱冷情首席	13229213
燃烧的大地	16926353
寂寞英雄	16818880
英雄诀	19370726
相见欢·下	6073569
泥涂集	819442
财阀大少的冷艳妻	13232164
魔劫变	13135074
星星的记号	11110622
六星社的少年们：前往宝石秘境	8131797
大咒师	10950389
第五个孩子	19928357
惊魂六计・太平间的磨牙声	6115936
大浴女	7849257
神奇小和尚	11794149
神麟天下	11794419
老千2——盗亦有道	13900460
无极道	13104570
暗黑影者Ⅱ龙影之刺	11938430
黑猫岭诡秘事件	8981791
神的九十亿个名字	13311329
王子驯化记	12111294
都市之翻手为云	11778773
夜火车	14160215
巴音阿门的春天	10706129
刺青时代	19873850
天生作对	14114457
宅女正太喵	11055800
我们的踟蹰	18670252
祸从笔出	16069044
深夜剧院	13614756
红杏出墙记7	7324945
谜中谜：天诛	12591492
拐点	8772258
大漠流华记	13673892
孝行天下	10841850
爱情“宅”急送	17270585
我是警察	17205898
交子 	18874309
红杏出墙记12	7325780
吕芳诗小姐	19353740
朱门	18225028
黄河风云	15983843
绑架游戏	13420853
绝对男友	12590545
跨国商战	12134900
The Brothers Karamazov（卡拉玛佐夫兄弟）	11080440
生命休止符	13299667
悲惨的下场	11365787
画地为牢：花心穆少霸道爱	13096806
灵奇仙	13134036
离离杨花落	10621279
再见，如果可以再见	11166501
小夜曲——音乐与黄昏五故事集	8659416
一首小夜曲	19096882
茶花女	19081150
假面	13256704
少年游	14629872
旋风少女4	11359847
网游之贱招拆招	11277345
鬼少的恨宠	16618768
困在宜家柜橱里的苦行僧	17796664
金动天下	13848122
梦幻人生	11799893
狄公案	16290812
女捕头·下	16696766
司机风流	11437194
不散的宴席	11589385
女孩像你	9322279
钓鱼城的乱世佳人	10807260
陪你荏苒成风	8985344
百万英镑：马克·吐温中短篇小说选	15385172
皆大欢喜	15608670
碧血红花	12106439
老农民	16905053
长大	17899997
星运毛神	11050274
我爱你，蓄谋已久·燕小嫦篇	15944862
床前明月光，美男睡得香	15338924
加拿大·死神降临	12126820
江湖之骆荆长风	13463634
酋长的恋人	18279248
中小学生必读丛书：小二黑结婚	12595642
当你孤单谁会想起你	13957750
上市	10074643
半天云	13404436
李自成：第九卷	12270585
负心首席：千金大小姐	13235633
仕途（一）	16817996
上上·下下	3506965
野性的呼唤	11223099
心理医生在吗	9410747
那时没有王，各人任意而行	12978057
荒宅新娘	13258030
CSI犯罪现场第二季	16096711
背叛的下场	11905034
美国FBI重案实录2	16099234
金觚奇案	10289038
追梦	17349531
进击吧，天才！指枪战争	19256168
花驿	13653064
姑获鸟	15664033
穿越时空之情迷五胡乱华 2	10198786
馑年无往事	10704445
省长之争 第二部	19505455
江湖之恋	11954550
冤债轮回	11879659
麦田云雀	15452554
情迷鬼屋	11289001
志士英雄	11225333
Mrs Dalloway（达洛维夫人）	10089321
第十二夜之死亡旅程	8802885
若天有情	11794397
天配良缘之陌香	11259679
弑亲及其他	11221532
弗朗西斯·麦康伯短暂的幸福生活	11219081
胡思乱想的病	12253275
基督山伯爵	11893885
瞬世芳华	12002243
嘘！今夜狮子睡着了	19890690
古玩圈	13343807
爱对人，表错情	15902788
龙朱集	819051
春风沉醉的晚上	10089844
罪与罚（上）（经典世界名著）	10685522
中国历代通俗演义故事——水浒传	16285715
突出重围	16832973
狼山	13343732
无头将军（下卷）	11598785
禁衣	13617101
岛与城	16791552
悲惨世界（中）	7820759
如果没有你	12373683
南方有嘉木	12204580
湘西寻宝记	16779847
妾心如孽：下册	16696976
荒火	12507592
魅影危机	13642413
Anne of Green Gables（绿山墙的安妮）	12133063
未及相顾年华里	13644314
锦娘	12373423
苍穹祭·月蚀	12094633
淘气公主求爱记2	13604527
细思恐极故事2：轮回转世	13252343
墓诀	15608069
我的传奇人生：赌徒笔记	19035576
痴爱一生	11392047
澳洲鹦鹉的那些事儿	13408151
星期一没有什么故事可说	20288500
苏通之死	12000677
古币姻缘	14870146
再婚	16262566
大秦帝国·第五部：铁血文明（下）	11822470
那些我们没谈过的事	11940545
狮口余生	10628610
漂泊青春	19035684
桃花湾的娘儿们	11645392
翡翠猎美记	16385608
撒旦墙之钥	10953638
红与黑	11844553
后顾之忧	16894426
21克爱情	12462389
武动大陆之乾坤幻变	11809443
道行师：雪狐之印	13669669
大神安安在	11939598
志摩小说	13253766
帝破天荒	16790739
明月共潮生	11433198
不平凡的乔	12112219
民企教父沈万三	8984200
战国纵横：鬼谷子的局6	7480487
大清龙棺之汗王秘藏	10425838
间岛铁骑（卷二）	11594439
迷情侦探	11968713
精灵娃娃	12134044
生命的呼唤	10879994
捕尸者说	9345932
攻克锦州	10973973
留学生	20297068
窗灯	13302216
鬼吹灯前传2	13034961
晚餐谋杀案	12569573
卓娅和舒拉的故事	7488574
神探伽利略	10229333
大魔术师	11796866
爵士乐	9442502
逆乱青春伤不起	9778232
幸福园	11806403
情谋爱情	17394235
东周列国志	15822367
The lost girl（迷失的少女）	11909623
逍遥大法师	11018900
凤仙游记	11779113
血钞票	1664859
金色年华	12128614
金融办	18263913
鬼吹灯外传4：昆仑灵骨	15611944
罗生门	13670302
光棍老猫的爱情脱贫日志	13660827
大宋王朝·天下布武	18438389
甘特的冬天	10922985
针芒	11880629
江山如画：与子偕老	13097967
父亲的肖像	10504961
神眼小法师	11875772
睡前恐怖故事12：赶死	16428689
藏身孤星的你	13958652
牛仔守护者	12106929
鬼吹灯外传1：楚幽王陵	15611809
犬的证词	11175098
沉爱	11092325
血月的华尔兹	8277477
奇货	11812588
史航说参谋助手论	10931398
楼尸派对	14612104
王晋康自选集（全三册）	11016089
都市人家	11966249
程锡的故事	10723643
儒林外史	7734029
临风的泥香	16132399
双簧	17029342
神秘大陆系列·一枚黄金蝶	12421845
跟特种兵老爸去冒险3	10504826
安娜·卡列尼娜（上）	13470828
不为回首，只为阑珊	10417937
“骆驼”的罗曼史	15899900
情殇鬼恋	11016883
下一个爱人	13104063
背着你飞越江河	17003570
飘雪	10210167
每一个沉溺于爱情的人，最后都输给了谎言	16999690
神剑争霸	11794295
汤姆·索亚历险记	8873975
前生4	10760863
福尔摩斯归来	11250207
末日卷轴	1082114
百草山	16911358
我是老枪	16930220
如履薄冰	16816783
欢乐颂.典藏版 1	20429697
洛杉矶最后的古怪一日	9820118
石佛镇（1）	16223287
战国纵横：鬼谷子的局 7	7486390
胡同	16815475
桐花中路私立协济医院怪谈	8424751
卡夫卡全集 · 第2卷：长篇小说《失踪者》《诉讼》	18677770
乱世民清陈家沟	17089309
欲望高速	16812806
The Mill on the Floss（弗洛斯河上的磨坊）	9939863
静静的月亮山	16124224
幕后王者	11793467
无声的惊雷	14634466
陷阱：比传销更可怕的骗术江湖	10482474
飞龙小队系列：诡秘的黑斑人	15165097
静静的月亮山	12423754
我的兄弟姐妹（下）	12462178
小姐们	11761679
神秘岛	10696804
零度寻找	13602394
如若相见	16592190
漩涡	16685088
双生恶魔？	19721634
斋月和斋月以后的故事	16262178
汤姆·索耶在国外	11225888
落魂剑传奇	11779942
北方有佳人	14841820
爱的教育	10370238
首席女法医15：停尸间日志	18876879
消失的王陵	10483123
Jane Eyre（简·爱）	7533672
爱，会说谎的灰	13465189
史上第一网游	12106106
幸福打在头上	11761736
纳尼亚传奇全集(中文全译版)(套装上下册)	13834036
闪婚	20311604
安娜	19720239
梦中的女人	10626701
都市穿越	16385010
幸好我们曾遇见	10590729
翻滚吧！皇宫	13230158
惊悚e族21：鬼来电	13412375
尘埃落定：纪念版	9067181
小东北嘎嘎酷之特别行动	15253634
错过错过再错过	16389013
剑御容颜	13097886
The Moonstone（月亮宝石）	11081006
孤儿列车	11020439
万物的签名	9679478
致我们未曾妥协的青春	13266194
战国纵横：鬼谷子的局5	7480342
幻空花	9228290
荒宅迷兆	9868180
欧叶妮·格朗台	8374204
最后一个匈奴	17025189
一见你就笑	13605558
八十天环游地球	10697699
雾落	16939797
碑	13241173
爱，到此一游	11363481
第51幅油画	8049485
天上有棵爱情树（下）	17639699
盗墓手记	10433969
千年的约定	14613022
铁血顺风号	18301841
天地皇皇	11749567
死神女仆	19527490
小东北嘎嘎酷之大馋鬼扭曲的童年	15254362
Treasure Island（金银岛）	9082475
林中少年	15396229
较量	12127698
日瓦戈医生	13317765
未完成的肖像	17391051
云雀	11513829
人兽	10838428
病毒纪元	10864834
无夜边境	16072394
安吉拉：倒影里的爱情故事	10624368
情到深处人孤独	8845657
初恋爱	8159900
你好，旧时光：陪你到青春最后	9412950
琴腔	11064718
大宋中兴通俗演义	16291008
柳如是：如是我闻	11866039
起风的时候想起你	20269888
镜花魔生	6417108
醉汉的风·放逐·最后一名精神囚犯	17025457
红顶商人胡雪岩	9180441
我的老师是特种兵2：军事夏令营	15453220
兰陵缭乱：完美典藏版	16893741
簪中录4: 大结局 	12203267
刹那芳华：我大学里流浪的青春	12631797
西天	19641421
了不起的盖茨比	10166363
有你，时光恰好(完结篇)	13913332
在途的小鸟	10628260
继承者们（上）	20414246
屈身求爱	11226468
变形记	10359199
惊悚e族22：变态的美感	13411617
轻颤栗	16778198
The Blazing World（燃烧的世界）	12990616
汤姆叔叔的小屋	18302717
谢谢你，最美的岁月陪我走过	11022053
爱	11229413
失眠症患者的夜晚	15197472
墨染之泪	15339785
中国式搜索	16473004
午后蝶	13104497
灰马酒店	16778445
幸福的手指	10679073
Moll Flanders（摩尔·弗兰德斯）	14260623
诡魅湘西	10198423
贺享雍文集第三卷	11797828
冷少专宠：落跑新娘	13133771
五虎将	11459274
假戏真做	12112056
围猎黑色星期五	19722079
老千3——鬼计神偷	13900343
杜利特医生航海记	7214931
大谋小计五十年：诸葛亮传（第3部）	6094084
多情客游记	5511019
当你生病时，你会想起谁？	19064151
隐字书	14190107
战国纵横：鬼谷子的局8	7480934
深圳，没有勇气再说爱	9511127
近在咫尺	12107311
傲慢与偏见	10370128
再婚女子	13897036
格列佛游记	13468638
九十九只彩线娃娃	13985085
太阳照常升起	13304198
正道	10496477
白玉堂：逍遥楼	9792931
日瓦戈医生（下卷）	13318473
是天使还是魔鬼	12107999
前生1	10760270
北溟曲	11938958
月亮灼伤了谁	11806797
乞力马扎罗的雪	13305025
虚幻侠影	11050395
黄指印灰指印	8741462
大宋经济人	16388024
惟妙惟肖的爱情	7037088
梦幻飞刀	13134505
总裁的宠儿	11868093
健吾收音机	11392991
第22号妻子	10560920
爱你到最后一个晴天	10758928
听说月光找到了海洋	13915047
美食狩猎人	15243154
半夜谁来敲门	14847233
西夏死书3	1222567
谁在时间的彼岸	6119436
伪装者	8771079
少年维特的烦恼	17391196
豪门契约：女人你别想逃	13236465
宫心术：帝君艳后	13235750
远心衡曲线	13759489
我想有个家	12066107
骚动之秋	18216331
异海	12703614
契丹王朝	16933428
云中歌1：绿罗裙	12824981
地火	10512465
关东山复仇记	11903159
庆典	10838650
十二月三十一日	19685889
怪谈	14757663
若天有情	11970354
我和参姑娘有个约会	13104262
荒原狼	10352773
天那边有颗明亮的星	17032933
英雄不死	15453502
Northanger Abbey（诺桑觉寺）	15563223
奥斯维辛骷髅俱乐部	13346571
丫山传奇（李幼谦故事集卷二）	11599334
神探夏洛克·2	18751301
罪与罚（下）（经典世界名著）	10696135
缓刑	7523127
简·爱（经典世界名著）	10662273
青春无极	16139962
八加一餐厅	15582377
大栅栏	16908079
总裁别爱我	11815701
十城记	11737271
泰利耶公馆及其他	11221617
心中有鬼	13878196
大谋小计五十年：诸葛亮传（第4部）	6097472
我杀死了我自己（短篇小说集）	12454547
秀女诱君：美人斗	13146675
糖溪帮探险记.第3季：奇怪的印第安人	9953426
福尔摩斯探案集4	9870968
权力天平	16185129
羊脂球	10662313
人狼国度3：诸神之战	15798013
少年维特的烦恼	8416546
海德格大夫的实验	10629030
交锋：多年悬案引来的江湖围剿	10447046
A Connecticut Yankee in King Arthur's Court（误闯亚瑟王宫）	12990284
契约之吻：我的专属经纪人	13135706
许茂和他的女儿们	809851
维京情史	12110787
上海姑娘在巴黎	14053165
将上当进行到底	14075869
网游之兔子就吃窝边草	11277656
红顶商人胡雪岩4：时局中的商机	9194602
恋爱年龄	10630317
虎变	16819881
漫长的惊悚	10290746
黄昏之城	3336660
第一现场	16793521
大秦帝国·第二部 国命纵横（下）	11822248
风起天下惊	16386562
合唱	17900209
一个青年艺术家的画像（英文版）	11840043
流火时代	11895609
海底两万里	11844742
天劫报	11017800
Anne of the Island（女大学生安妮）	15214600
梦江南	10289923
西夏	8237797
行走的信仰	10287769
鲁滨孙漂流记	11950230
金老虎	17222287
老林	15607964
吹牛大王历险记	19521132
杀八方	16146620
变形记	10166542
过河入林	13304031
斋月和斋月以后的故事	12423886
血舞风花	13711145
砍断魔抓	11992418
纳尼亚传奇系列4：卡斯宾王子	14245351
吉祥如意	16069767
A Portrait of the Artist as a Young Man（青年艺术家的画像）	15563138
小妇人	10613853
恋爱中的骗子	13348421
爱的期限：一万年	11363719
像天一样高	17004385
The Black Arrow（黑箭）	10089718
最后一课（经典世界名著）	10614084
Little Women（小妇人）	9939057
公主妈咪	16618099
茱莉亚·琼斯日记1——我最糟糕的一天	12346428
废墟	10743738
医学院里的诡异事	6746430
幸好遇见，你未娶我未嫁	5238298
撞痕	20299368
七剑十三侠	16283455
中国历代通俗演义故事——吴三桂演义	16285883
布拉格旧事	13669100
歌利亚	11222100
春天	13409981
湖城魅影	15957002
来自天堂的笑声	12251900
一座消失的村庄	10867135
山冈	9485119
爱恋五千年	13255168
海蒂	11893590
汤姆的救赎	12107617
神秘大陆系列·莱茵河的囚徒	12427617
极地重生	18954972
恶少缠爱之公主不嫁	13229936
血战黎明	14159300
杜克的抉择	12109299
假戏真做	8955054
逆我者亡	19096028
The Life And Adventures Of Nicholas Nickleby（尼古拉斯·尼克尔贝）	14201671
飞龙小队系列：死亡黑三角的恶魔风暴	15165320
秋天的爱	16926079
绣娘皇后升职记	11806134
华灯初上	11916524
予你眠缠终老	16696269
特工冷妃：肆殇天下	16781340
生命里的甲乙丙	13101737
玛洛亚	11897297
入侵	11222818
我的传奇人生：赌徒笔记	17271717
乔女	16934110
二刻拍案惊奇（精装典藏本）	15821994
豪门真情	12110318
我从未出生	1602469
喜鹊窝	17279529
混在古城的那些年	13097038
吝啬鬼	11229996
幸子	15817663
从囚徒到省委书记	10513504
带上她的眼睛	19529742
燕归来惊蛰的年华	12455885
提堂	13420973
抗命.2	15197328
梦的尽头，爱的谜底	8487351
乞儿弄蝶	16775166
广袤的足迹	13462881
我的七个堂兄弟	9738517
盘古复义（下册）	17006404
掉伞天	9319453
光头姑娘马里基塔	10630125
毕业歌	9184462
贵族之家（经典世界名著）	10686031
The Red Badge of Courage（红色英勇勋章）	10673902
黑白之间	12191889
黑道（下部）	16815621
老警	16796731
女貌男豺	12111049
妖王	11055457
桃儿杏儿	10856019
江水流	11954866
迷幻果实Lotus Dealer～气泡恋人2	12613371
我们爱狼	14016015
一见司徒误终生	15859462
无极较量	13614635
七年（上）	12454685
陪伴是最长情的告白	14111679
美与孽	10166271
十七岁向谁宣战	9188246
平台	10547864
命中注定之我的公主	11793165
你的专情，我的蛊	16612633
Swann's Way（在斯万家那边）	7946418
绝对不说受不了	11394101
愿你成为自己的太阳	10883514
嫁在天国的女人	19035398
被狙击的灰姑娘	10509852
寻找精神家园	11225909
龙逆穹宇	13134156
遇见爱	14111450
是魔·非魔	11017142
手卷	18117506
中小学生必读丛书：呼兰河传	13405974
心不在焉的僵持	15647447
结婚以后 (婚恋是：03)	10592073
爱神射错箭	11989238
纳尼亚传奇系列1：魔法师的外甥	14244745
曼哈顿的中国村	16149567
六六班的小破事儿	18531083
红楼梦	17025946
地球大炮	19530285
倾斜的天空	8578337
川流	602750
绿野仙踪	6961912
少女地獄	8360698
纳尼亚传奇全集（英文原版）（套装上下册）	13767394
囚徒的长征	9783971
一千零一夜	10637153
挑战逻辑极限的经典推理故事	11730861
让我守护你	12108738
古宅	13652692
沉香	10875819
Anne of Windy Poplars（风吹白杨的安妮）	15214414
背后	13840757
搜宝奇兵	11018343
无处安放的童年	1072181
四季随笔	11223190
梦的尽头，爱的谜底	13653610
悬念集·卷31·奇岩城	5684220
救赎	12109460
像花儿一样自由开放	12244936
不认输	13652526
柳林风声（英文原版）	17367606
永不，永不说再见	11166371
双城记	18301148
蝌蚪	18553248
美国悲剧	13349679
独步一宅	10591922
桃花	12001148
鱼纹身的女孩	9346048
爱倾城	8554089
娇红记	18123262
加拿大·安妮的祈祷	12127225
良言写意	11074483
战争之潮	9606764
异海2	12703523
所有的幸福和美好都值得期许	7276301
纯美小说集：东湾村的小伙伴 (少儿纯美小说系列)	17070207
最后两个僰人	16459106
温柔的牛皮	15204186
婚心未泯	11510395
状态	10291381
爱伦坡短篇小说集	10913046
匹克威克外传（下）（经典世界名著）	10685913
天使的嫁纱	10199861
远去的硝烟	11879916
莫莉与蘑菇镇	12463870
云虚传	11880193
萨朗短中篇	12457499
二十年后	13316409
白雪乌鸦	10545757
创婚日记	13461141
绝对角力	13759133
七年（上下）	12342715
重新学话	14195117
间岛铁骑	12344169
御剑天下	10492192
小说史话	10004392
张居正：全4册	12204955
欢喜冤家	12110031
西双版纳铜甲尸	15615183
绝密卧底	10448893
霸天道途	11938366
离魄	11993892
羊角号	18230694
龙图腾	11896081
但愿从未让你知道，我曾那么爱你	10509197
40岁，另谋高就	11391521
错爱恶魔首席	13229120
杀火车	7193369
The Fall of the House of Usher（厄舍府的崩塌）	11080080
人生若只初相见	10592807
漂亮朋友	5444392
再爱一次	13351638
亲吻与诉说	10233580
忏悔录	13469024
微暗的火	13351181
楼兰迷踪之荒漠高楼	17205788
浮士德博士	13350321
勒索者不开枪	10411536
江湖三十年（第2卷）：天下第一帮	11517579
欢喜	13462940
狼皮图1：铁血五令	20270480
暗战绝杀	16826287
鬼吹灯前传：巴蜀蛊墓	15611405
无影灯	13351987
战国纵横：鬼谷子的局	7480072
你是我梦里的得到与失去	18785319
行刑人尔依	17900089
不再让你孤单	11399347
官殇	16815294
烽火岛	10826214
白日做梦	13311922
爱上你等于爱上寂寞	14265004
小鹦依人	13959318
因为爱情	11230153
万历朝鲜战争	12064767
落日时分	10683616
2011年中国微型小说排行榜	13403113
艺桥倩影	13341603
我和侦探伯爵	16202439
迈克行动：经典插图本	15572534
第五级病毒	13652201
少女复仇记	16777395
隔洋	16994923
妻之物语	14964743
水魅	16818005
欢蹦乱跳龙十三	8905236
猿飞佐助	8482150
迷情之眼	11793575
那些年那些爱	16611396
橘梗的命运	11977179
突围	13358144
网游之姐不是虚胖是死壮	11277458
过龙兵	18226515
往事并非如烟	16235962
天使不曾离开	12612817
懦夫与野兽：佩格传奇（第一部）	16422816
爱的誓言	12111841
海狼	9888373
一起去水城	11780306
我轻声走向你的世界	12066462
茱莉亚·琼斯日记3：不能说的梦想	12346151
掀起的面纱	11223385
孤单	11224867
劣女戏豹	16611702
蝴蝶公主	11917148
火山情人：一个传奇	10168457
意大利强盗	11219121
要么芬芳，要么枯萎	12454865
药爱（下）	10751654
赌门	10436159
鲁迅小说	11925810
青蛇	6706581
擎天之柱	13654051
秘密	10229149
大学有些事	16388369
答非所问	15581179
如果下辈子我还记得你	13763825
摩格街谋杀案	13303594
爱的力量	11222389
红死魔的面具	13887012
西去的骑手	19760119
离婚未遂	11993405
乌纱帽	16201270
生死场	18361265
百年好合：民国素人志	9351935
蔷薇前面	16934006
分手的流水账	15610721
成人礼	17193118
守日人	7482703
一夜之宿	10627907
金童话	17222923
蜗牛在指缝间行走	12466698
假如你不够爱我	11257277
史上最牛公务员2	13708835
情不由己	16925122
布谷鸟的呼唤	20346033
清河川	16925655
阿瑟·梅琴奇幻惊悚故事集	8042306
战襄阳	9057072
关东山复仇记：雪冷与血热的较量	8402472
无可挽回	10625050
窥视地产卧底	12136053
杰米莱	278619
天若有情	12111684
跟特种兵老爸去冒险6	10505245
留在夏天	11948328
英雄地	16812364
华尔街少年	13334738
花河	12260139
竹影清风	17347997
黑郁金香	13316679
关山海	19687918
爱人同志	11938648
The Call of the Wild（荒野的呼唤）	7946666
蝶变	8406276
终极阳谋	16368029
曹墓天书	15339299
股市教父	9464718
厉冰冰奋斗记	11462514
战争与和平（上下）	15384638
麦子	894790
悲惨世界（下）	5471369
西魂	4501103
Mary Barton（玛丽·巴顿）	14260951
花谢花开又一年	18283250
送你一棵凤凰树	12000748
风祭彼岸花	16386247
功夫美女在学校	17072315
绝恋的迷宫	16818275
来访的陌生人	11393869
匪王2	16814557
天幕红尘	11277020
花火	10759020
三言	11622502
狄家将（下）	11455234
墙头草	16774862
The Vicomte of Bragelonne（布拉热洛纳子爵）	11909572
苍黄	18319673
遇见亿万分之一的你	7259451
苏家坳纪事	20296750
大河	19760284
向阳孤儿院4	10761230
智齿	20597512
天良	17222320
继承者们（下）	7189615
樱花之夏	13362146
绿山墙的安妮	18305560
欲望高速	16812806
The Mill on the Floss（弗洛斯河上的磨坊）	9939863
静静的月亮山	16124224
幕后王者	11793467
无声的惊雷	14634466
陷阱：比传销更可怕的骗术江湖	10482474
飞龙小队系列：诡秘的黑斑人	15165097
静静的月亮山	12423754
我的兄弟姐妹（下）	12462178
小姐们	11761679
神秘岛	10696804
零度寻找	13602394
如若相见	16592190
漩涡	16685088
双生恶魔？	19721634
斋月和斋月以后的故事	16262178
汤姆·索耶在国外	11225888
落魂剑传奇	11779942
北方有佳人	14841820
爱的教育	10370238
首席女法医15：停尸间日志	18876879
消失的王陵	10483123
Jane Eyre（简·爱）	7533672
爱，会说谎的灰	13465189
史上第一网游	12106106
幸福打在头上	11761736
纳尼亚传奇全集(中文全译版)(套装上下册)	13834036
闪婚	20311604
安娜	19720239
梦中的女人	10626701
都市穿越	16385010
幸好我们曾遇见	10590729
翻滚吧！皇宫	13230158
惊悚e族21：鬼来电	13412375
尘埃落定：纪念版	9067181
小东北嘎嘎酷之特别行动	15253634
错过错过再错过	16389013
剑御容颜	13097886
The Moonstone（月亮宝石）	11081006
孤儿列车	11020439
万物的签名	9679478
致我们未曾妥协的青春	13266194
战国纵横：鬼谷子的局5	7480342
幻空花	9228290
荒宅迷兆	9868180
欧叶妮·格朗台	8374204
最后一个匈奴	17025189
一见你就笑	13605558
八十天环游地球	10697699
雾落	16939797
碑	13241173
爱，到此一游	11363481
第51幅油画	8049485
天上有棵爱情树（下）	17639699
盗墓手记	10433969
千年的约定	14613022
铁血顺风号	18301841
天地皇皇	11749567
死神女仆	19527490
小东北嘎嘎酷之大馋鬼扭曲的童年	15254362
Treasure Island（金银岛）	9082475
林中少年	15396229
较量	12127698
日瓦戈医生	13317765
未完成的肖像	17391051
云雀	11513829
人兽	10838428
病毒纪元	10864834
无夜边境	16072394
安吉拉：倒影里的爱情故事	10624368
情到深处人孤独	8845657
初恋爱	8159900
你好，旧时光：陪你到青春最后	9412950
琴腔	11064718
大宋中兴通俗演义	16291008
柳如是：如是我闻	11866039
起风的时候想起你	20269888
镜花魔生	6417108
醉汉的风·放逐·最后一名精神囚犯	17025457
红顶商人胡雪岩	9180441
我的老师是特种兵2：军事夏令营	15453220
兰陵缭乱：完美典藏版	16893741
簪中录4: 大结局 	12203267
刹那芳华：我大学里流浪的青春	12631797
西天	19641421
了不起的盖茨比	10166363
有你，时光恰好(完结篇)	13913332
在途的小鸟	10628260
继承者们（上）	20414246
屈身求爱	11226468
变形记	10359199
惊悚e族22：变态的美感	13411617
轻颤栗	16778198
The Blazing World（燃烧的世界）	12990616
汤姆叔叔的小屋	18302717
谢谢你，最美的岁月陪我走过	11022053
爱	11229413
失眠症患者的夜晚	15197472
墨染之泪	15339785
中国式搜索	16473004
午后蝶	13104497
灰马酒店	16778445
幸福的手指	10679073
Moll Flanders（摩尔·弗兰德斯）	14260623
诡魅湘西	10198423
贺享雍文集第三卷	11797828
冷少专宠：落跑新娘	13133771
五虎将	11459274
假戏真做	12112056
围猎黑色星期五	19722079
老千3——鬼计神偷	13900343
杜利特医生航海记	7214931
大谋小计五十年：诸葛亮传（第3部）	6094084
多情客游记	5511019
当你生病时，你会想起谁？	19064151
隐字书	14190107
战国纵横：鬼谷子的局8	7480934
深圳，没有勇气再说爱	9511127
近在咫尺	12107311
傲慢与偏见	10370128
再婚女子	13897036
格列佛游记	13468638
九十九只彩线娃娃	13985085
太阳照常升起	13304198
正道	10496477
白玉堂：逍遥楼	9792931
日瓦戈医生（下卷）	13318473
是天使还是魔鬼	12107999
前生1	10760270
北溟曲	11938958
月亮灼伤了谁	11806797
乞力马扎罗的雪	13305025
虚幻侠影	11050395
黄指印灰指印	8741462
大宋经济人	16388024
惟妙惟肖的爱情	7037088
梦幻飞刀	13134505
总裁的宠儿	11868093
健吾收音机	11392991
第22号妻子	10560920
爱你到最后一个晴天	10758928
听说月光找到了海洋	13915047
美食狩猎人	15243154
半夜谁来敲门	14847233
西夏死书3	1222567
谁在时间的彼岸	6119436
伪装者	8771079
少年维特的烦恼	17391196
豪门契约：女人你别想逃	13236465
宫心术：帝君艳后	13235750
远心衡曲线	13759489
我想有个家	12066107
骚动之秋	18216331
异海	12703614
契丹王朝	16933428
云中歌1：绿罗裙	12824981
地火	10512465
关东山复仇记	11903159
庆典	10838650
十二月三十一日	19685889
怪谈	14757663
若天有情	11970354
我和参姑娘有个约会	13104262
荒原狼	10352773
天那边有颗明亮的星	17032933
英雄不死	15453502
Northanger Abbey（诺桑觉寺）	15563223
奥斯维辛骷髅俱乐部	13346571
丫山传奇（李幼谦故事集卷二）	11599334
神探夏洛克·2	18751301
罪与罚（下）（经典世界名著）	10696135
缓刑	7523127
简·爱（经典世界名著）	10662273
青春无极	16139962
八加一餐厅	15582377
大栅栏	16908079
总裁别爱我	11815701
十城记	11737271
泰利耶公馆及其他	11221617
心中有鬼	13878196
大谋小计五十年：诸葛亮传（第4部）	6097472
我杀死了我自己（短篇小说集）	12454547
秀女诱君：美人斗	13146675
糖溪帮探险记.第3季：奇怪的印第安人	9953426
福尔摩斯探案集4	9870968
权力天平	16185129
羊脂球	10662313
人狼国度3：诸神之战	15798013
少年维特的烦恼	8416546
海德格大夫的实验	10629030
交锋：多年悬案引来的江湖围剿	10447046
A Connecticut Yankee in King Arthur's Court（误闯亚瑟王宫）	12990284
契约之吻：我的专属经纪人	13135706
许茂和他的女儿们	809851
维京情史	12110787
上海姑娘在巴黎	14053165
将上当进行到底	14075869
网游之兔子就吃窝边草	11277656
红顶商人胡雪岩4：时局中的商机	9194602
恋爱年龄	10630317
虎变	16819881
漫长的惊悚	10290746
黄昏之城	3336660
第一现场	16793521
大秦帝国·第二部 国命纵横（下）	11822248
风起天下惊	16386562
合唱	17900209
一个青年艺术家的画像（英文版）	11840043
流火时代	11895609
海底两万里	11844742
天劫报	11017800
Anne of the Island（女大学生安妮）	15214600
梦江南	10289923
西夏	8237797
行走的信仰	10287769
鲁滨孙漂流记	11950230
金老虎	17222287
老林	15607964
吹牛大王历险记	19521132
杀八方	16146620
变形记	10166542
过河入林	13304031
斋月和斋月以后的故事	12423886
血舞风花	13711145
砍断魔抓	11992418
纳尼亚传奇系列4：卡斯宾王子	14245351
吉祥如意	16069767
A Portrait of the Artist as a Young Man（青年艺术家的画像）	15563138
小妇人	10613853
恋爱中的骗子	13348421
爱的期限：一万年	11363719
像天一样高	17004385
The Black Arrow（黑箭）	10089718
最后一课（经典世界名著）	10614084
Little Women（小妇人）	9939057
公主妈咪	16618099
茱莉亚·琼斯日记1——我最糟糕的一天	12346428
废墟	10743738
医学院里的诡异事	6746430
幸好遇见，你未娶我未嫁	5238298
撞痕	20299368
七剑十三侠	16283455
中国历代通俗演义故事——吴三桂演义	16285883
布拉格旧事	13669100
歌利亚	11222100
春天	13409981
湖城魅影	15957002
来自天堂的笑声	12251900
一座消失的村庄	10867135
山冈	9485119
爱恋五千年	13255168
海蒂	11893590
汤姆的救赎	12107617
神秘大陆系列·莱茵河的囚徒	12427617
极地重生	18954972
恶少缠爱之公主不嫁	13229936
血战黎明	14159300
杜克的抉择	12109299
假戏真做	8955054
逆我者亡	19096028
The Life And Adventures Of Nicholas Nickleby（尼古拉斯·尼克尔贝）	14201671
飞龙小队系列：死亡黑三角的恶魔风暴	15165320
秋天的爱	16926079
绣娘皇后升职记	11806134
华灯初上	11916524
予你眠缠终老	16696269
特工冷妃：肆殇天下	16781340
生命里的甲乙丙	13101737
玛洛亚	11897297
入侵	11222818
我的传奇人生：赌徒笔记	17271717
乔女	16934110
二刻拍案惊奇（精装典藏本）	15821994
豪门真情	12110318
我从未出生	1602469
喜鹊窝	17279529
混在古城的那些年	13097038
吝啬鬼	11229996
幸子	15817663
从囚徒到省委书记	10513504
带上她的眼睛	19529742
燕归来惊蛰的年华	12455885
提堂	13420973
抗命.2	15197328
梦的尽头，爱的谜底	8487351
乞儿弄蝶	16775166
广袤的足迹	13462881
我的七个堂兄弟	9738517
盘古复义（下册）	17006404
掉伞天	9319453
光头姑娘马里基塔	10630125
毕业歌	9184462
贵族之家（经典世界名著）	10686031
The Red Badge of Courage（红色英勇勋章）	10673902
黑白之间	12191889
黑道（下部）	16815621
老警	16796731
女貌男豺	12111049
妖王	11055457
桃儿杏儿	10856019
江水流	11954866
迷幻果实Lotus Dealer～气泡恋人2	12613371
我们爱狼	14016015
一见司徒误终生	15859462
无极较量	13614635
七年（上）	12454685
陪伴是最长情的告白	14111679
美与孽	10166271
十七岁向谁宣战	9188246
平台	10547864
命中注定之我的公主	11793165
你的专情，我的蛊	16612633
Swann's Way（在斯万家那边）	7946418
绝对不说受不了	11394101
愿你成为自己的太阳	10883514
嫁在天国的女人	19035398
被狙击的灰姑娘	10509852
寻找精神家园	11225909
龙逆穹宇	13134156
遇见爱	14111450
是魔·非魔	11017142
手卷	18117506
中小学生必读丛书：呼兰河传	13405974
心不在焉的僵持	15647447
结婚以后 (婚恋是：03)	10592073
爱神射错箭	11989238
纳尼亚传奇系列1：魔法师的外甥	14244745
曼哈顿的中国村	16149567
六六班的小破事儿	18531083
红楼梦	17025946
地球大炮	19530285
倾斜的天空	8578337
川流	602750
绿野仙踪	6961912
少女地獄	8360698
纳尼亚传奇全集（英文原版）（套装上下册）	13767394
囚徒的长征	9783971
一千零一夜	10637153
挑战逻辑极限的经典推理故事	11730861
让我守护你	12108738
古宅	13652692
沉香	10875819
Anne of Windy Poplars（风吹白杨的安妮）	15214414
背后	13840757
搜宝奇兵	11018343
无处安放的童年	1072181
四季随笔	11223190
梦的尽头，爱的谜底	13653610
悬念集·卷31·奇岩城	5684220
救赎	12109460
像花儿一样自由开放	12244936
不认输	13652526
柳林风声（英文原版）	17367606
永不，永不说再见	11166371
双城记	18301148
蝌蚪	18553248
美国悲剧	13349679
独步一宅	10591922
桃花	12001148
鱼纹身的女孩	9346048
爱倾城	8554089
娇红记	18123262
加拿大·安妮的祈祷	12127225
良言写意	11074483
战争之潮	9606764
异海2	12703523
所有的幸福和美好都值得期许	7276301
纯美小说集：东湾村的小伙伴 (少儿纯美小说系列)	17070207
最后两个僰人	16459106
温柔的牛皮	15204186
婚心未泯	11510395
状态	10291381
爱伦坡短篇小说集	10913046
匹克威克外传（下）（经典世界名著）	10685913
天使的嫁纱	10199861
远去的硝烟	11879916
莫莉与蘑菇镇	12463870
云虚传	11880193
萨朗短中篇	12457499
二十年后	13316409
白雪乌鸦	10545757
创婚日记	13461141
绝对角力	13759133
七年（上下）	12342715
重新学话	14195117
间岛铁骑	12344169
御剑天下	10492192
小说史话	10004392
张居正：全4册	12204955
欢喜冤家	12110031
西双版纳铜甲尸	15615183
绝密卧底	10448893
霸天道途	11938366
离魄	11993892
羊角号	18230694
龙图腾	11896081
但愿从未让你知道，我曾那么爱你	10509197
40岁，另谋高就	11391521
错爱恶魔首席	13229120
杀火车	7193369
The Fall of the House of Usher（厄舍府的崩塌）	11080080
人生若只初相见	10592807
漂亮朋友	5444392
再爱一次	13351638
亲吻与诉说	10233580
忏悔录	13469024
微暗的火	13351181
楼兰迷踪之荒漠高楼	17205788
浮士德博士	13350321
勒索者不开枪	10411536
江湖三十年（第2卷）：天下第一帮	11517579
欢喜	13462940
狼皮图1：铁血五令	20270480
暗战绝杀	16826287
鬼吹灯前传：巴蜀蛊墓	15611405
无影灯	13351987
战国纵横：鬼谷子的局	7480072
你是我梦里的得到与失去	18785319
行刑人尔依	17900089
不再让你孤单	11399347
官殇	16815294
烽火岛	10826214
白日做梦	13311922
爱上你等于爱上寂寞	14265004
小鹦依人	13959318
因为爱情	11230153
万历朝鲜战争	12064767
落日时分	10683616
2011年中国微型小说排行榜	13403113
艺桥倩影	13341603
我和侦探伯爵	16202439
迈克行动：经典插图本	15572534
第五级病毒	13652201
少女复仇记	16777395
隔洋	16994923
妻之物语	14964743
水魅	16818005
欢蹦乱跳龙十三	8905236
猿飞佐助	8482150
迷情之眼	11793575
那些年那些爱	16611396
橘梗的命运	11977179
突围	13358144
网游之姐不是虚胖是死壮	11277458
过龙兵	18226515
往事并非如烟	16235962
天使不曾离开	12612817
懦夫与野兽：佩格传奇（第一部）	16422816
爱的誓言	12111841
海狼	9888373
一起去水城	11780306
我轻声走向你的世界	12066462
茱莉亚·琼斯日记3：不能说的梦想	12346151
掀起的面纱	11223385
孤单	11224867
劣女戏豹	16611702
蝴蝶公主	11917148
火山情人：一个传奇	10168457
意大利强盗	11219121
要么芬芳，要么枯萎	12454865
药爱（下）	10751654
赌门	10436159
鲁迅小说	11925810
青蛇	6706581
擎天之柱	13654051
秘密	10229149
大学有些事	16388369
答非所问	15581179
如果下辈子我还记得你	13763825
摩格街谋杀案	13303594
爱的力量	11222389
红死魔的面具	13887012
西去的骑手	19760119
离婚未遂	11993405
乌纱帽	16201270
生死场	18361265
百年好合：民国素人志	9351935
蔷薇前面	16934006
分手的流水账	15610721
成人礼	17193118
守日人	7482703
一夜之宿	10627907
金童话	17222923
蜗牛在指缝间行走	12466698
假如你不够爱我	11257277
史上最牛公务员2	13708835
情不由己	16925122
布谷鸟的呼唤	20346033
清河川	16925655
阿瑟·梅琴奇幻惊悚故事集	8042306
战襄阳	9057072
关东山复仇记：雪冷与血热的较量	8402472
无可挽回	10625050
窥视地产卧底	12136053
杰米莱	278619
天若有情	12111684
跟特种兵老爸去冒险6	10505245
留在夏天	11948328
英雄地	16812364
华尔街少年	13334738
花河	12260139
竹影清风	17347997
黑郁金香	13316679
关山海	19687918
爱人同志	11938648
The Call of the Wild（荒野的呼唤）	7946666
蝶变	8406276
终极阳谋	16368029
曹墓天书	15339299
股市教父	9464718
厉冰冰奋斗记	11462514
战争与和平（上下）	15384638
麦子	894790
悲惨世界（下）	5471369
西魂	4501103
Mary Barton（玛丽·巴顿）	14260951
花谢花开又一年	18283250
送你一棵凤凰树	12000748
风祭彼岸花	16386247
功夫美女在学校	17072315
绝恋的迷宫	16818275
来访的陌生人	11393869
匪王2	16814557
天幕红尘	11277020
花火	10759020
三言	11622502
狄家将（下）	11455234
墙头草	16774862
The Vicomte of Bragelonne（布拉热洛纳子爵）	11909572
苍黄	18319673
遇见亿万分之一的你	7259451
苏家坳纪事	20296750
大河	19760284
向阳孤儿院4	10761230
智齿	20597512
天良	17222320
继承者们（下）	7189615
樱花之夏	13362146
绿山墙的安妮	18305560